%!PS-Adobe-2.0 EPSF-2.0
%%BoundingBox:  0 0 567 342
%%Title: ./Canvas_1.eps: Canvas_1
%%Creator: ROOT Version 6.04/08
%%CreationDate: Sat Mar  4 13:44:54 2017
%%DocumentNeededResources: ProcSet (FontSetInit)
%%EndComments
%%BeginProlog
80 dict begin
/s {stroke} def /l {lineto} def /m {moveto} def /t {translate} def
/r {rotate} def /rl {roll}  def /R {repeat} def
/d {rlineto} def /rm {rmoveto} def /gr {grestore} def /f {eofill} def
/c {setrgbcolor} def /black {0 setgray} def /sd {setdash} def
/cl {closepath} def /sf {scalefont setfont} def /lw {setlinewidth} def
/box {m dup 0 exch d exch 0 d 0 exch neg d cl} def
/NC{systemdict begin initclip end}def/C{NC box clip newpath}def
/bl {box s} def /bf {gsave box gsave f grestore 1 lw [] 0 sd s grestore} def /Y { 0 exch d} def /X { 0 d} def 
/K {{pop pop 0 moveto} exch kshow} bind def
/ita {/ang 15 def gsave [1 0 ang dup sin exch cos div 1 0 0] concat} def 
/mp {newpath /y exch def /x exch def} def
/side {[w .77 mul w .23 mul] .385 w mul sd w 0 l currentpoint t -144 r} def
/mr {mp x y w2 0 360 arc} def /m24 {mr s} def /m20 {mr f} def
/mb {mp x y w2 add m w2 neg 0 d 0 w neg d w 0 d 0 w d cl} def
/mt {mp x y w2 add m w2 neg w neg d w 0 d cl} def
/m21 {mb f} def /m25 {mb s} def /m22 {mt f} def /m26{mt s} def
/m23 {mp x y w2 sub m w2 w d w neg 0 d cl f} def
/m27 {mp x y w2 add m w3 neg w2 neg d w3 w2 neg d w3 w2 d cl s} def
/m28 {mp x w2 sub y w2 sub w3 add m w3 0 d  0 w3 neg d w3 0 d 0 w3 d w3 0 d  0 w3 d w3 neg 0 d 0 w3 d w3 neg 0 d 0 w3 neg d w3 neg 0 d cl s } def
/m29 {mp gsave x w2 sub y w2 add w3 sub m currentpoint t 4 {side} repeat cl fill gr} def
/m30 {mp gsave x w2 sub y w2 add w3 sub m currentpoint t 4 {side} repeat cl s gr} def
/m31 {mp x y w2 sub m 0 w d x w2 sub y m w 0 d x w2 sub y w2 add m w w neg d x w2 sub y w2 sub m w w d s} def
/m32 {mp x y w2 sub m w2 w d w neg 0 d cl s} def
/m33 {mp x y w2 add m w3 neg w2 neg d w3 w2 neg d w3 w2 d cl f} def
/m34 {mp x w2 sub y w2 sub w3 add m w3 0 d  0 w3 neg d w3 0 d 0 w3 d w3 0 d  0 w3 d w3 neg 0 d 0 w3 d w3 neg 0 d 0 w3 neg d w3 neg 0 d cl f } def
/m2 {mp x y w2 sub m 0 w d x w2 sub y m w 0 d s} def
/m5 {mp x w2 sub y w2 sub m w w d x w2 sub y w2 add m w w neg d s} def
%%IncludeResource: ProcSet (FontSetInit)
%%IncludeResource: font Times-Roman
%%IncludeResource: font Times-Italic
%%IncludeResource: font Times-Bold
%%IncludeResource: font Times-BoldItalic
%%IncludeResource: font Helvetica
%%IncludeResource: font Helvetica-Oblique
%%IncludeResource: font Helvetica-Bold
%%IncludeResource: font Helvetica-BoldOblique
%%IncludeResource: font Courier
%%IncludeResource: font Courier-Oblique
%%IncludeResource: font Courier-Bold
%%IncludeResource: font Courier-BoldOblique
%%IncludeResource: font Symbol
%%IncludeResource: font ZapfDingbats
/reEncode {exch findfont dup length dict begin {1 index /FID eq  {pop pop} {def} ifelse } forall /Encoding exch def currentdict end dup /FontName get exch definefont pop } def [/Times-Bold /Times-Italic /Times-BoldItalic /Helvetica /Helvetica-Oblique
 /Helvetica-Bold /Helvetica-BoldOblique /Courier /Courier-Oblique /Courier-Bold /Courier-BoldOblique /Times-Roman /AvantGarde-Book /AvantGarde-BookOblique /AvantGarde-Demi /AvantGarde-DemiOblique /Bookman-Demi /Bookman-DemiItalic /Bookman-Light
 /Bookman-LightItalic /Helvetica-Narrow /Helvetica-Narrow-Bold /Helvetica-Narrow-BoldOblique /Helvetica-Narrow-Oblique /NewCenturySchlbk-Roman /NewCenturySchlbk-Bold /NewCenturySchlbk-BoldItalic /NewCenturySchlbk-Italic /Palatino-Bold
 /Palatino-BoldItalic /Palatino-Italic /Palatino-Roman ] {ISOLatin1Encoding reEncode } forall
%%EndProlog
%%BeginSetup
%%EndSetup
newpath  gsave  .25 .25 scale  gsave  0 0 t black[  ] 0 sd 3 lw 1 1 1 c 2268 1367 0 0 bf black 1 1 1 c 1814 1094 227 137 bf black 1814 1094 227 137 bl 1 1 1 c 1814 1094 227 137 bf black 1814 1094 227 137 bl 0 0 0.6 c 1 1 1 c black 0 0 0.6 c 227 137 m
 1376 X 3 Y 15 X -3 Y 15 X 4 Y 15 X -2 Y 15 X 3 Y 15 X 23 Y 15 X 95 Y 15 X 311 Y 15 X 549 Y 16 X 59 Y 15 X -589 Y 15 X -335 Y 15 X -100 Y 15 X -16 Y 15 X -2 Y 227 X s black 227 137 m 1814 X s 227 170 m -33 Y s 302 153 m -16 Y s 378 153 m -16 Y s 454
 153 m -16 Y s 529 170 m -33 Y s 605 153 m -16 Y s 680 153 m -16 Y s 756 153 m -16 Y s 831 170 m -33 Y s 907 153 m -16 Y s 983 153 m -16 Y s 1058 153 m -16 Y s 1134 170 m -33 Y s 1209 153 m -16 Y s 1285 153 m -16 Y s 1361 153 m -16 Y s 1436 170 m -33
 Y s 1512 153 m -16 Y s 1587 153 m -16 Y s 1663 153 m -16 Y s 1739 170 m -33 Y s 1814 153 m -16 Y s 1890 153 m -16 Y s 1965 153 m -16 Y s 2041 170 m -33 Y s
 gsave  2268 1367 0 0 C 212.333 93.4265 t 0 r /Helvetica findfont 46.7133 sf 0 0 m (0) show NC gr 
 gsave  2268 1367 0 0 C 501.106 93.4265 t 0 r /Helvetica findfont 46.7133 sf 0 0 m (20) show NC gr 
 gsave  2268 1367 0 0 C 802.619 93.4265 t 0 r /Helvetica findfont 46.7133 sf 0 0 m (40) show NC gr 
 gsave  2268 1367 0 0 C 1108.38 93.4265 t 0 r /Helvetica findfont 46.7133 sf 0 0 m (60) show NC gr 
 gsave  2268 1367 0 0 C 1409.89 93.4265 t 0 r /Helvetica findfont 46.7133 sf 0 0 m (80) show NC gr 
 gsave  2268 1367 0 0 C 1698.66 93.4265 t 0 r /Helvetica findfont 46.7133 sf 0 0 m (100) show NC gr 
 gsave  2268 1367 0 0 C 2000.18 93.4265 t 0 r /Helvetica findfont 46.7133 sf 0 0 m (120) show NC gr  227 137 m 1094 Y s 281 137 m -54 X s 254 171 m -27 X s 254 206 m -27 X s 254 240 m -27 X s 254 275 m -27 X s 281 309 m -54 X s 254 344 m -27 X s 254
 379 m -27 X s 254 413 m -27 X s 254 448 m -27 X s 281 482 m -54 X s 254 517 m -27 X s 254 551 m -27 X s 254 586 m -27 X s 254 620 m -27 X s 281 655 m -54 X s 254 689 m -27 X s 254 724 m -27 X s 254 758 m -27 X s 254 793 m -27 X s 281 828 m -54 X s
 254 862 m -27 X s 254 897 m -27 X s 254 931 m -27 X s 254 966 m -27 X s 281 1000 m -54 X s 254 1035 m -27 X s 254 1069 m -27 X s 254 1104 m -27 X s 254 1138 m -27 X s 281 1173 m -54 X s 281 1173 m -54 X s 254 1208 m -27 X s
 gsave  2268 1367 0 0 C 186.853 123.153 t 0 r /Helvetica findfont 46.7133 sf 0 0 m (0) show NC gr 
 gsave  2268 1367 0 0 C 161.373 293.02 t 0 r /Helvetica findfont 46.7133 sf 0 0 m (50) show NC gr 
 gsave  2268 1367 0 0 C 135.893 467.133 t 0 r /Helvetica findfont 46.7133 sf 0 0 m (100) show NC gr 
 gsave  2268 1367 0 0 C 135.893 641.246 t 0 r /Helvetica findfont 46.7133 sf 0 0 m (150) show NC gr 
 gsave  2268 1367 0 0 C 135.893 811.112 t 0 r /Helvetica findfont 46.7133 sf 0 0 m (200) show NC gr 
 gsave  2268 1367 0 0 C 135.893 985.225 t 0 r /Helvetica findfont 46.7133 sf 0 0 m (250) show NC gr 
 gsave  2268 1367 0 0 C 135.893 1159.34 t 0 r /Helvetica findfont 46.7133 sf 0 0 m (300) show NC gr  1 1 1 c 454 221 293 1011 bf black 293 1011 m 454 X s 747 1011 m 221 Y s 747 1232 m -454 X s 293 1232 m -221 Y s 1 1 1 c black
 gsave  2268 1367 0 0 C 386.446 1184.82 t 0 r /Helvetica findfont 46.7133 sf 0 0 m (ewecal+ecal) show NC gr  293 1176 m 454 X s
 gsave  2268 1367 0 0 C 314.253 1129.61 t 0 r /Helvetica findfont 46.7133 sf 0 0 m (Entries ) show NC gr 
 gsave  2268 1367 0 0 C 611.519 1133.86 t 0 r /Helvetica findfont 46.7133 sf 0 0 m ( 2361) show NC gr 
 gsave  2268 1367 0 0 C 314.253 1074.41 t 0 r /Helvetica findfont 46.7133 sf 0 0 m (Mean  ) show NC gr 
 gsave  2268 1367 0 0 C 577.546 1078.65 t 0 r /Helvetica findfont 46.7133 sf 0 0 m (  99.98) show NC gr 
 gsave  2268 1367 0 0 C 314.253 1019.2 t 0 r /Helvetica findfont 46.7133 sf 0 0 m (Std Dev   ) show NC gr 
 gsave  2268 1367 0 0 C 577.546 1023.45 t 0 r /Helvetica findfont 46.7133 sf 0 0 m (  1.239) show NC gr  1 1 1 c black
 gsave  2268 1367 0 0 C 811.112 1299.48 t 0 r /Helvetica findfont 63.6999 sf 0 0 m (WECAL+ECAL energy) show NC gr 
 gr  gr showpage
end
%%EOF
