%!PS-Adobe-2.0 EPSF-2.0
%%BoundingBox:  0 0 567 342
%%Title: ./Canvas_1.eps: Canvas_1
%%Creator: ROOT Version 6.04/08
%%CreationDate: Sat Mar  4 13:42:25 2017
%%DocumentNeededResources: ProcSet (FontSetInit)
%%EndComments
%%BeginProlog
80 dict begin
/s {stroke} def /l {lineto} def /m {moveto} def /t {translate} def
/r {rotate} def /rl {roll}  def /R {repeat} def
/d {rlineto} def /rm {rmoveto} def /gr {grestore} def /f {eofill} def
/c {setrgbcolor} def /black {0 setgray} def /sd {setdash} def
/cl {closepath} def /sf {scalefont setfont} def /lw {setlinewidth} def
/box {m dup 0 exch d exch 0 d 0 exch neg d cl} def
/NC{systemdict begin initclip end}def/C{NC box clip newpath}def
/bl {box s} def /bf {gsave box gsave f grestore 1 lw [] 0 sd s grestore} def /Y { 0 exch d} def /X { 0 d} def 
/K {{pop pop 0 moveto} exch kshow} bind def
/ita {/ang 15 def gsave [1 0 ang dup sin exch cos div 1 0 0] concat} def 
/mp {newpath /y exch def /x exch def} def
/side {[w .77 mul w .23 mul] .385 w mul sd w 0 l currentpoint t -144 r} def
/mr {mp x y w2 0 360 arc} def /m24 {mr s} def /m20 {mr f} def
/mb {mp x y w2 add m w2 neg 0 d 0 w neg d w 0 d 0 w d cl} def
/mt {mp x y w2 add m w2 neg w neg d w 0 d cl} def
/m21 {mb f} def /m25 {mb s} def /m22 {mt f} def /m26{mt s} def
/m23 {mp x y w2 sub m w2 w d w neg 0 d cl f} def
/m27 {mp x y w2 add m w3 neg w2 neg d w3 w2 neg d w3 w2 d cl s} def
/m28 {mp x w2 sub y w2 sub w3 add m w3 0 d  0 w3 neg d w3 0 d 0 w3 d w3 0 d  0 w3 d w3 neg 0 d 0 w3 d w3 neg 0 d 0 w3 neg d w3 neg 0 d cl s } def
/m29 {mp gsave x w2 sub y w2 add w3 sub m currentpoint t 4 {side} repeat cl fill gr} def
/m30 {mp gsave x w2 sub y w2 add w3 sub m currentpoint t 4 {side} repeat cl s gr} def
/m31 {mp x y w2 sub m 0 w d x w2 sub y m w 0 d x w2 sub y w2 add m w w neg d x w2 sub y w2 sub m w w d s} def
/m32 {mp x y w2 sub m w2 w d w neg 0 d cl s} def
/m33 {mp x y w2 add m w3 neg w2 neg d w3 w2 neg d w3 w2 d cl f} def
/m34 {mp x w2 sub y w2 sub w3 add m w3 0 d  0 w3 neg d w3 0 d 0 w3 d w3 0 d  0 w3 d w3 neg 0 d 0 w3 d w3 neg 0 d 0 w3 neg d w3 neg 0 d cl f } def
/m2 {mp x y w2 sub m 0 w d x w2 sub y m w 0 d s} def
/m5 {mp x w2 sub y w2 sub m w w d x w2 sub y w2 add m w w neg d s} def
%%IncludeResource: ProcSet (FontSetInit)
%%IncludeResource: font Times-Roman
%%IncludeResource: font Times-Italic
%%IncludeResource: font Times-Bold
%%IncludeResource: font Times-BoldItalic
%%IncludeResource: font Helvetica
%%IncludeResource: font Helvetica-Oblique
%%IncludeResource: font Helvetica-Bold
%%IncludeResource: font Helvetica-BoldOblique
%%IncludeResource: font Courier
%%IncludeResource: font Courier-Oblique
%%IncludeResource: font Courier-Bold
%%IncludeResource: font Courier-BoldOblique
%%IncludeResource: font Symbol
%%IncludeResource: font ZapfDingbats
/reEncode {exch findfont dup length dict begin {1 index /FID eq  {pop pop} {def} ifelse } forall /Encoding exch def currentdict end dup /FontName get exch definefont pop } def [/Times-Bold /Times-Italic /Times-BoldItalic /Helvetica /Helvetica-Oblique
 /Helvetica-Bold /Helvetica-BoldOblique /Courier /Courier-Oblique /Courier-Bold /Courier-BoldOblique /Times-Roman /AvantGarde-Book /AvantGarde-BookOblique /AvantGarde-Demi /AvantGarde-DemiOblique /Bookman-Demi /Bookman-DemiItalic /Bookman-Light
 /Bookman-LightItalic /Helvetica-Narrow /Helvetica-Narrow-Bold /Helvetica-Narrow-BoldOblique /Helvetica-Narrow-Oblique /NewCenturySchlbk-Roman /NewCenturySchlbk-Bold /NewCenturySchlbk-BoldItalic /NewCenturySchlbk-Italic /Palatino-Bold
 /Palatino-BoldItalic /Palatino-Italic /Palatino-Roman ] {ISOLatin1Encoding reEncode } forall
%%EndProlog
%%BeginSetup
%%EndSetup
newpath  gsave  .25 .25 scale  gsave  0 0 t black[  ] 0 sd 3 lw 1 1 1 c 2268 1367 0 0 bf black 1 1 1 c 1814 1094 227 137 bf black 1814 1094 227 137 bl 1 1 1 c 1814 1094 227 137 bf black 1814 1094 227 137 bl /w 2 def /w2 {w 2 div} def /w3 {w 3 div}
 def 1230 409 1271 393 1262 402 1227 420 1235 425 1255 416 1264 427 1261 411 1263 423 1285 418 1283 423 1209 437 1224 433 1222 440 1242 443 1225 432 1232 439 1255 434 1245 433 1258 430 1171 462 1170 456 1201 452 1224 455 1195 464 1224 465 1217 462
 1212 455 1249 449 1157 481 1146 476 1165 482 1189 472 1189 481 1166 479 1189 475 1191 478 1180 467 1190 477 1191 476 1180 477 1208 480 1200 468 1220 465 1121 487 1122 486 1107 500 1105 487 1160 486 1159 494 1156 483 1138 500 1153 488 1139 498 1136
 497 1140 486 1181 492 1186 493 1175 487 1178 496 1085 502 1088 505 1087 509 1123 511 1125 509 1122 519 1105 515 1114 505 1131 510 1131 516 1137 518 1142 503 1158 513 1058 532 1067 522 1047 530 1072 528 1098 530 1093 534 1087 529 1081 534 1094 521
 1087 526 1105 528 1126 527 1112 534 1020 548 1041 550 1069 543 1046 548 1048 546 1064 543 1048 543 1050 552 1086 549 1095 545 1085 552 1080 546 1095 541 1083 541 100 { m20} R 1089 551 995 566 1012 560 1010 569 1041 559 1023 560 1038 572 1034 558
 1025 559 1041 558 1060 556 1066 562 1063 569 1045 559 972 579 962 578 976 577 970 591 992 582 990 582 987 581 995 578 1005 575 994 583 992 592 991 590 1042 592 1016 579 1033 592 1041 589 1026 586 943 599 928 602 964 605 975 597 982 593 969 606 968
 609 967 605 968 606 955 609 975 600 966 606 1007 608 983 609 907 614 911 620 922 618 907 615 937 627 936 616 942 616 923 618 939 613 938 624 948 612 947 623 937 625 925 626 981 613 964 622 982 625 979 620 975 614 961 619 979 615 833 631 865 646 881
 640 889 635 876 640 900 629 914 647 917 641 900 635 906 636 908 646 894 643 903 646 935 636 936 645 932 632 944 640 938 629 847 656 841 648 884 665 866 649 881 649 886 657 869 649 887 659 892 657 869 665 904 662 899 664 896 657 898 649 909 652 814
 669 100 { m20} R 818 678 829 677 824 677 856 671 844 669 859 677 860 679 855 681 852 667 846 673 833 667 859 681 856 667 850 683 886 681 868 670 892 679 868 667 794 698 791 685 791 686 800 689 797 684 778 699 802 700 801 698 824 695 827 694 802 684
 826 690 818 688 828 694 854 687 858 702 844 689 845 685 844 698 746 711 767 709 780 718 786 718 773 711 795 707 777 710 788 708 794 706 791 706 812 720 819 703 816 718 813 710 827 715 734 723 737 722 721 736 734 721 753 736 742 730 746 730 763 722
 770 738 764 738 790 731 776 723 781 733 710 739 705 749 681 740 707 748 721 747 738 747 740 757 712 750 718 752 713 751 728 744 711 747 730 743 738 755 724 741 727 754 747 753 759 744 752 757 768 742 748 749 749 740 671 763 662 762 662 770 703 766
 688 767 709 764 683 766 692 759 683 771 705 757 710 771 690 769 691 764 100 { m20} R 692 772 710 770 733 773 718 773 714 758 739 767 726 771 739 759 716 759 637 776 636 786 620 789 629 775 625 777 651 785 680 784 673 793 675 786 679 781 675 792 664
 779 653 783 670 784 679 787 667 784 652 778 686 785 708 780 704 782 684 783 592 797 605 811 603 804 597 807 606 799 639 811 627 803 640 798 629 810 636 803 641 808 630 811 635 811 649 805 637 795 621 803 626 799 661 793 651 798 676 810 578 820 575
 813 584 827 585 826 585 823 600 825 598 815 611 816 609 827 618 813 609 812 590 824 599 827 618 821 616 825 590 817 592 824 618 828 607 830 613 827 591 824 611 813 605 815 602 819 642 815 648 820 628 820 626 813 539 830 550 842 541 845 558 830 542
 845 534 837 562 837 564 837 581 833 572 839 588 839 574 833 572 843 568 841 568 847 572 833 576 840 567 848 573 840 570 837 569 834 589 842 100 { m20} R 588 833 600 834 619 840 609 844 593 836 618 836 606 832 525 856 524 864 505 853 528 858 517 859
 534 851 552 861 556 865 540 862 538 858 550 864 550 855 530 859 535 864 552 856 535 863 552 864 545 851 547 860 531 862 571 857 587 859 580 858 561 851 493 878 497 877 473 880 489 878 493 875 484 873 478 874 513 872 516 870 511 872 524 877 501 875
 520 882 516 869 500 879 524 873 523 881 501 874 519 879 511 881 524 872 502 866 540 871 544 871 553 876 558 879 555 875 538 877 465 897 446 902 464 889 458 887 469 891 475 886 471 887 495 894 481 900 476 890 490 898 471 902 469 896 492 886 485 894
 495 894 483 895 483 892 497 891 482 886 470 898 484 885 474 902 488 887 472 894 498 889 495 902 473 892 479 893 501 902 525 902 517 888 509 896 527 901 434 920 416 906 432 916 422 917 432 904 433 914 442 904 100 { m20} R 440 906 445 914 457 907 439
 913 455 910 439 912 448 907 461 919 439 904 451 908 448 917 446 916 452 907 446 909 459 914 459 918 468 917 472 920 476 907 471 915 474 919 496 904 395 930 380 935 386 936 385 922 391 928 419 936 426 922 410 922 417 922 427 922 433 939 438 933 419
 930 416 929 409 922 423 934 419 922 420 936 414 925 425 926 436 937 438 929 444 926 457 933 464 936 449 935 448 922 451 931 360 956 371 945 349 954 354 943 353 954 348 954 375 941 396 948 405 945 381 945 390 944 394 949 378 944 401 943 384 943 399
 951 381 944 404 947 380 944 408 954 407 945 388 941 394 942 380 941 389 948 388 942 400 947 384 941 381 950 394 945 407 956 425 953 436 956 421 953 416 956 413 944 410 948 433 953 415 952 341 973 322 959 347 966 337 965 320 975 369 972 374 971 369
 960 356 969 361 964 371 958 100 { m20} R 360 967 371 964 358 966 360 975 357 966 368 972 358 974 360 966 361 970 370 957 349 969 349 973 376 974 363 970 367 972 368 965 357 967 369 962 352 965 368 960 404 961 408 968 395 974 398 965 298 976 305 982
 314 985 308 987 301 993 317 981 304 980 342 989 332 988 346 979 344 976 330 980 337 979 337 977 338 977 322 993 345 992 348 982 344 982 347 983 342 993 342 986 340 977 319 988 344 976 328 977 323 983 344 990 328 979 342 994 320 976 346 980 347 985
 361 989 364 976 358 992 368 980 371 986 355 987 358 979 247 995 276 1006 283 1007 278 1000 281 1006 271 1005 273 1012 271 1002 272 994 259 1005 295 1012 308 1008 300 994 299 1003 302 1000 317 1000 294 995 302 1010 317 999 316 1000 305 997 309 996
 303 995 292 1011 299 1010 287 1000 305 1011 301 1003 305 995 313 1000 291 1010 294 1011 308 1006 295 995 315 1004 309 996 100 { m20} R 317 998 320 1001 325 999 339 1003 338 1007 330 1005 348 1011 338 1005 325 998 319 1004 345 1007 344 996 343 1007
 249 1024 240 1023 232 1013 245 1016 237 1029 239 1030 239 1024 234 1023 245 1017 228 1022 229 1012 231 1015 247 1028 281 1024 287 1017 278 1028 266 1027 265 1028 272 1028 268 1024 273 1029 281 1019 275 1027 267 1024 270 1013 263 1021 284 1015 260
 1017 263 1014 262 1021 279 1021 273 1028 277 1026 263 1023 271 1024 260 1013 269 1018 299 1019 293 1024 309 1023 302 1016 315 1029 306 1017 305 1018 246 1043 231 1035 246 1036 231 1035 255 1035 253 1035 232 1032 228 1045 245 1031 233 1043 248 1042
 234 1039 228 1034 254 1035 247 1038 242 1042 253 1033 244 1043 244 1042 244 1031 243 1044 242 1039 249 1035 228 1046 239 1033 240 1044 256 1034 234 1042 245 1031 231 1043 234 1036 250 1041 255 1033 255 1033 241 1040 254 1030 254 1047 231 1039 227
 1043 228 1042 236 1031 249 1043 231 1030 100 { m20} R 232 1031 255 1031 238 1042 238 1045 240 1043 245 1037 227 1037 233 1034 233 1039 245 1035 233 1037 255 1047 249 1047 242 1042 235 1040 252 1032 233 1031 230 1048 235 1042 237 1036 237 1035 246
 1040 258 1035 272 1045 268 1032 266 1046 265 1035 260 1030 287 1047 267 1044 258 1044 270 1047 284 1037 261 1047 247 1052 232 1062 248 1050 227 1057 257 1066 232 1060 239 1063 236 1055 248 1061 254 1064 248 1059 246 1054 247 1054 229 1052 251 1055
 228 1055 227 1052 241 1061 262 1049 53 { m20} R 227 137 m 1814 X s 227 170 m -33 Y s 302 153 m -16 Y s 378 153 m -16 Y s 454 153 m -16 Y s 529 170 m -33 Y s 605 153 m -16 Y s 680 153 m -16 Y s 756 153 m -16 Y s 831 170 m -33 Y s 907 153 m -16 Y s
 983 153 m -16 Y s 1058 153 m -16 Y s 1134 170 m -33 Y s 1209 153 m -16 Y s 1285 153 m -16 Y s 1361 153 m -16 Y s 1436 170 m -33 Y s 1512 153 m -16 Y s 1587 153 m -16 Y s 1663 153 m -16 Y s 1739 170 m -33 Y s 1814 153 m -16 Y s 1890 153 m -16 Y s
 1965 153 m -16 Y s 2041 170 m -33 Y s
 gsave  2268 1367 0 0 C 212.333 93.4265 t 0 r /Helvetica findfont 46.7133 sf 0 0 m (0) show NC gr 
 gsave  2268 1367 0 0 C 501.106 93.4265 t 0 r /Helvetica findfont 46.7133 sf 0 0 m (20) show NC gr 
 gsave  2268 1367 0 0 C 802.619 93.4265 t 0 r /Helvetica findfont 46.7133 sf 0 0 m (40) show NC gr 
 gsave  2268 1367 0 0 C 1108.38 93.4265 t 0 r /Helvetica findfont 46.7133 sf 0 0 m (60) show NC gr 
 gsave  2268 1367 0 0 C 1409.89 93.4265 t 0 r /Helvetica findfont 46.7133 sf 0 0 m (80) show NC gr 
 gsave  2268 1367 0 0 C 1698.66 93.4265 t 0 r /Helvetica findfont 46.7133 sf 0 0 m (100) show NC gr 
 gsave  2268 1367 0 0 C 2000.18 93.4265 t 0 r /Helvetica findfont 46.7133 sf 0 0 m (120) show NC gr  227 137 m 1094 Y s 281 137 m -54 X s 254 182 m -27 X s 254 228 m -27 X s 254 273 m -27 X s 281 319 m -54 X s 254 365 m -27 X s 254 410 m -27 X s 254
 456 m -27 X s 281 501 m -54 X s 254 547 m -27 X s 254 593 m -27 X s 254 638 m -27 X s 281 684 m -54 X s 254 729 m -27 X s 254 775 m -27 X s 254 820 m -27 X s 281 866 m -54 X s 254 912 m -27 X s 254 957 m -27 X s 254 1003 m -27 X s 281 1048 m -54 X s
 254 1094 m -27 X s 254 1140 m -27 X s 254 1185 m -27 X s 281 1231 m -54 X s
 gsave  2268 1367 0 0 C 186.853 123.153 t 0 r /Helvetica findfont 46.7133 sf 0 0 m (0) show NC gr 
 gsave  2268 1367 0 0 C 161.373 305.76 t 0 r /Helvetica findfont 46.7133 sf 0 0 m (20) show NC gr 
 gsave  2268 1367 0 0 C 161.373 488.366 t 0 r /Helvetica findfont 46.7133 sf 0 0 m (40) show NC gr 
 gsave  2268 1367 0 0 C 161.373 666.726 t 0 r /Helvetica findfont 46.7133 sf 0 0 m (60) show NC gr 
 gsave  2268 1367 0 0 C 161.373 849.332 t 0 r /Helvetica findfont 46.7133 sf 0 0 m (80) show NC gr 
 gsave  2268 1367 0 0 C 135.893 1031.94 t 0 r /Helvetica findfont 46.7133 sf 0 0 m (100) show NC gr 
 gsave  2268 1367 0 0 C 135.893 1214.54 t 0 r /Helvetica findfont 46.7133 sf 0 0 m (120) show NC gr  1 1 1 c 453 329 1769 950 bf black 1769 950 m 453 X s 2222 950 m 329 Y s 2222 1279 m -453 X s 1769 1279 m -329 Y s 1 1 1 c black
 gsave  2268 1367 0 0 C 1868.53 1231.53 t 0 r /Helvetica findfont 46.7133 sf 0 0 m (ewecal\255ecal) show NC gr  1769 1224 m 453 X s
 gsave  2268 1367 0 0 C 1787.84 1176.32 t 0 r /Helvetica findfont 46.7133 sf 0 0 m (Entries ) show NC gr 
 gsave  2268 1367 0 0 C 2085.11 1180.57 t 0 r /Helvetica findfont 46.7133 sf 0 0 m ( 2361) show NC gr 
 gsave  2268 1367 0 0 C 1787.84 1121.12 t 0 r /Helvetica findfont 46.7133 sf 0 0 m (Mean x ) show NC gr 
 gsave  2268 1367 0 0 C 2059.63 1125.36 t 0 r /Helvetica findfont 46.7133 sf 0 0 m (  25.91) show NC gr 
 gsave  2268 1367 0 0 C 1787.84 1070.16 t 0 r /Helvetica findfont 46.7133 sf 0 0 m (Mean y ) show NC gr 
 gsave  2268 1367 0 0 C 2051.14 1070.16 t 0 r /Helvetica findfont 46.7133 sf 0 0 m (  74.07) show NC gr 
 gsave  2268 1367 0 0 C 1787.84 1014.95 t 0 r /Helvetica findfont 46.7133 sf 0 0 m (Std Dev x ) show NC gr 
 gsave  2268 1367 0 0 C 2051.14 1019.2 t 0 r /Helvetica findfont 46.7133 sf 0 0 m (  20.29) show NC gr 
 gsave  2268 1367 0 0 C 1787.84 963.992 t 0 r /Helvetica findfont 46.7133 sf 0 0 m (Std Dev y ) show NC gr 
 gsave  2268 1367 0 0 C 2063.88 963.992 t 0 r /Helvetica findfont 46.7133 sf 0 0 m (   20.3) show NC gr  1 1 1 c 453 329 1769 950 bf black 1769 950 m 453 X s 2222 950 m 329 Y s 2222 1279 m -453 X s 1769 1279 m -329 Y s 1 1 1 c black
 gsave  2268 1367 0 0 C 1868.53 1231.53 t 0 r /Helvetica findfont 46.7133 sf 0 0 m (ewecal\255ecal) show NC gr  1769 1224 m 453 X s
 gsave  2268 1367 0 0 C 1787.84 1176.32 t 0 r /Helvetica findfont 46.7133 sf 0 0 m (Entries ) show NC gr 
 gsave  2268 1367 0 0 C 2085.11 1180.57 t 0 r /Helvetica findfont 46.7133 sf 0 0 m ( 2361) show NC gr 
 gsave  2268 1367 0 0 C 1787.84 1121.12 t 0 r /Helvetica findfont 46.7133 sf 0 0 m (Mean x ) show NC gr 
 gsave  2268 1367 0 0 C 2059.63 1125.36 t 0 r /Helvetica findfont 46.7133 sf 0 0 m (  25.91) show NC gr 
 gsave  2268 1367 0 0 C 1787.84 1070.16 t 0 r /Helvetica findfont 46.7133 sf 0 0 m (Mean y ) show NC gr 
 gsave  2268 1367 0 0 C 2051.14 1070.16 t 0 r /Helvetica findfont 46.7133 sf 0 0 m (  74.07) show NC gr 
 gsave  2268 1367 0 0 C 1787.84 1014.95 t 0 r /Helvetica findfont 46.7133 sf 0 0 m (Std Dev x ) show NC gr 
 gsave  2268 1367 0 0 C 2051.14 1019.2 t 0 r /Helvetica findfont 46.7133 sf 0 0 m (  20.29) show NC gr 
 gsave  2268 1367 0 0 C 1787.84 963.992 t 0 r /Helvetica findfont 46.7133 sf 0 0 m (Std Dev y ) show NC gr 
 gsave  2268 1367 0 0 C 2063.88 963.992 t 0 r /Helvetica findfont 46.7133 sf 0 0 m (   20.3) show NC gr  1 1 1 c black
 gsave  2268 1367 0 0 C 866.319 1299.48 t 0 r /Helvetica findfont 63.6999 sf 0 0 m (WECAL\255ECAL plot) show NC gr 
 gr  gr showpage
end
%%EOF
