%!PS-Adobe-2.0 EPSF-2.0
%%BoundingBox:  0 0 567 342
%%Title: ./Canvas_1.eps: Canvas_1
%%Creator: ROOT Version 6.04/08
%%CreationDate: Sat Mar 11 16:22:01 2017
%%DocumentNeededResources: ProcSet (FontSetInit)
%%EndComments
%%BeginProlog
80 dict begin
/s {stroke} def /l {lineto} def /m {moveto} def /t {translate} def
/r {rotate} def /rl {roll}  def /R {repeat} def
/d {rlineto} def /rm {rmoveto} def /gr {grestore} def /f {eofill} def
/c {setrgbcolor} def /black {0 setgray} def /sd {setdash} def
/cl {closepath} def /sf {scalefont setfont} def /lw {setlinewidth} def
/box {m dup 0 exch d exch 0 d 0 exch neg d cl} def
/NC{systemdict begin initclip end}def/C{NC box clip newpath}def
/bl {box s} def /bf {gsave box gsave f grestore 1 lw [] 0 sd s grestore} def /Y { 0 exch d} def /X { 0 d} def 
/K {{pop pop 0 moveto} exch kshow} bind def
/ita {/ang 15 def gsave [1 0 ang dup sin exch cos div 1 0 0] concat} def 
/mp {newpath /y exch def /x exch def} def
/side {[w .77 mul w .23 mul] .385 w mul sd w 0 l currentpoint t -144 r} def
/mr {mp x y w2 0 360 arc} def /m24 {mr s} def /m20 {mr f} def
/mb {mp x y w2 add m w2 neg 0 d 0 w neg d w 0 d 0 w d cl} def
/mt {mp x y w2 add m w2 neg w neg d w 0 d cl} def
/m21 {mb f} def /m25 {mb s} def /m22 {mt f} def /m26{mt s} def
/m23 {mp x y w2 sub m w2 w d w neg 0 d cl f} def
/m27 {mp x y w2 add m w3 neg w2 neg d w3 w2 neg d w3 w2 d cl s} def
/m28 {mp x w2 sub y w2 sub w3 add m w3 0 d  0 w3 neg d w3 0 d 0 w3 d w3 0 d  0 w3 d w3 neg 0 d 0 w3 d w3 neg 0 d 0 w3 neg d w3 neg 0 d cl s } def
/m29 {mp gsave x w2 sub y w2 add w3 sub m currentpoint t 4 {side} repeat cl fill gr} def
/m30 {mp gsave x w2 sub y w2 add w3 sub m currentpoint t 4 {side} repeat cl s gr} def
/m31 {mp x y w2 sub m 0 w d x w2 sub y m w 0 d x w2 sub y w2 add m w w neg d x w2 sub y w2 sub m w w d s} def
/m32 {mp x y w2 sub m w2 w d w neg 0 d cl s} def
/m33 {mp x y w2 add m w3 neg w2 neg d w3 w2 neg d w3 w2 d cl f} def
/m34 {mp x w2 sub y w2 sub w3 add m w3 0 d  0 w3 neg d w3 0 d 0 w3 d w3 0 d  0 w3 d w3 neg 0 d 0 w3 d w3 neg 0 d 0 w3 neg d w3 neg 0 d cl f } def
/m2 {mp x y w2 sub m 0 w d x w2 sub y m w 0 d s} def
/m5 {mp x w2 sub y w2 sub m w w d x w2 sub y w2 add m w w neg d s} def
%%IncludeResource: ProcSet (FontSetInit)
%%IncludeResource: font Times-Roman
%%IncludeResource: font Times-Italic
%%IncludeResource: font Times-Bold
%%IncludeResource: font Times-BoldItalic
%%IncludeResource: font Helvetica
%%IncludeResource: font Helvetica-Oblique
%%IncludeResource: font Helvetica-Bold
%%IncludeResource: font Helvetica-BoldOblique
%%IncludeResource: font Courier
%%IncludeResource: font Courier-Oblique
%%IncludeResource: font Courier-Bold
%%IncludeResource: font Courier-BoldOblique
%%IncludeResource: font Symbol
%%IncludeResource: font ZapfDingbats
/reEncode {exch findfont dup length dict begin {1 index /FID eq  {pop pop} {def} ifelse } forall /Encoding exch def currentdict end dup /FontName get exch definefont pop } def [/Times-Bold /Times-Italic /Times-BoldItalic /Helvetica /Helvetica-Oblique
 /Helvetica-Bold /Helvetica-BoldOblique /Courier /Courier-Oblique /Courier-Bold /Courier-BoldOblique /Times-Roman /AvantGarde-Book /AvantGarde-BookOblique /AvantGarde-Demi /AvantGarde-DemiOblique /Bookman-Demi /Bookman-DemiItalic /Bookman-Light
 /Bookman-LightItalic /Helvetica-Narrow /Helvetica-Narrow-Bold /Helvetica-Narrow-BoldOblique /Helvetica-Narrow-Oblique /NewCenturySchlbk-Roman /NewCenturySchlbk-Bold /NewCenturySchlbk-BoldItalic /NewCenturySchlbk-Italic /Palatino-Bold
 /Palatino-BoldItalic /Palatino-Italic /Palatino-Roman ] {ISOLatin1Encoding reEncode } forall
%%EndProlog
%%BeginSetup
%%EndSetup
newpath  gsave  .25 .25 scale  gsave  0 0 t black[  ] 0 sd 3 lw 1 1 1 c 2268 1367 0 0 bf black 1 1 1 c 1814 1094 227 137 bf black 1814 1094 227 137 bl 1 1 1 c 1814 1094 227 137 bf black 1814 1094 227 137 bl 0 0 0.6 c 1 1 1 c black 0 0 0.6 c 227 1179
 m 18 X -931 Y 18 X -34 Y 18 X -8 Y 18 X 10 Y 18 X 1 Y 19 X -22 Y 18 X 12 Y 18 X -24 Y 18 X 18 Y 18 X -9 Y 18 X -1 Y 18 X -5 Y 19 X 3 Y 18 X -3 Y 18 X 4 Y 18 X -4 Y 18 X -5 Y 18 X -12 Y 18 X 1 Y 19 X 9 Y 18 X -10 Y 18 X -5 Y 18 X 16 Y 18 X -16 Y 18 X
 4 Y 18 X 5 Y 19 X -10 Y 18 X -2 Y 18 X 7 Y 18 X 7 Y 18 X -5 Y 18 X 4 Y 18 X -5 Y 19 X 6 Y 18 X -2 Y 18 X -1 Y 18 X -5 Y 36 X -6 Y 18 X 1 Y 19 X -1 Y 18 X 5 Y 18 X -13 Y 18 X 11 Y 18 X -3 Y 18 X -7 Y 18 X 7 Y 37 X -7 Y 18 X 2 Y 18 X -2 Y 18 X 1 Y 18
 X -2 Y 18 X 3 Y 19 X -6 Y 18 X 2 Y 18 X 1 Y 18 X 1 Y 18 X -4 Y 18 X 1 Y 18 X -4 Y 19 X 1 Y 18 X 4 Y 18 X -7 Y 36 X 2 Y 18 X -1 Y 18 X 2 Y 19 X 1 Y 18 X -8 Y 18 X 6 Y 18 X -3 Y 36 X 3 Y 18 X -3 Y 19 X 3 Y 18 X -2 Y 18 X -3 Y 36 X 2 Y 18 X -3 Y 18 X 1
 Y 19 X -1 Y 18 X 2 Y 18 X -2 Y 18 X 3 Y 18 X -1 Y 18 X -1 Y 37 X -2 Y 18 X 3 Y 18 X -3 Y 18 X -1 Y 18 X 3 Y 36 X -3 Y 19 X -1 Y 18 X 6 Y 18 X -7 Y 18 X s black 227 137 m 1814 X s 227 170 m -33 Y s 263 153 m -16 Y s 299 153 m -16 Y s 336 153 m -16 Y
 s 372 153 m -16 Y s 408 170 m -33 Y s 444 153 m -16 Y s 481 153 m -16 Y s 517 153 m -16 Y s 553 153 m -16 Y s 590 170 m -33 Y s 626 153 m -16 Y s 662 153 m -16 Y s 698 153 m -16 Y s 735 153 m -16 Y s 771 170 m -33 Y s 807 153 m -16 Y s 844 153 m -16
 Y s 880 153 m -16 Y s 916 153 m -16 Y s 952 170 m -33 Y s 989 153 m -16 Y s 1025 153 m -16 Y s 1061 153 m -16 Y s 1098 153 m -16 Y s 1134 170 m -33 Y s 1170 153 m -16 Y s 1206 153 m -16 Y s 1243 153 m -16 Y s 1279 153 m -16 Y s 1315 170 m -33 Y s
 1352 153 m -16 Y s 1388 153 m -16 Y s 1424 153 m -16 Y s 1460 153 m -16 Y s 1497 170 m -33 Y s 1533 153 m -16 Y s 1569 153 m -16 Y s 1606 153 m -16 Y s 1642 153 m -16 Y s 1678 170 m -33 Y s 1714 153 m -16 Y s 1751 153 m -16 Y s 1787 153 m -16 Y s
 1823 153 m -16 Y s 1860 170 m -33 Y s 1896 153 m -16 Y s 1932 153 m -16 Y s 1968 153 m -16 Y s 2005 153 m -16 Y s 2041 170 m -33 Y s 2041 170 m -33 Y s
 gsave  2268 1367 0 0 C 212.333 93.4265 t 0 r /Helvetica findfont 46.7133 sf 0 0 m (0) show NC gr 
 gsave  2268 1367 0 0 C 352.473 93.4265 t 0 r /Helvetica findfont 46.7133 sf 0 0 m (0.001) show NC gr 
 gsave  2268 1367 0 0 C 526.586 93.4265 t 0 r /Helvetica findfont 46.7133 sf 0 0 m (0.002) show NC gr 
 gsave  2268 1367 0 0 C 709.192 93.4265 t 0 r /Helvetica findfont 46.7133 sf 0 0 m (0.003) show NC gr 
 gsave  2268 1367 0 0 C 891.799 93.4265 t 0 r /Helvetica findfont 46.7133 sf 0 0 m (0.004) show NC gr 
 gsave  2268 1367 0 0 C 1074.41 93.4265 t 0 r /Helvetica findfont 46.7133 sf 0 0 m (0.005) show NC gr 
 gsave  2268 1367 0 0 C 1252.76 93.4265 t 0 r /Helvetica findfont 46.7133 sf 0 0 m (0.006) show NC gr 
 gsave  2268 1367 0 0 C 1435.37 93.4265 t 0 r /Helvetica findfont 46.7133 sf 0 0 m (0.007) show NC gr 
 gsave  2268 1367 0 0 C 1617.98 93.4265 t 0 r /Helvetica findfont 46.7133 sf 0 0 m (0.008) show NC gr 
 gsave  2268 1367 0 0 C 1796.34 93.4265 t 0 r /Helvetica findfont 46.7133 sf 0 0 m (0.009) show NC gr 
 gsave  2268 1367 0 0 C 1995.93 93.4265 t 0 r /Helvetica findfont 46.7133 sf 0 0 m (0.01) show NC gr  227 137 m 1094 Y s 281 137 m -54 X s 254 159 m -27 X s 254 181 m -27 X s 254 204 m -27 X s 254 226 m -27 X s 281 248 m -54 X s 254 271 m -27 X s 254
 293 m -27 X s 254 315 m -27 X s 254 338 m -27 X s 281 360 m -54 X s 254 382 m -27 X s 254 405 m -27 X s 254 427 m -27 X s 254 449 m -27 X s 281 472 m -54 X s 254 494 m -27 X s 254 516 m -27 X s 254 539 m -27 X s 254 561 m -27 X s 281 583 m -54 X s
 254 606 m -27 X s 254 628 m -27 X s 254 650 m -27 X s 254 673 m -27 X s 281 695 m -54 X s 254 717 m -27 X s 254 740 m -27 X s 254 762 m -27 X s 254 784 m -27 X s 281 807 m -54 X s 254 829 m -27 X s 254 851 m -27 X s 254 874 m -27 X s 254 896 m -27 X
 s 281 918 m -54 X s 254 941 m -27 X s 254 963 m -27 X s 254 985 m -27 X s 254 1008 m -27 X s 281 1030 m -54 X s 254 1052 m -27 X s 254 1075 m -27 X s 254 1097 m -27 X s 254 1119 m -27 X s 281 1142 m -54 X s 281 1142 m -54 X s 254 1164 m -27 X s 254
 1186 m -27 X s 254 1209 m -27 X s
 gsave  2268 1367 0 0 C 186.853 123.153 t 0 r /Helvetica findfont 46.7133 sf 0 0 m (0) show NC gr 
 gsave  2268 1367 0 0 C 161.373 233.566 t 0 r /Helvetica findfont 46.7133 sf 0 0 m (50) show NC gr 
 gsave  2268 1367 0 0 C 135.893 343.979 t 0 r /Helvetica findfont 46.7133 sf 0 0 m (100) show NC gr 
 gsave  2268 1367 0 0 C 135.893 458.639 t 0 r /Helvetica findfont 46.7133 sf 0 0 m (150) show NC gr 
 gsave  2268 1367 0 0 C 135.893 569.052 t 0 r /Helvetica findfont 46.7133 sf 0 0 m (200) show NC gr 
 gsave  2268 1367 0 0 C 135.893 679.466 t 0 r /Helvetica findfont 46.7133 sf 0 0 m (250) show NC gr 
 gsave  2268 1367 0 0 C 135.893 789.879 t 0 r /Helvetica findfont 46.7133 sf 0 0 m (300) show NC gr 
 gsave  2268 1367 0 0 C 135.893 904.539 t 0 r /Helvetica findfont 46.7133 sf 0 0 m (350) show NC gr 
 gsave  2268 1367 0 0 C 135.893 1014.95 t 0 r /Helvetica findfont 46.7133 sf 0 0 m (400) show NC gr 
 gsave  2268 1367 0 0 C 135.893 1125.36 t 0 r /Helvetica findfont 46.7133 sf 0 0 m (450) show NC gr  1 1 1 c 611 386 1423 841 bf black 1423 841 m 611 X s 2034 841 m 386 Y s 2034 1227 m -611 X s 1423 1227 m -386 Y s 1 1 1 c black
 gsave  2268 1367 0 0 C 1668.94 1184.82 t 0 r /Helvetica findfont 46.7133 sf 0 0 m (evtwc) show NC gr  1423 1172 m 611 X s
 gsave  2268 1367 0 0 C 1452.36 1125.36 t 0 r /Helvetica findfont 46.7133 sf 0 0 m (Entries ) show NC gr 
 gsave  2268 1367 0 0 C 1881.27 1129.61 t 0 r /Helvetica findfont 46.7133 sf 0 0 m ( 4597) show NC gr 
 gsave  2268 1367 0 0 C 1452.36 1070.16 t 0 r /Helvetica findfont 46.7133 sf 0 0 m (Mean  ) show NC gr 
 gsave  2268 1367 0 0 C 1792.09 1074.41 t 0 r /Helvetica findfont 46.7133 sf 0 0 m ( 0.002005) show NC gr 
 gsave  2268 1367 0 0 C 1452.36 1014.95 t 0 r /Helvetica findfont 46.7133 sf 0 0 m (Std Dev   ) show NC gr 
 gsave  2268 1367 0 0 C 1800.58 1019.2 t 0 r /Helvetica findfont 46.7133 sf 0 0 m ( 0.002331) show NC gr 
 gsave  2268 1367 0 0 C 1452.36 959.745 t 0 r /Helvetica findfont 46.7133 sf 0 0 m (Underflow ) show NC gr 
 gsave  2268 1367 0 0 C 1898.26 963.992 t 0 r /Helvetica findfont 46.7133 sf 0 0 m (      0) show NC gr 
 gsave  2268 1367 0 0 C 1452.36 904.539 t 0 r /Helvetica findfont 46.7133 sf 0 0 m (Overflow  ) show NC gr 
 gsave  2268 1367 0 0 C 1855.79 908.785 t 0 r /Helvetica findfont 46.7133 sf 0 0 m (  45.88) show NC gr 
 gsave  2268 1367 0 0 C 1452.36 853.579 t 0 r /Helvetica findfont 46.7133 sf 0 0 m (Integral ) show NC gr 
 gsave  2268 1367 0 0 C 1855.79 853.579 t 0 r /Helvetica findfont 46.7133 sf 0 0 m (   1568) show NC gr  1 1 1 c black
 gsave  2268 1367 0 0 C 934.265 1299.48 t 0 r /Helvetica findfont 63.6999 sf 0 0 m (VTWC energy) show NC gr 
 gr  gr showpage
end
%%EOF
