%!PS-Adobe-2.0 EPSF-2.0
%%BoundingBox:  0 0 567 363
%%Title: ./VTWC_calib.eps:  
%%Creator: ROOT Version 6.04/08
%%CreationDate: Sun Mar 12 22:27:51 2017
%%DocumentNeededResources: ProcSet (FontSetInit)
%%EndComments
%%BeginProlog
80 dict begin
/s {stroke} def /l {lineto} def /m {moveto} def /t {translate} def
/r {rotate} def /rl {roll}  def /R {repeat} def
/d {rlineto} def /rm {rmoveto} def /gr {grestore} def /f {eofill} def
/c {setrgbcolor} def /black {0 setgray} def /sd {setdash} def
/cl {closepath} def /sf {scalefont setfont} def /lw {setlinewidth} def
/box {m dup 0 exch d exch 0 d 0 exch neg d cl} def
/NC{systemdict begin initclip end}def/C{NC box clip newpath}def
/bl {box s} def /bf {gsave box gsave f grestore 1 lw [] 0 sd s grestore} def /Y { 0 exch d} def /X { 0 d} def 
/K {{pop pop 0 moveto} exch kshow} bind def
/ita {/ang 15 def gsave [1 0 ang dup sin exch cos div 1 0 0] concat} def 
/mp {newpath /y exch def /x exch def} def
/side {[w .77 mul w .23 mul] .385 w mul sd w 0 l currentpoint t -144 r} def
/mr {mp x y w2 0 360 arc} def /m24 {mr s} def /m20 {mr f} def
/mb {mp x y w2 add m w2 neg 0 d 0 w neg d w 0 d 0 w d cl} def
/mt {mp x y w2 add m w2 neg w neg d w 0 d cl} def
/m21 {mb f} def /m25 {mb s} def /m22 {mt f} def /m26{mt s} def
/m23 {mp x y w2 sub m w2 w d w neg 0 d cl f} def
/m27 {mp x y w2 add m w3 neg w2 neg d w3 w2 neg d w3 w2 d cl s} def
/m28 {mp x w2 sub y w2 sub w3 add m w3 0 d  0 w3 neg d w3 0 d 0 w3 d w3 0 d  0 w3 d w3 neg 0 d 0 w3 d w3 neg 0 d 0 w3 neg d w3 neg 0 d cl s } def
/m29 {mp gsave x w2 sub y w2 add w3 sub m currentpoint t 4 {side} repeat cl fill gr} def
/m30 {mp gsave x w2 sub y w2 add w3 sub m currentpoint t 4 {side} repeat cl s gr} def
/m31 {mp x y w2 sub m 0 w d x w2 sub y m w 0 d x w2 sub y w2 add m w w neg d x w2 sub y w2 sub m w w d s} def
/m32 {mp x y w2 sub m w2 w d w neg 0 d cl s} def
/m33 {mp x y w2 add m w3 neg w2 neg d w3 w2 neg d w3 w2 d cl f} def
/m34 {mp x w2 sub y w2 sub w3 add m w3 0 d  0 w3 neg d w3 0 d 0 w3 d w3 0 d  0 w3 d w3 neg 0 d 0 w3 d w3 neg 0 d 0 w3 neg d w3 neg 0 d cl f } def
/m2 {mp x y w2 sub m 0 w d x w2 sub y m w 0 d s} def
/m5 {mp x w2 sub y w2 sub m w w d x w2 sub y w2 add m w w neg d s} def
%%IncludeResource: ProcSet (FontSetInit)
%%IncludeResource: font Times-Roman
%%IncludeResource: font Times-Italic
%%IncludeResource: font Times-Bold
%%IncludeResource: font Times-BoldItalic
%%IncludeResource: font Helvetica
%%IncludeResource: font Helvetica-Oblique
%%IncludeResource: font Helvetica-Bold
%%IncludeResource: font Helvetica-BoldOblique
%%IncludeResource: font Courier
%%IncludeResource: font Courier-Oblique
%%IncludeResource: font Courier-Bold
%%IncludeResource: font Courier-BoldOblique
%%IncludeResource: font Symbol
%%IncludeResource: font ZapfDingbats
/reEncode {exch findfont dup length dict begin {1 index /FID eq  {pop pop} {def} ifelse } forall /Encoding exch def currentdict end dup /FontName get exch definefont pop } def [/Times-Bold /Times-Italic /Times-BoldItalic /Helvetica /Helvetica-Oblique
 /Helvetica-Bold /Helvetica-BoldOblique /Courier /Courier-Oblique /Courier-Bold /Courier-BoldOblique /Times-Roman /AvantGarde-Book /AvantGarde-BookOblique /AvantGarde-Demi /AvantGarde-DemiOblique /Bookman-Demi /Bookman-DemiItalic /Bookman-Light
 /Bookman-LightItalic /Helvetica-Narrow /Helvetica-Narrow-Bold /Helvetica-Narrow-BoldOblique /Helvetica-Narrow-Oblique /NewCenturySchlbk-Roman /NewCenturySchlbk-Bold /NewCenturySchlbk-BoldItalic /NewCenturySchlbk-Italic /Palatino-Bold
 /Palatino-BoldItalic /Palatino-Italic /Palatino-Roman ] {ISOLatin1Encoding reEncode } forall
%%EndProlog
%%BeginSetup
%%EndSetup
newpath  gsave  .25 .25 scale  gsave  0 0 t black[  ] 0 sd 3 lw 1 1 1 c 2268 1452 0 0 bf black 1 1 1 c 1814 1162 227 145 bf black 1814 1162 227 145 bl 1 1 1 c 1814 1162 227 145 bf black 1814 1162 227 145 bl 0 0 0.6 c 1 1 1 c black 0 0 0.6 c 227 254 m
 18 X -56 Y 18 X 43 Y 18 X 47 Y 18 X 62 Y 18 X 18 Y 19 X 69 Y 18 X -42 Y 18 X 111 Y 18 X 3 Y 18 X 71 Y 18 X -7 Y 18 X 69 Y 19 X 6 Y 18 X 30 Y 18 X 84 Y 18 X 26 Y 18 X -30 Y 18 X 38 Y 18 X 83 Y 19 X 47 Y 18 X 11 Y 18 X 2 Y 18 X 77 Y 18 X -53 Y 18 X
 108 Y 18 X 53 Y 19 X -75 Y 18 X 69 Y 18 X 29 Y 18 X -89 Y 18 X 112 Y 18 X 28 Y 18 X 27 Y 19 X -35 Y 18 X 13 Y 18 X 17 Y 18 X -6 Y 18 X -20 Y 18 X 58 Y 18 X -32 Y 19 X -66 Y 18 X 82 Y 18 X -29 Y 18 X 41 Y 18 X -93 Y 18 X -11 Y 18 X 15 Y 19 X 29 Y 18
 X 6 Y 18 X 20 Y 18 X -84 Y 18 X 18 Y 18 X 18 Y 18 X -30 Y 19 X -37 Y 18 X 55 Y 18 X -69 Y 18 X -29 Y 18 X 1 Y 18 X 35 Y 18 X 8 Y 19 X -37 Y 18 X -4 Y 18 X -94 Y 18 X 26 Y 18 X 15 Y 18 X -85 Y 18 X -1 Y 19 X 46 Y 18 X -55 Y 18 X -30 Y 18 X -10 Y 18 X
 34 Y 18 X -45 Y 18 X -28 Y 19 X 8 Y 18 X -30 Y 18 X -19 Y 18 X -36 Y 18 X 5 Y 18 X -14 Y 18 X -31 Y 19 X -9 Y 18 X 24 Y 18 X -41 Y 18 X -63 Y 18 X 60 Y 18 X -18 Y 18 X -25 Y 19 X 20 Y 18 X -33 Y 18 X -13 Y 18 X -61 Y 18 X 10 Y 18 X -24 Y 18 X 9 Y 19
 X -39 Y 18 X 24 Y 18 X 3 Y 18 X s black 227 145 m 1814 X s
 gsave  2268 1452 0 0 C 1719.73 50.5059 t 0 r /Helvetica findfont 47.9806 sf 0 0 m (E VTWC [GeV]) show NC gr  227 180 m -35 Y s 263 163 m -18 Y s 299 163 m -18 Y s 336 163 m -18 Y s 372 163 m -18 Y s 408 180 m -35 Y s 444 163 m -18 Y s 481 163 m -18
 Y s 517 163 m -18 Y s 553 163 m -18 Y s 590 180 m -35 Y s 626 163 m -18 Y s 662 163 m -18 Y s 698 163 m -18 Y s 735 163 m -18 Y s 771 180 m -35 Y s 807 163 m -18 Y s 844 163 m -18 Y s 880 163 m -18 Y s 916 163 m -18 Y s 952 180 m -35 Y s 989 163 m
 -18 Y s 1025 163 m -18 Y s 1061 163 m -18 Y s 1098 163 m -18 Y s 1134 180 m -35 Y s 1170 163 m -18 Y s 1206 163 m -18 Y s 1243 163 m -18 Y s 1279 163 m -18 Y s 1315 180 m -35 Y s 1352 163 m -18 Y s 1388 163 m -18 Y s 1424 163 m -18 Y s 1460 163 m
 -18 Y s 1497 180 m -35 Y s 1533 163 m -18 Y s 1569 163 m -18 Y s 1606 163 m -18 Y s 1642 163 m -18 Y s 1678 180 m -35 Y s 1714 163 m -18 Y s 1751 163 m -18 Y s 1787 163 m -18 Y s 1823 163 m -18 Y s 1860 180 m -35 Y s 1896 163 m -18 Y s 1932 163 m
 -18 Y s 1968 163 m -18 Y s 2005 163 m -18 Y s 2041 180 m -35 Y s 2041 180 m -35 Y s
 gsave  2268 1452 0 0 C 212.125 98.4866 t 0 r /Helvetica findfont 47.9806 sf 0 0 m (0) show NC gr 
 gsave  2268 1452 0 0 C 351.016 98.4866 t 0 r /Helvetica findfont 47.9806 sf 0 0 m (0.001) show NC gr 
 gsave  2268 1452 0 0 C 527.787 98.4866 t 0 r /Helvetica findfont 47.9806 sf 0 0 m (0.002) show NC gr 
 gsave  2268 1452 0 0 C 709.608 98.4866 t 0 r /Helvetica findfont 47.9806 sf 0 0 m (0.003) show NC gr 
 gsave  2268 1452 0 0 C 891.43 98.4866 t 0 r /Helvetica findfont 47.9806 sf 0 0 m (0.004) show NC gr 
 gsave  2268 1452 0 0 C 1073.25 98.4866 t 0 r /Helvetica findfont 47.9806 sf 0 0 m (0.005) show NC gr 
 gsave  2268 1452 0 0 C 1252.55 98.4866 t 0 r /Helvetica findfont 47.9806 sf 0 0 m (0.006) show NC gr 
 gsave  2268 1452 0 0 C 1434.37 98.4866 t 0 r /Helvetica findfont 47.9806 sf 0 0 m (0.007) show NC gr 
 gsave  2268 1452 0 0 C 1616.19 98.4866 t 0 r /Helvetica findfont 47.9806 sf 0 0 m (0.008) show NC gr 
 gsave  2268 1452 0 0 C 1798.01 98.4866 t 0 r /Helvetica findfont 47.9806 sf 0 0 m (0.009) show NC gr 
 gsave  2268 1452 0 0 C 1997.51 98.4866 t 0 r /Helvetica findfont 47.9806 sf 0 0 m (0.01) show NC gr  227 145 m 1162 Y s
 gsave  2268 1452 0 0 C 53.0312 1161.64 t 90 r /Helvetica findfont 47.9806 sf 0 0 m (Events) show NC gr  281 249 m -54 X s 254 290 m -27 X s 254 331 m -27 X s 254 372 m -27 X s 254 413 m -27 X s 281 454 m -54 X s 254 495 m -27 X s 254 536 m -27 X s
 254 577 m -27 X s 254 618 m -27 X s 281 659 m -54 X s 254 700 m -27 X s 254 741 m -27 X s 254 782 m -27 X s 254 823 m -27 X s 281 864 m -54 X s 254 905 m -27 X s 254 946 m -27 X s 254 987 m -27 X s 254 1028 m -27 X s 281 1069 m -54 X s 254 1110 m
 -27 X s 254 1150 m -27 X s 254 1191 m -27 X s 254 1232 m -27 X s 281 1273 m -54 X s 281 249 m -54 X s 254 208 m -27 X s 254 167 m -27 X s 281 1273 m -54 X s
 gsave  2268 1452 0 0 C 108.588 232.327 t 0 r /Helvetica findfont 47.9806 sf 0 0 m (5000) show NC gr 
 gsave  2268 1452 0 0 C 83.3348 436.876 t 0 r /Helvetica findfont 47.9806 sf 0 0 m (10000) show NC gr 
 gsave  2268 1452 0 0 C 83.3348 641.425 t 0 r /Helvetica findfont 47.9806 sf 0 0 m (15000) show NC gr 
 gsave  2268 1452 0 0 C 83.3348 845.974 t 0 r /Helvetica findfont 47.9806 sf 0 0 m (20000) show NC gr 
 gsave  2268 1452 0 0 C 83.3348 1053.05 t 0 r /Helvetica findfont 47.9806 sf 0 0 m (25000) show NC gr 
 gsave  2268 1452 0 0 C 83.3348 1257.6 t 0 r /Helvetica findfont 47.9806 sf 0 0 m (30000) show NC gr  0 0 0.6 c 1 1 1 c black 0 0 0.6 c 254 367 m 3 Y s 254 370 m 4 Y s 245 370 m 9 X s 254 370 m 9 X s black /w 2 def /w2 {w 2 div} def /w3 {w 3 div} def
 254 370 m20 0 0 0.6 c 272 411 m 4 Y s 272 415 m 4 Y s 263 415 m 9 X s 272 415 m 9 X s black 272 415 m20 0 0 0.6 c 290 432 m 5 Y s 290 437 m 4 Y s 281 437 m 9 X s 290 437 m 9 X s black 290 437 m20 0 0 0.6 c 308 490 m 4 Y s 308 494 m 4 Y s 299 494 m 9
 X s 308 494 m 9 X s black 308 494 m20 0 0 0.6 c 327 520 m 4 Y s 327 524 m 5 Y s 317 524 m 10 X s 327 524 m 9 X s black 327 524 m20 0 0 0.6 c 345 530 m 4 Y s 345 534 m 5 Y s 336 534 m 9 X s 345 534 m 9 X s black 345 534 m20 0 0 0.6 c 363 587 m 4 Y s
 363 591 m 5 Y s 354 591 m 9 X s 363 591 m 9 X s black 363 591 m20 0 0 0.6 c 381 613 m 5 Y s 381 618 m 4 Y s 372 618 m 9 X s 381 618 m 9 X s black 381 618 m20 0 0 0.6 c 399 615 m 5 Y s 399 620 m 5 Y s 390 620 m 9 X s 399 620 m 9 X s black 399 620 m20
 0 0 0.6 c 417 663 m 5 Y s 417 668 m 5 Y s 408 668 m 9 X s 417 668 m 9 X s black 417 668 m20 0 0 0.6 c 435 691 m 5 Y s 435 696 m 5 Y s 426 696 m 9 X s 435 696 m 9 X s black 435 696 m20 0 0 0.6 c 454 689 m 5 Y s 454 694 m 5 Y s 444 694 m 10 X s 454
 694 m 9 X s black 454 694 m20 0 0 0.6 c 472 744 m 5 Y s 472 749 m 6 Y s 463 749 m 9 X s 472 749 m 9 X s black 472 749 m20 0 0 0.6 c 490 768 m 5 Y s 490 773 m 6 Y s 481 773 m 9 X s 490 773 m 9 X s black 490 773 m20 0 0 0.6 c 508 756 m 6 Y s 508 762 m
 5 Y s 499 762 m 9 X s 508 762 m 9 X s black 508 762 m20 0 0 0.6 c 526 822 m 6 Y s 526 828 m 6 Y s 517 828 m 9 X s 526 828 m 9 X s black 526 828 m20 0 0 0.6 c 544 839 m 6 Y s 544 845 m 6 Y s 535 845 m 9 X s 544 845 m 9 X s black 544 845 m20 0 0 0.6 c
 562 818 m 5 Y s 562 823 m 6 Y s 553 823 m 9 X s 562 823 m 9 X s black 562 823 m20 0 0 0.6 c 581 882 m 6 Y s 581 888 m 6 Y s 571 888 m 10 X s 581 888 m 9 X s black 581 888 m20 0 0 0.6 c 599 913 m 6 Y s 599 919 m 6 Y s 590 919 m 9 X s 599 919 m 9 X s
 black 599 919 m20 0 0 0.6 c 617 876 m 6 Y s 617 882 m 6 Y s 608 882 m 9 X s 617 882 m 9 X s black 617 882 m20 0 0 0.6 c 635 940 m 7 Y s 635 947 m 6 Y s 626 947 m 9 X s 635 947 m 9 X s black 635 947 m20 0 0 0.6 c 653 946 m 6 Y s 653 952 m 6 Y s 644
 952 m 9 X s 653 952 m 9 X s black 653 952 m20 0 0 0.6 c 671 921 m 6 Y s 671 927 m 6 Y s 662 927 m 9 X s 671 927 m 9 X s black 671 927 m20 0 0 0.6 c 689 982 m 7 Y s 689 989 m 6 Y s 680 989 m 9 X s 689 989 m 9 X s black 689 989 m20 0 0 0.6 c 708 1003
 m 6 Y s 708 1009 m 6 Y s 698 1009 m 10 X s 708 1009 m 9 X s black 708 1009 m20 0 0 0.6 c 726 976 m 6 Y s 726 982 m 7 Y s 717 982 m 9 X s 726 982 m 9 X s black 726 982 m20 0 0 0.6 c 744 1021 m 6 Y s 744 1027 m 7 Y s 735 1027 m 9 X s 744 1027 m 9 X s
 black 744 1027 m20 0 0 0.6 c 762 1050 m 6 Y s 762 1056 m 7 Y s 753 1056 m 9 X s 762 1056 m 9 X s black 762 1056 m20 0 0 0.6 c 780 1014 m 6 Y s 780 1020 m 6 Y s 771 1020 m 9 X s 780 1020 m 9 X s black 780 1020 m20 0 0 0.6 c 798 1079 m 6 Y s 798 1085
 m 7 Y s 789 1085 m 9 X s 798 1085 m 9 X s black 798 1085 m20 0 0 0.6 c 816 1096 m 6 Y s 816 1102 m 7 Y s 807 1102 m 9 X s 816 1102 m 9 X s black 816 1102 m20 0 0 0.6 c 835 1051 m 7 Y s 835 1058 m 6 Y s 825 1058 m 10 X s 835 1058 m 9 X s black 835
 1058 m20 0 0 0.6 c 853 1120 m 7 Y s 853 1127 m 7 Y s 844 1127 m 9 X s 853 1127 m 9 X s black 853 1127 m20 0 0 0.6 c 871 1141 m 6 Y s 871 1147 m 7 Y s 862 1147 m 9 X s 871 1147 m 9 X s black 871 1147 m20 0 0 0.6 c 889 1109 m 6 Y s 889 1115 m 7 Y s
 880 1115 m 9 X s 889 1115 m 9 X s black 889 1115 m20 0 0 0.6 c 907 1165 m 7 Y s 907 1172 m 6 Y s 898 1172 m 9 X s 907 1172 m 9 X s black 907 1172 m20 0 0 0.6 c 925 1184 m 7 Y s 925 1191 m 7 Y s 916 1191 m 9 X s 925 1191 m 9 X s black 925 1191 m20 0
 0 0.6 c 943 1150 m 7 Y s 943 1157 m 7 Y s 934 1157 m 9 X s 943 1157 m 9 X s black 943 1157 m20 0 0 0.6 c 962 1208 m 7 Y s 962 1215 m 7 Y s 952 1215 m 10 X s 962 1215 m 9 X s black 962 1215 m20 0 0 0.6 c 980 1230 m 7 Y s 980 1237 m 7 Y s 971 1237 m 9
 X s 980 1237 m 9 X s black 980 1237 m20 0 0 0.6 c 998 1189 m 7 Y s 998 1196 m 7 Y s 989 1196 m 9 X s 998 1196 m 9 X s black 998 1196 m20 0 0 0.6 c 1016 1257 m 7 Y s 1016 1264 m 7 Y s 1007 1264 m 9 X s 1016 1264 m 9 X s black 1016 1264 m20 0 0 0.6 c
 1034 1268 m 7 Y s 1034 1275 m 8 Y s 1025 1275 m 9 X s 1034 1275 m 9 X s black 1034 1275 m20 0 0 0.6 c 1052 1236 m 7 Y s 1052 1243 m 7 Y s 1043 1243 m 9 X s 1052 1243 m 9 X s black 1052 1243 m20 0 0 0.6 c 1070 1270 m 7 Y s 1070 1277 m 7 Y s 1061 1277
 m 9 X s 1070 1277 m 9 X s black 1070 1277 m20 0 0 0.6 c 1089 1290 m 7 Y s 1089 1297 m 7 Y s 1079 1297 m 10 X s 1089 1297 m 9 X s black 1089 1297 m20 0 0 0.6 c 1107 1250 m 7 Y s 1107 1257 m 7 Y s 1098 1257 m 9 X s 1107 1257 m 9 X s black 1107 1257
 m20 0 0 0.6 c 1161 1242 m 7 Y s 1161 1249 m 7 Y s 1152 1249 m 9 X s 1161 1249 m 9 X s black 1161 1249 m20 0 0 0.6 c 1215 1233 m 7 Y s 1215 1240 m 7 Y s 1206 1240 m 9 X s 1215 1240 m 10 X s black 1215 1240 m20 0 0 0.6 c 1234 1281 m 7 Y s 1234 1288 m
 8 Y s 1225 1288 m 9 X s 1234 1288 m 9 X s black 1234 1288 m20 0 0 0.6 c 1252 1270 m 7 Y s 1252 1277 m 7 Y s 1243 1277 m 9 X s 1252 1277 m 9 X s black 1252 1277 m20 0 0 0.6 c 1270 1207 m 7 Y s 1270 1214 m 7 Y s 1261 1214 m 9 X s 1270 1214 m 9 X s
 black 1270 1214 m20 0 0 0.6 c 1288 1255 m 7 Y s 1288 1262 m 8 Y s 1279 1262 m 9 X s 1288 1262 m 9 X s black 1288 1262 m20 0 0 0.6 c 1306 1249 m 7 Y s 1306 1256 m 7 Y s 1297 1256 m 9 X s 1306 1256 m 9 X s black 1306 1256 m20 0 0 0.6 c 1324 1169 m 7 Y
 s 1324 1176 m 7 Y s 1315 1176 m 9 X s 1324 1176 m 9 X s black 1324 1176 m20 0 0 0.6 c 1342 1202 m 6 Y s 1342 1208 m 7 Y s 1333 1208 m 9 X s 1342 1208 m 10 X s black 1342 1208 m20 0 0 0.6 c 1361 1172 m 7 Y s 1361 1179 m 7 Y s 1352 1179 m 9 X s 1361
 1179 m 9 X s black 1361 1179 m20 0 0 0.6 c 1379 1104 m 7 Y s 1379 1111 m 6 Y s 1370 1111 m 9 X s 1379 1111 m 9 X s black 1379 1111 m20 0 0 0.6 c 1397 1140 m 6 Y s 1397 1146 m 7 Y s 1388 1146 m 9 X s 1397 1146 m 9 X s black 1397 1146 m20 0 0 0.6 c
 1415 1099 m 7 Y s 1415 1106 m 6 Y s 1406 1106 m 9 X s 1415 1106 m 9 X s black 1415 1106 m20 0 0 0.6 c 1433 1037 m 6 Y s 1433 1043 m 7 Y s 1424 1043 m 9 X s 1433 1043 m 9 X s black 1433 1043 m20 0 0 0.6 c 1451 1039 m 6 Y s 1451 1045 m 6 Y s 1442 1045
 m 9 X s 1451 1045 m 9 X s black 1451 1045 m20 0 0 0.6 c 1469 1018 m 6 Y s 1469 1024 m 7 Y s 1460 1024 m 9 X s 1469 1024 m 10 X s black 1469 1024 m20 0 0 0.6 c 1488 944 m 6 Y s 1488 950 m 6 Y s 1479 950 m 9 X s 1488 950 m 9 X s black 1488 950 m20 0 0
 0.6 c 1506 964 m 6 Y s 1506 970 m 6 Y s 1497 970 m 9 X s 1506 970 m 9 X s black 1506 970 m20 0 0 0.6 c 1524 927 m 6 Y s 1524 933 m 6 Y s 1515 933 m 9 X s 1524 933 m 9 X s black 1524 933 m20 0 0 0.6 c 1542 858 m 6 Y s 1542 864 m 6 Y s 1533 864 m 9 X
 s 1542 864 m 9 X s black 1542 864 m20 0 0 0.6 c 1560 860 m 6 Y s 1560 866 m 6 Y s 1551 866 m 9 X s 1560 866 m 9 X s black 1560 866 m20 0 0 0.6 c 1578 842 m 6 Y s 1578 848 m 6 Y s 1569 848 m 9 X s 1578 848 m 9 X s black 1578 848 m20 0 0 0.6 c 1596
 767 m 6 Y s 1596 773 m 5 Y s 1587 773 m 9 X s 1596 773 m 10 X s black 1596 773 m20 0 0 0.6 c 1615 769 m 6 Y s 1615 775 m 5 Y s 1606 775 m 9 X s 1615 775 m 9 X s black 1615 775 m20 0 0 0.6 c 1633 738 m 5 Y s 1633 743 m 6 Y s 1624 743 m 9 X s 1633 743
 m 9 X s black 1633 743 m20 0 0 0.6 c 1651 673 m 6 Y s 1651 679 m 5 Y s 1642 679 m 9 X s 1651 679 m 9 X s black 1651 679 m20 0 0 0.6 c 1669 665 m 5 Y s 1669 670 m 5 Y s 1660 670 m 9 X s 1669 670 m 9 X s black 1669 670 m20 0 0 0.6 c 1687 640 m 5 Y s
 1687 645 m 5 Y s 1678 645 m 9 X s 1687 645 m 9 X s black 1687 645 m20 0 0 0.6 c 1705 593 m 5 Y s 1705 598 m 5 Y s 1696 598 m 9 X s 1705 598 m 9 X s black 1705 598 m20 0 0 0.6 c 1723 585 m 5 Y s 1723 590 m 5 Y s 1714 590 m 9 X s 1723 590 m 10 X s
 black 1723 590 m20 0 0 0.6 c 1742 548 m 5 Y s 1742 553 m 4 Y s 1733 553 m 9 X s 1742 553 m 9 X s black 1742 553 m20 0 0 0.6 c 1760 494 m 5 Y s 1760 499 m 4 Y s 1751 499 m 9 X s 1760 499 m 9 X s black 1760 499 m20 0 0 0.6 c 1778 495 m 4 Y s 1778 499
 m 4 Y s 1769 499 m 9 X s 1778 499 m 9 X s black 1778 499 m20 0 0 0.6 c 1796 457 m 4 Y s 1796 461 m 4 Y s 1787 461 m 9 X s 1796 461 m 9 X s black 1796 461 m20 0 0 0.6 c 1814 421 m 4 Y s 1814 425 m 4 Y s 1805 425 m 9 X s 1814 425 m 9 X s black 1814
 425 m20 0 0 0.6 c 1832 401 m 4 Y s 1832 405 m 4 Y s 1823 405 m 9 X s 1832 405 m 9 X s black 1832 405 m20 0 0 0.6 c 1850 380 m 4 Y s 1850 384 m 3 Y s 1841 384 m 9 X s 1850 384 m 10 X s black 1850 384 m20 0 0 0.6 c 1869 342 m 4 Y s 1869 346 m 3 Y s
 1860 346 m 9 X s 1869 346 m 9 X s black 1869 346 m20 0 0 0.6 c 1887 330 m 4 Y s 1887 334 m 3 Y s 1878 334 m 9 X s 1887 334 m 9 X s black 1887 334 m20 0 0 0.6 c 1905 310 m 4 Y s 1905 314 m 3 Y s 1896 314 m 9 X s 1905 314 m 9 X s black 1905 314 m20 0
 0 0.6 c 1923 276 m 3 Y s 1923 279 m 3 Y s 1914 279 m 9 X s 1923 279 m 9 X s black 1923 279 m20 0 0 0.6 c 1941 266 m 3 Y s 1941 269 m 3 Y s 1932 269 m 9 X s 1941 269 m 9 X s black 1941 269 m20 0 0 0.6 c 1959 257 m 3 Y s 1959 260 m 3 Y s 1950 260 m 9
 X s 1959 260 m 9 X s black 1959 260 m20 0 0 0.6 c 1977 225 m 3 Y s 1977 228 m 2 Y s 1968 228 m 9 X s 1977 228 m 10 X s black 1977 228 m20 0 0 0.6 c 1996 215 m 2 Y s 1996 217 m 3 Y s 1987 217 m 9 X s 1996 217 m 9 X s black 1996 217 m20 0 0 0.6 c 2014
 202 m 3 Y s 2014 205 m 2 Y s 2005 205 m 9 X s 2014 205 m 9 X s black 2014 205 m20 0 0 0.6 c 2032 185 m 3 Y s 2032 188 m 2 Y s 2023 188 m 9 X s 2032 188 m 9 X s black 2032 188 m20 1 1 1 c black
 gsave  2268 1452 0 0 C 919.208 1383.86 t 0 r /Helvetica findfont 68.183 sf 0 0 m (VTWC energy) show NC gr 
 gr  gr showpage
end
%%EOF
