%!PS-Adobe-2.0 EPSF-2.0
%%BoundingBox:  0 0 567 342
%%Title: ./Canvas_1.eps: Canvas_1
%%Creator: ROOT Version 6.04/08
%%CreationDate: Mon Mar  6 12:38:26 2017
%%DocumentNeededResources: ProcSet (FontSetInit)
%%EndComments
%%BeginProlog
80 dict begin
/s {stroke} def /l {lineto} def /m {moveto} def /t {translate} def
/r {rotate} def /rl {roll}  def /R {repeat} def
/d {rlineto} def /rm {rmoveto} def /gr {grestore} def /f {eofill} def
/c {setrgbcolor} def /black {0 setgray} def /sd {setdash} def
/cl {closepath} def /sf {scalefont setfont} def /lw {setlinewidth} def
/box {m dup 0 exch d exch 0 d 0 exch neg d cl} def
/NC{systemdict begin initclip end}def/C{NC box clip newpath}def
/bl {box s} def /bf {gsave box gsave f grestore 1 lw [] 0 sd s grestore} def /Y { 0 exch d} def /X { 0 d} def 
/K {{pop pop 0 moveto} exch kshow} bind def
/ita {/ang 15 def gsave [1 0 ang dup sin exch cos div 1 0 0] concat} def 
/mp {newpath /y exch def /x exch def} def
/side {[w .77 mul w .23 mul] .385 w mul sd w 0 l currentpoint t -144 r} def
/mr {mp x y w2 0 360 arc} def /m24 {mr s} def /m20 {mr f} def
/mb {mp x y w2 add m w2 neg 0 d 0 w neg d w 0 d 0 w d cl} def
/mt {mp x y w2 add m w2 neg w neg d w 0 d cl} def
/m21 {mb f} def /m25 {mb s} def /m22 {mt f} def /m26{mt s} def
/m23 {mp x y w2 sub m w2 w d w neg 0 d cl f} def
/m27 {mp x y w2 add m w3 neg w2 neg d w3 w2 neg d w3 w2 d cl s} def
/m28 {mp x w2 sub y w2 sub w3 add m w3 0 d  0 w3 neg d w3 0 d 0 w3 d w3 0 d  0 w3 d w3 neg 0 d 0 w3 d w3 neg 0 d 0 w3 neg d w3 neg 0 d cl s } def
/m29 {mp gsave x w2 sub y w2 add w3 sub m currentpoint t 4 {side} repeat cl fill gr} def
/m30 {mp gsave x w2 sub y w2 add w3 sub m currentpoint t 4 {side} repeat cl s gr} def
/m31 {mp x y w2 sub m 0 w d x w2 sub y m w 0 d x w2 sub y w2 add m w w neg d x w2 sub y w2 sub m w w d s} def
/m32 {mp x y w2 sub m w2 w d w neg 0 d cl s} def
/m33 {mp x y w2 add m w3 neg w2 neg d w3 w2 neg d w3 w2 d cl f} def
/m34 {mp x w2 sub y w2 sub w3 add m w3 0 d  0 w3 neg d w3 0 d 0 w3 d w3 0 d  0 w3 d w3 neg 0 d 0 w3 d w3 neg 0 d 0 w3 neg d w3 neg 0 d cl f } def
/m2 {mp x y w2 sub m 0 w d x w2 sub y m w 0 d s} def
/m5 {mp x w2 sub y w2 sub m w w d x w2 sub y w2 add m w w neg d s} def
%%IncludeResource: ProcSet (FontSetInit)
%%IncludeResource: font Times-Roman
%%IncludeResource: font Times-Italic
%%IncludeResource: font Times-Bold
%%IncludeResource: font Times-BoldItalic
%%IncludeResource: font Helvetica
%%IncludeResource: font Helvetica-Oblique
%%IncludeResource: font Helvetica-Bold
%%IncludeResource: font Helvetica-BoldOblique
%%IncludeResource: font Courier
%%IncludeResource: font Courier-Oblique
%%IncludeResource: font Courier-Bold
%%IncludeResource: font Courier-BoldOblique
%%IncludeResource: font Symbol
%%IncludeResource: font ZapfDingbats
/reEncode {exch findfont dup length dict begin {1 index /FID eq  {pop pop} {def} ifelse } forall /Encoding exch def currentdict end dup /FontName get exch definefont pop } def [/Times-Bold /Times-Italic /Times-BoldItalic /Helvetica /Helvetica-Oblique
 /Helvetica-Bold /Helvetica-BoldOblique /Courier /Courier-Oblique /Courier-Bold /Courier-BoldOblique /Times-Roman /AvantGarde-Book /AvantGarde-BookOblique /AvantGarde-Demi /AvantGarde-DemiOblique /Bookman-Demi /Bookman-DemiItalic /Bookman-Light
 /Bookman-LightItalic /Helvetica-Narrow /Helvetica-Narrow-Bold /Helvetica-Narrow-BoldOblique /Helvetica-Narrow-Oblique /NewCenturySchlbk-Roman /NewCenturySchlbk-Bold /NewCenturySchlbk-BoldItalic /NewCenturySchlbk-Italic /Palatino-Bold
 /Palatino-BoldItalic /Palatino-Italic /Palatino-Roman ] {ISOLatin1Encoding reEncode } forall
%%EndProlog
%%BeginSetup
%%EndSetup
newpath  gsave  .25 .25 scale  gsave  0 0 t black[  ] 0 sd 3 lw 1 1 1 c 2268 1367 0 0 bf black 1 1 1 c 1814 1094 227 137 bf black 1814 1094 227 137 bl 1 1 1 c 1814 1094 227 137 bf black 1814 1094 227 137 bl 0 0 0.6 c 1 1 1 c black 0 0 0.6 c 227 137 m
 1209 X 2 Y 15 X 1 Y 61 X 2 Y 15 X 1 Y 30 X 4 Y 15 X 8 Y 15 X 19 Y 16 X 31 Y 15 X 48 Y 15 X 75 Y 15 X 115 Y 15 X 144 Y 15 X 168 Y 15 X 174 Y 15 X 118 Y 15 X 54 Y 16 X 78 Y 15 X -13 Y 15 X -118 Y 15 X -111 Y 15 X -166 Y 15 X -156 Y 15 X -152 Y 15 X
 -119 Y 16 X -85 Y 15 X -59 Y 15 X -30 Y 15 X -14 Y 15 X -6 Y 15 X -5 Y 15 X -1 Y 15 X -2 Y 31 X -1 Y 30 X -1 Y 15 X s black 1 1 1 c 493 335 229 888 bf black 229 888 m 493 X s 722 888 m 335 Y s 722 1223 m -493 X s 229 1223 m -335 Y s 1 1 1 c black
 gsave  2268 1367 0 0 C 365.213 1155.09 t 0 r /Helvetica findfont 72.1932 sf 0 0 m (ewecal) show NC gr  229 1139 m 493 X s
 gsave  2268 1367 0 0 C 250.553 1074.41 t 0 r /Helvetica findfont 59.4532 sf 0 0 m (Entries ) show NC gr 
 gsave  2268 1367 0 0 C 513.846 1078.65 t 0 r /Helvetica findfont 59.4532 sf 0 0 m ( 80604) show NC gr 
 gsave  2268 1367 0 0 C 250.553 989.472 t 0 r /Helvetica findfont 59.4532 sf 0 0 m (Mean  ) show NC gr 
 gsave  2268 1367 0 0 C 513.846 993.719 t 0 r /Helvetica findfont 59.4532 sf 0 0 m (  100.6) show NC gr 
 gsave  2268 1367 0 0 C 250.553 904.539 t 0 r /Helvetica findfont 59.4532 sf 0 0 m (Std Dev   ) show NC gr 
 gsave  2268 1367 0 0 C 513.846 908.785 t 0 r /Helvetica findfont 59.4532 sf 0 0 m (  4.035) show NC gr  227 137 m 1814 X s 227 170 m -33 Y s 302 153 m -16 Y s 378 153 m -16 Y s 454 153 m -16 Y s 529 170 m -33 Y s 605 153 m -16 Y s 680 153 m -16 Y s
 756 153 m -16 Y s 831 170 m -33 Y s 907 153 m -16 Y s 983 153 m -16 Y s 1058 153 m -16 Y s 1134 170 m -33 Y s 1209 153 m -16 Y s 1285 153 m -16 Y s 1361 153 m -16 Y s 1436 170 m -33 Y s 1512 153 m -16 Y s 1587 153 m -16 Y s 1663 153 m -16 Y s 1739
 170 m -33 Y s 1814 153 m -16 Y s 1890 153 m -16 Y s 1965 153 m -16 Y s 2041 170 m -33 Y s
 gsave  2268 1367 0 0 C 212.333 93.4265 t 0 r /Helvetica findfont 46.7133 sf 0 0 m (0) show NC gr 
 gsave  2268 1367 0 0 C 501.106 93.4265 t 0 r /Helvetica findfont 46.7133 sf 0 0 m (20) show NC gr 
 gsave  2268 1367 0 0 C 802.619 93.4265 t 0 r /Helvetica findfont 46.7133 sf 0 0 m (40) show NC gr 
 gsave  2268 1367 0 0 C 1108.38 93.4265 t 0 r /Helvetica findfont 46.7133 sf 0 0 m (60) show NC gr 
 gsave  2268 1367 0 0 C 1409.89 93.4265 t 0 r /Helvetica findfont 46.7133 sf 0 0 m (80) show NC gr 
 gsave  2268 1367 0 0 C 1698.66 93.4265 t 0 r /Helvetica findfont 46.7133 sf 0 0 m (100) show NC gr 
 gsave  2268 1367 0 0 C 2000.18 93.4265 t 0 r /Helvetica findfont 46.7133 sf 0 0 m (120) show NC gr  227 137 m 1094 Y s 281 137 m -54 X s 254 163 m -27 X s 254 189 m -27 X s 254 214 m -27 X s 254 240 m -27 X s 281 266 m -54 X s 254 292 m -27 X s 254
 318 m -27 X s 254 344 m -27 X s 254 370 m -27 X s 281 396 m -54 X s 254 422 m -27 X s 254 448 m -27 X s 254 473 m -27 X s 254 499 m -27 X s 281 525 m -54 X s 254 551 m -27 X s 254 577 m -27 X s 254 603 m -27 X s 254 629 m -27 X s 281 655 m -54 X s
 254 681 m -27 X s 254 706 m -27 X s 254 732 m -27 X s 254 758 m -27 X s 281 784 m -54 X s 254 810 m -27 X s 254 836 m -27 X s 254 862 m -27 X s 254 888 m -27 X s 281 914 m -54 X s 254 940 m -27 X s 254 965 m -27 X s 254 991 m -27 X s 254 1017 m -27
 X s 281 1043 m -54 X s 254 1069 m -27 X s 254 1095 m -27 X s 254 1121 m -27 X s 254 1147 m -27 X s 281 1173 m -54 X s 281 1173 m -54 X s 254 1199 m -27 X s 254 1224 m -27 X s
 gsave  2268 1367 0 0 C 186.853 123.153 t 0 r /Helvetica findfont 46.7133 sf 0 0 m (0) show NC gr 
 gsave  2268 1367 0 0 C 110.413 250.553 t 0 r /Helvetica findfont 46.7133 sf 0 0 m (1000) show NC gr 
 gsave  2268 1367 0 0 C 110.413 382.199 t 0 r /Helvetica findfont 46.7133 sf 0 0 m (2000) show NC gr 
 gsave  2268 1367 0 0 C 110.413 509.599 t 0 r /Helvetica findfont 46.7133 sf 0 0 m (3000) show NC gr 
 gsave  2268 1367 0 0 C 110.413 641.246 t 0 r /Helvetica findfont 46.7133 sf 0 0 m (4000) show NC gr 
 gsave  2268 1367 0 0 C 110.413 768.646 t 0 r /Helvetica findfont 46.7133 sf 0 0 m (5000) show NC gr 
 gsave  2268 1367 0 0 C 110.413 900.292 t 0 r /Helvetica findfont 46.7133 sf 0 0 m (6000) show NC gr 
 gsave  2268 1367 0 0 C 110.413 1027.69 t 0 r /Helvetica findfont 46.7133 sf 0 0 m (7000) show NC gr 
 gsave  2268 1367 0 0 C 110.413 1159.34 t 0 r /Helvetica findfont 46.7133 sf 0 0 m (8000) show NC gr  1 1 1 c 493 335 229 888 bf black 229 888 m 493 X s 722 888 m 335 Y s 722 1223 m -493 X s 229 1223 m -335 Y s 1 1 1 c black
 gsave  2268 1367 0 0 C 365.213 1155.09 t 0 r /Helvetica findfont 72.1932 sf 0 0 m (ewecal) show NC gr  229 1139 m 493 X s
 gsave  2268 1367 0 0 C 250.553 1074.41 t 0 r /Helvetica findfont 59.4532 sf 0 0 m (Entries ) show NC gr 
 gsave  2268 1367 0 0 C 513.846 1078.65 t 0 r /Helvetica findfont 59.4532 sf 0 0 m ( 80604) show NC gr 
 gsave  2268 1367 0 0 C 250.553 989.472 t 0 r /Helvetica findfont 59.4532 sf 0 0 m (Mean  ) show NC gr 
 gsave  2268 1367 0 0 C 513.846 993.719 t 0 r /Helvetica findfont 59.4532 sf 0 0 m (  100.6) show NC gr 
 gsave  2268 1367 0 0 C 250.553 904.539 t 0 r /Helvetica findfont 59.4532 sf 0 0 m (Std Dev   ) show NC gr 
 gsave  2268 1367 0 0 C 513.846 908.785 t 0 r /Helvetica findfont 59.4532 sf 0 0 m (  4.035) show NC gr  1 1 1 c black
 gsave  2268 1367 0 0 C 913.032 1299.48 t 0 r /Helvetica findfont 63.6999 sf 0 0 m (WECAL energy) show NC gr 
 gr  gr showpage
end
%%EOF
