%!PS-Adobe-2.0 EPSF-2.0
%%BoundingBox:  0 0 567 420
%%Title: /home/samoylen/p348-daq/p348reco/hcor01.eps: Canvas_1
%%Creator: ROOT Version 5.34/36
%%CreationDate: Fri Dec 30 12:41:09 2016
%%EndComments
%%BeginProlog
80 dict begin
/s {stroke} def /l {lineto} def /m {moveto} def /t {translate} def
/r {rotate} def /rl {roll}  def /R {repeat} def
/d {rlineto} def /rm {rmoveto} def /gr {grestore} def /f {eofill} def
/c {setrgbcolor} def /black {0 setgray} def /sd {setdash} def
/cl {closepath} def /sf {scalefont setfont} def /lw {setlinewidth} def
/box {m dup 0 exch d exch 0 d 0 exch neg d cl} def
/NC{systemdict begin initclip end}def/C{NC box clip newpath}def
/bl {box s} def /bf {gsave box gsave f grestore 1 lw [] 0 sd s grestore} def /Y { 0 exch d} def /X { 0 d} def 
/K {{pop pop 0 moveto} exch kshow} bind def
/ita {/ang 15 def gsave [1 0 ang dup sin exch cos div 1 0 0] concat} def 
/mp {newpath /y exch def /x exch def} def
/side {[w .77 mul w .23 mul] .385 w mul sd w 0 l currentpoint t -144 r} def
/mr {mp x y w2 0 360 arc} def /m24 {mr s} def /m20 {mr f} def
/mb {mp x y w2 add m w2 neg 0 d 0 w neg d w 0 d 0 w d cl} def
/mt {mp x y w2 add m w2 neg w neg d w 0 d cl} def
/m21 {mb f} def /m25 {mb s} def /m22 {mt f} def /m26{mt s} def
/m23 {mp x y w2 sub m w2 w d w neg 0 d cl f} def
/m27 {mp x y w2 add m w3 neg w2 neg d w3 w2 neg d w3 w2 d cl s} def
/m28 {mp x w2 sub y w2 sub w3 add m w3 0 d  0 w3 neg d w3 0 d 0 w3 d w3 0 d  0 w3 d w3 neg 0 d 0 w3 d w3 neg 0 d 0 w3 neg d w3 neg 0 d cl s } def
/m29 {mp gsave x w2 sub y w2 add w3 sub m currentpoint t 4 {side} repeat cl fill gr} def
/m30 {mp gsave x w2 sub y w2 add w3 sub m currentpoint t 4 {side} repeat cl s gr} def
/m31 {mp x y w2 sub m 0 w d x w2 sub y m w 0 d x w2 sub y w2 add m w w neg d x w2 sub y w2 sub m w w d s} def
/m32 {mp x y w2 sub m w2 w d w neg 0 d cl s} def
/m33 {mp x y w2 add m w3 neg w2 neg d w3 w2 neg d w3 w2 d cl f} def
/m34 {mp x w2 sub y w2 sub w3 add m w3 0 d  0 w3 neg d w3 0 d 0 w3 d w3 0 d  0 w3 d w3 neg 0 d 0 w3 d w3 neg 0 d 0 w3 neg d w3 neg 0 d cl f } def
/m2 {mp x y w2 sub m 0 w d x w2 sub y m w 0 d s} def
/m5 {mp x w2 sub y w2 sub m w w d x w2 sub y w2 add m w w neg d s} def
/reEncode {exch findfont dup length dict begin {1 index /FID eq  {pop pop} {def} ifelse } forall /Encoding exch def currentdict end dup /FontName get exch definefont pop } def [/Times-Bold /Times-Italic /Times-BoldItalic /Helvetica /Helvetica-Oblique
 /Helvetica-Bold /Helvetica-BoldOblique /Courier /Courier-Oblique /Courier-Bold /Courier-BoldOblique /Times-Roman /AvantGarde-Book /AvantGarde-BookOblique /AvantGarde-Demi /AvantGarde-DemiOblique /Bookman-Demi /Bookman-DemiItalic /Bookman-Light
 /Bookman-LightItalic /Helvetica-Narrow /Helvetica-Narrow-Bold /Helvetica-Narrow-BoldOblique /Helvetica-Narrow-Oblique /NewCenturySchlbk-Roman /NewCenturySchlbk-Bold /NewCenturySchlbk-BoldItalic /NewCenturySchlbk-Italic /Palatino-Bold
 /Palatino-BoldItalic /Palatino-Italic /Palatino-Roman ] {ISOLatin1Encoding reEncode } forall
%%EndProlog
%%BeginSetup
%%EndSetup
newpath  gsave  .25 .25 scale  gsave  0 0 t 1 0 0 c[  ] 0 sd 3 lw 1 1 1 c 2268 1681 0 0 bf black 1 1 1 c 1814 1345 227 168 bf black 1814 1345 227 168 bl 1 1 1 c 1814 1345 227 168 bf black 1814 1345 227 168 bl 1 1 1 c 0.2 0 1 c 36 33 227 168 bf 0
 0.546666 1 c 36 33 263 168 bf 37 33 299 168 bf 0 0.0800001 1 c 36 33 336 168 bf 0.2 0 1 c 36 33 372 168 bf 36 33 408 168 bf 37 33 444 168 bf 0 0.0800001 1 c 36 33 481 168 bf 0.2 0 1 c 36 33 517 168 bf 37 33 553 168 bf 0 0.0800001 1 c 36 33 590 168
 bf 0 0.266667 1 c 36 33 626 168 bf 0 0.0800001 1 c 36 33 662 168 bf 0 0.266667 1 c 37 33 698 168 bf 36 33 735 168 bf 0 0.546666 1 c 36 33 771 168 bf 37 33 807 168 bf 36 33 844 168 bf 36 33 880 168 bf 36 33 916 168 bf 0 0.733333 1 c 37 33 952 168 bf
 36 33 989 168 bf 0 1 0.986667 c 36 33 1025 168 bf 0 0.733333 1 c 37 33 1061 168 bf 0 1 0.8 c 36 33 1098 168 bf 0 1 0.986667 c 36 33 1134 168 bf 0 1 0.8 c 36 33 1170 168 bf 37 33 1206 168 bf 36 33 1243 168 bf 36 33 1279 168 bf 0 1 0.0533333 c 37 33
 1315 168 bf 0 1 0.333333 c 36 33 1352 168 bf 0 1 0.0533333 c 36 33 1388 168 bf 36 33 1424 168 bf 37 33 1460 168 bf 0.133333 1 0 c 36 33 1497 168 bf 0 1 0.0533333 c 36 33 1533 168 bf 0.413333 1 0 c 37 33 1569 168 bf 0 1 0.0533333 c 36 33 1606 168 bf
 0.6 1 0 c 36 33 1642 168 bf 0 1 0.0533333 c 36 33 1678 168 bf 0.413333 1 0 c 37 33 1714 168 bf 0.88 1 0 c 36 33 1751 168 bf 0.6 1 0 c 36 33 1787 168 bf 0.413333 1 0 c 37 33 1823 168 bf 0.6 1 0 c 36 33 1860 168 bf 0.88 1 0 c 36 33 1896 168 bf
 0.413333 1 0 c 36 33 1932 168 bf 0.88 1 0 c 37 33 1968 168 bf 1 0.933333 0 c 36 33 2005 168 bf 0.386667 0 1 c 36 33 227 201 bf 0 0.0800001 1 c 36 33 263 201 bf 37 33 299 201 bf 0.2 0 1 c 36 33 336 201 bf 0.386667 0 1 c 36 33 372 201 bf 36 33 408 201
 bf 37 33 444 201 bf 36 33 481 201 bf 36 33 517 201 bf 0.2 0 1 c 37 33 553 201 bf 0.386667 0 1 c 36 33 590 201 bf 0.2 0 1 c 36 33 626 201 bf 36 33 662 201 bf 37 33 698 201 bf 36 33 735 201 bf 0 0.0800001 1 c 36 33 771 201 bf 0.2 0 1 c 37 33 807 201
 bf 0 0.0800001 1 c 36 33 844 201 bf 36 33 880 201 bf 0 0.266667 1 c 36 33 916 201 bf 37 33 952 201 bf 0 0.0800001 1 c 36 33 989 201 bf 0 0.266667 1 c 36 33 1025 201 bf 37 33 1061 201 bf 0 0.546666 1 c 36 33 1098 201 bf 36 33 1134 201 bf 0 0.733333 1
 c 36 33 1170 201 bf 37 33 1206 201 bf 36 33 1243 201 bf 36 33 1279 201 bf 37 33 1315 201 bf 0 1 0.986667 c 36 33 1352 201 bf 36 33 1388 201 bf 0 1 0.8 c 36 33 1424 201 bf 37 33 1460 201 bf 36 33 1497 201 bf 0 1 0.986667 c 36 33 1533 201 bf 0 1
 0.333333 c 37 33 1569 201 bf 36 33 1606 201 bf 36 33 1642 201 bf 36 33 1678 201 bf 0 1 0.0533333 c 37 33 1714 201 bf 36 33 1751 201 bf 36 33 1787 201 bf 0.6 1 0 c 37 33 1823 201 bf 0 1 0.333333 c 36 33 1860 201 bf 0.133333 1 0 c 36 33 1896 201 bf
 0.413333 1 0 c 36 33 1932 201 bf 37 33 1968 201 bf 0.6 1 0 c 36 33 2005 201 bf 0.386667 0 1 c 36 32 227 234 bf 36 32 263 234 bf 37 32 299 234 bf 36 32 336 234 bf 36 32 372 234 bf 36 32 408 234 bf 37 32 444 234 bf 36 32 481 234 bf 36 32 517 234 bf 37
 32 553 234 bf 36 32 590 234 bf 36 32 626 234 bf 36 32 662 234 bf 0.2 0 1 c 37 32 698 234 bf 0.386667 0 1 c 36 32 735 234 bf 36 32 771 234 bf 0.2 0 1 c 37 32 807 234 bf 0.386667 0 1 c 36 32 844 234 bf 0.2 0 1 c 36 32 880 234 bf 0 0.0800001 1 c 36 32
 916 234 bf 0.2 0 1 c 37 32 952 234 bf 36 32 989 234 bf 36 32 1025 234 bf 37 32 1061 234 bf 36 32 1098 234 bf 0 0.0800001 1 c 36 32 1134 234 bf 36 32 1170 234 bf 0 0.266667 1 c 37 32 1206 234 bf 36 32 1243 234 bf 36 32 1279 234 bf 37 32 1315 234 bf
 36 32 1352 234 bf 36 32 1388 234 bf 0 0.733333 1 c 36 32 1424 234 bf 0 0.546666 1 c 37 32 1460 234 bf 0 0.266667 1 c 36 32 1497 234 bf 0 0.546666 1 c 36 32 1533 234 bf 0 0.733333 1 c 37 32 1569 234 bf 0 0.546666 1 c 36 32 1606 234 bf 0 0.733333 1 c
 36 32 1642 234 bf 0 0.546666 1 c 36 32 1678 234 bf 0 0.733333 1 c 37 32 1714 234 bf 36 32 1751 234 bf 0 1 0.986667 c 36 32 1787 234 bf 37 32 1823 234 bf 36 32 1860 234 bf 36 32 1896 234 bf 36 32 1932 234 bf 37 32 1968 234 bf 36 32 2005 234 bf
 0.386667 0 1 c 36 33 336 266 bf 36 33 408 266 bf 37 33 444 266 bf 36 33 481 266 bf 36 33 517 266 bf 0.2 0 1 c 37 33 553 266 bf 36 33 590 266 bf 36 33 626 266 bf 0.386667 0 1 c 36 33 662 266 bf 37 33 698 266 bf 36 33 735 266 bf 36 33 771 266 bf 37 33
 807 266 bf 36 33 844 266 bf 36 33 880 266 bf 36 33 916 266 bf 37 33 952 266 bf 36 33 989 266 bf 0.2 0 1 c 36 33 1025 266 bf 0.386667 0 1 c 37 33 1061 266 bf 36 33 1098 266 bf 36 33 1134 266 bf 36 33 1170 266 bf 0.2 0 1 c 37 33 1206 266 bf 36 33 1243
 266 bf 0.386667 0 1 c 36 33 1279 266 bf 0.2 0 1 c 37 33 1315 266 bf 36 33 1352 266 bf 36 33 1388 266 bf 36 33 1424 266 bf 37 33 1460 266 bf 36 33 1497 266 bf 36 33 1533 266 bf 37 33 1569 266 bf 36 33 1606 266 bf 0 0.0800001 1 c 36 33 1642 266 bf 36
 33 1678 266 bf 37 33 1714 266 bf 36 33 1751 266 bf 36 33 1787 266 bf 37 33 1823 266 bf 0 0.266667 1 c 36 33 1860 266 bf 0 0.0800001 1 c 36 33 1896 266 bf 36 33 1932 266 bf 0 0.266667 1 c 37 33 1968 266 bf 36 33 2005 266 bf 0.386667 0 1 c 36 33 227
 299 bf 36 33 372 299 bf 36 33 408 299 bf 37 33 444 299 bf 0.2 0 1 c 36 33 481 299 bf 0 0.266667 1 c 36 33 517 299 bf 0 1 0.986667 c 37 33 553 299 bf 0 0.546666 1 c 36 33 590 299 bf 36 33 626 299 bf 0 0.0800001 1 c 36 33 662 299 bf 0.2 0 1 c 37 33
 698 299 bf 36 33 735 299 bf 0.386667 0 1 c 36 33 771 299 bf 37 33 807 299 bf 36 33 844 299 bf 36 33 880 299 bf 36 33 916 299 bf 37 33 952 299 bf 36 33 989 299 bf 36 33 1025 299 bf 37 33 1061 299 bf 36 33 1098 299 bf 36 33 1134 299 bf 36 33 1170 299
 bf 37 33 1206 299 bf 36 33 1243 299 bf 36 33 1279 299 bf 37 33 1315 299 bf 36 33 1352 299 bf 36 33 1388 299 bf 36 33 1424 299 bf 37 33 1460 299 bf 36 33 1497 299 bf 36 33 1533 299 bf 37 33 1569 299 bf 36 33 1606 299 bf 0.2 0 1 c 36 33 1642 299 bf
 0.386667 0 1 c 36 33 1678 299 bf 37 33 1714 299 bf 36 33 1751 299 bf 0.2 0 1 c 36 33 1787 299 bf 37 33 1823 299 bf 36 33 1860 299 bf 36 33 1896 299 bf 36 33 1932 299 bf 0.386667 0 1 c 37 33 1968 299 bf 0.2 0 1 c 36 33 2005 299 bf 0.386667 0 1 c 36
 33 227 332 bf 36 33 263 332 bf 37 33 299 332 bf 36 33 372 332 bf 36 33 408 332 bf 37 33 444 332 bf 0 0.546666 1 c 36 33 481 332 bf 0 1 0.333333 c 36 33 517 332 bf 0.88 1 0 c 37 33 553 332 bf 0.6 1 0 c 36 33 590 332 bf 0.133333 1 0 c 36 33 626 332 bf
 0 1 0.8 c 36 33 662 332 bf 0 0.546666 1 c 37 33 698 332 bf 0 0.266667 1 c 36 33 735 332 bf 0 0.0800001 1 c 36 33 771 332 bf 0.386667 0 1 c 37 33 807 332 bf 0.2 0 1 c 36 33 844 332 bf 36 33 880 332 bf 0.386667 0 1 c 36 33 916 332 bf 37 33 952 332 bf
 36 33 989 332 bf 36 33 1025 332 bf 37 33 1061 332 bf 36 33 1098 332 bf 36 33 1134 332 bf 36 33 1170 332 bf 37 33 1206 332 bf 36 33 1243 332 bf 36 33 1279 332 bf 37 33 1315 332 bf 36 33 1352 332 bf 36 33 1388 332 bf 36 33 1424 332 bf 37 33 1460 332
 bf 36 33 1497 332 bf 36 33 1533 332 bf 37 33 1569 332 bf 36 33 1606 332 bf 36 33 1642 332 bf 36 33 1678 332 bf 37 33 1714 332 bf 36 33 1751 332 bf 36 33 1787 332 bf 37 33 1823 332 bf 36 33 1860 332 bf 36 33 1896 332 bf 36 33 1932 332 bf 37 33 1968
 332 bf 36 33 2005 332 bf 36 33 408 365 bf 37 33 444 365 bf 0 1 0.8 c 36 33 481 365 bf 0 1 0.0533333 c 36 33 517 365 bf 1 0 0 c 37 33 553 365 bf 1 0.186667 0 c 36 33 590 365 bf 1 0.653333 0 c 36 33 626 365 bf 0.133333 1 0 c 36 33 662 365 bf 0 1
 0.986667 c 37 33 698 365 bf 0 0.733333 1 c 36 33 735 365 bf 0 0.266667 1 c 36 33 771 365 bf 0.2 0 1 c 37 33 807 365 bf 36 33 844 365 bf 36 33 880 365 bf 0.386667 0 1 c 36 33 916 365 bf 37 33 952 365 bf 0.2 0 1 c 36 33 989 365 bf 0.386667 0 1 c 36 33
 1025 365 bf 37 33 1061 365 bf 36 33 1098 365 bf 36 33 1134 365 bf 36 33 1170 365 bf 37 33 1206 365 bf 36 33 1243 365 bf 36 33 1279 365 bf 37 33 1315 365 bf 36 33 1352 365 bf 36 33 1388 365 bf 36 33 1424 365 bf 37 33 1460 365 bf 36 33 1497 365 bf 36
 33 1533 365 bf 37 33 1569 365 bf 36 33 1606 365 bf 36 33 1642 365 bf 37 33 1714 365 bf 36 33 1751 365 bf 36 33 1787 365 bf 37 33 1823 365 bf 36 33 1860 365 bf 36 33 1896 365 bf 36 33 1932 365 bf 37 33 1968 365 bf 36 33 2005 365 bf 36 32 227 398 bf
 36 32 263 398 bf 36 32 336 398 bf 36 32 408 398 bf 0.2 0 1 c 37 32 444 398 bf 0 0.733333 1 c 36 32 481 398 bf 0.133333 1 0 c 36 32 517 398 bf 1 0 0 c 37 32 553 398 bf 1 0.466667 0 c 36 32 590 398 bf 0.88 1 0 c 36 32 626 398 bf 0.133333 1 0 c 36 32
 662 398 bf 0 1 0.986667 c 37 32 698 398 bf 0 0.546666 1 c 36 32 735 398 bf 0 0.0800001 1 c 36 32 771 398 bf 37 32 807 398 bf 0.2 0 1 c 36 32 844 398 bf 36 32 880 398 bf 0.386667 0 1 c 36 32 916 398 bf 37 32 952 398 bf 36 32 989 398 bf 36 32 1025 398
 bf 37 32 1061 398 bf 36 32 1098 398 bf 36 32 1134 398 bf 36 32 1170 398 bf 37 32 1206 398 bf 36 32 1243 398 bf 36 32 1279 398 bf 37 32 1315 398 bf 36 32 1388 398 bf 36 32 1424 398 bf 37 32 1460 398 bf 36 32 1497 398 bf 36 32 1533 398 bf 37 32 1569
 398 bf 36 32 1606 398 bf 36 32 1642 398 bf 36 32 1678 398 bf 37 32 1714 398 bf 36 32 1751 398 bf 36 32 1787 398 bf 37 32 1823 398 bf 36 32 1860 398 bf 36 32 1896 398 bf 36 32 1932 398 bf 37 32 1968 398 bf 36 32 2005 398 bf 36 33 227 430 bf 36 33 263
 430 bf 37 33 299 430 bf 36 33 408 430 bf 37 33 444 430 bf 0 0.546666 1 c 36 33 481 430 bf 0 1 0.8 c 36 33 517 430 bf 0.88 1 0 c 37 33 553 430 bf 36 33 590 430 bf 0.413333 1 0 c 36 33 626 430 bf 0 1 0.52 c 36 33 662 430 bf 0 0.546666 1 c 37 33 698
 430 bf 0 0.266667 1 c 36 33 735 430 bf 0 0.0800001 1 c 36 33 771 430 bf 0.386667 0 1 c 37 33 807 430 bf 0.2 0 1 c 36 33 844 430 bf 36 33 880 430 bf 0.386667 0 1 c 36 33 916 430 bf 37 33 952 430 bf 36 33 989 430 bf 36 33 1025 430 bf 37 33 1061 430 bf
 36 33 1098 430 bf 36 33 1134 430 bf 36 33 1170 430 bf 37 33 1206 430 bf 36 33 1279 430 bf 37 33 1315 430 bf 36 33 1352 430 bf 36 33 1388 430 bf 36 33 1424 430 bf 37 33 1460 430 bf 36 33 1497 430 bf 36 33 1533 430 bf 37 33 1569 430 bf 36 33 1606 430
 bf 36 33 1642 430 bf 36 33 1678 430 bf 37 33 1714 430 bf 36 33 1751 430 bf 36 33 1787 430 bf 36 33 1860 430 bf 36 33 1896 430 bf 37 33 1968 430 bf 36 33 2005 430 bf 36 33 263 463 bf 36 33 408 463 bf 37 33 444 463 bf 0 0.0800001 1 c 36 33 481 463 bf
 0 0.733333 1 c 36 33 517 463 bf 0 1 0.0533333 c 37 33 553 463 bf 36 33 590 463 bf 0 1 0.52 c 36 33 626 463 bf 0 1 0.8 c 36 33 662 463 bf 0 0.0800001 1 c 37 33 698 463 bf 36 33 735 463 bf 0.2 0 1 c 36 33 771 463 bf 37 33 807 463 bf 36 33 844 463 bf
 0.386667 0 1 c 36 33 880 463 bf 36 33 916 463 bf 37 33 952 463 bf 36 33 989 463 bf 36 33 1025 463 bf 37 33 1061 463 bf 36 33 1098 463 bf 36 33 1134 463 bf 36 33 1170 463 bf 37 33 1206 463 bf 36 33 1243 463 bf 36 33 1279 463 bf 37 33 1315 463 bf 36
 33 1352 463 bf 36 33 1388 463 bf 36 33 1424 463 bf 37 33 1460 463 bf 36 33 1497 463 bf 36 33 1533 463 bf 37 33 1569 463 bf 36 33 1678 463 bf 36 33 1751 463 bf 37 33 1823 463 bf 36 33 1860 463 bf 36 33 1896 463 bf 36 33 1932 463 bf 37 33 1968 463 bf
 36 33 2005 463 bf 37 33 444 496 bf 0.2 0 1 c 36 33 481 496 bf 0 0.0800001 1 c 36 33 517 496 bf 0 1 0.986667 c 37 33 553 496 bf 36 33 590 496 bf 0 0.733333 1 c 36 33 626 496 bf 0 0.266667 1 c 36 33 662 496 bf 0.2 0 1 c 37 33 698 496 bf 0 0.0800001 1
 c 36 33 735 496 bf 0.386667 0 1 c 36 33 771 496 bf 37 33 807 496 bf 36 33 844 496 bf 36 33 880 496 bf 36 33 916 496 bf 37 33 952 496 bf 36 33 989 496 bf 36 33 1025 496 bf 36 33 1134 496 bf 36 33 1170 496 bf 36 33 1243 496 bf 36 33 1424 496 bf 36 33
 1497 496 bf 36 33 1533 496 bf 37 33 1569 496 bf 36 33 1642 496 bf 36 33 1678 496 bf 37 33 1714 496 bf 36 33 1751 496 bf 36 33 1787 496 bf 37 33 1823 496 bf 36 33 1860 496 bf 36 33 1896 496 bf 36 33 1932 496 bf 37 33 1968 496 bf 36 33 2005 496 bf 36
 33 372 529 bf 36 33 408 529 bf 37 33 444 529 bf 0.2 0 1 c 36 33 481 529 bf 0 0.0800001 1 c 36 33 517 529 bf 0 0.546666 1 c 37 33 553 529 bf 0 0.266667 1 c 36 33 590 529 bf 0 0.546666 1 c 36 33 626 529 bf 0.2 0 1 c 36 33 662 529 bf 37 33 698 529 bf
 36 33 735 529 bf 0.386667 0 1 c 36 33 771 529 bf 37 33 807 529 bf 36 33 844 529 bf 36 33 880 529 bf 36 33 916 529 bf 37 33 952 529 bf 36 33 989 529 bf 36 33 1098 529 bf 36 33 1170 529 bf 36 33 1388 529 bf 36 33 1533 529 bf 36 33 1642 529 bf 36 33
 1678 529 bf 37 33 1714 529 bf 36 33 1751 529 bf 36 33 1860 529 bf 36 33 1896 529 bf 36 33 1932 529 bf 37 33 1968 529 bf 36 33 2005 529 bf 36 32 263 562 bf 36 32 336 562 bf 36 32 372 562 bf 37 32 444 562 bf 0.2 0 1 c 36 32 481 562 bf 36 32 517 562 bf
 0 0.266667 1 c 37 32 553 562 bf 0 0.0800001 1 c 36 32 590 562 bf 36 32 626 562 bf 0.2 0 1 c 36 32 662 562 bf 0.386667 0 1 c 37 32 698 562 bf 36 32 735 562 bf 36 32 771 562 bf 37 32 807 562 bf 36 32 844 562 bf 36 32 880 562 bf 36 32 916 562 bf 37 32
 952 562 bf 36 32 1025 562 bf 37 32 1061 562 bf 36 32 1098 562 bf 36 32 1134 562 bf 36 32 1170 562 bf 36 32 1243 562 bf 36 32 1388 562 bf 37 32 1460 562 bf 36 32 1606 562 bf 36 32 1642 562 bf 36 32 1678 562 bf 37 32 1823 562 bf 36 32 1896 562 bf 36
 32 2005 562 bf 37 33 299 594 bf 36 33 336 594 bf 36 33 481 594 bf 36 33 517 594 bf 0 0.0800001 1 c 37 33 553 594 bf 36 33 590 594 bf 0.2 0 1 c 36 33 626 594 bf 0.386667 0 1 c 36 33 662 594 bf 37 33 698 594 bf 36 33 735 594 bf 36 33 771 594 bf 37 33
 807 594 bf 36 33 844 594 bf 36 33 880 594 bf 36 33 916 594 bf 37 33 952 594 bf 36 33 989 594 bf 36 33 1025 594 bf 37 33 1061 594 bf 36 33 1170 594 bf 36 33 1243 594 bf 37 33 1315 594 bf 36 33 1424 594 bf 36 33 1497 594 bf 36 33 1606 594 bf 37 33
 1714 594 bf 36 33 1751 594 bf 37 33 1823 594 bf 37 33 299 627 bf 36 33 481 627 bf 36 33 517 627 bf 0 0.0800001 1 c 37 33 553 627 bf 0.2 0 1 c 36 33 590 627 bf 0.386667 0 1 c 36 33 626 627 bf 36 33 662 627 bf 37 33 698 627 bf 36 33 735 627 bf 36 33
 771 627 bf 37 33 807 627 bf 36 33 844 627 bf 36 33 880 627 bf 36 33 916 627 bf 37 33 952 627 bf 36 33 1098 627 bf 36 33 1134 627 bf 36 33 1170 627 bf 36 33 1279 627 bf 37 33 1315 627 bf 36 33 1424 627 bf 37 33 1460 627 bf 36 33 1606 627 bf 36 33
 1751 627 bf 36 33 1787 627 bf 36 33 1860 627 bf 36 33 227 660 bf 36 33 481 660 bf 36 33 517 660 bf 0.2 0 1 c 37 33 553 660 bf 36 33 590 660 bf 36 33 626 660 bf 0.386667 0 1 c 36 33 662 660 bf 37 33 698 660 bf 36 33 735 660 bf 36 33 771 660 bf 36 33
 844 660 bf 36 33 880 660 bf 36 33 916 660 bf 37 33 1061 660 bf 36 33 1098 660 bf 36 33 1170 660 bf 37 33 1315 660 bf 36 33 1606 660 bf 37 33 1714 660 bf 36 33 1932 660 bf 37 33 1968 660 bf 37 33 444 693 bf 36 33 481 693 bf 36 33 517 693 bf 37 33 553
 693 bf 36 33 590 693 bf 36 33 626 693 bf 36 33 662 693 bf 37 33 698 693 bf 36 33 735 693 bf 36 33 771 693 bf 37 33 807 693 bf 36 33 844 693 bf 37 33 952 693 bf 36 33 1497 693 bf 36 33 1642 693 bf 36 33 1787 693 bf 37 33 1823 693 bf 36 33 1860 693 bf
 37 33 1968 693 bf 36 33 2005 693 bf 36 32 481 726 bf 36 32 517 726 bf 0.2 0 1 c 37 32 553 726 bf 0.386667 0 1 c 36 32 590 726 bf 36 32 626 726 bf 36 32 662 726 bf 37 32 698 726 bf 36 32 735 726 bf 37 32 807 726 bf 36 32 844 726 bf 36 32 880 726 bf
 36 32 916 726 bf 36 32 1025 726 bf 36 32 1134 726 bf 37 32 1206 726 bf 36 32 1243 726 bf 36 32 1279 726 bf 36 32 1352 726 bf 36 32 1932 726 bf 37 33 444 758 bf 36 33 481 758 bf 36 33 517 758 bf 37 33 553 758 bf 36 33 590 758 bf 36 33 626 758 bf 36
 33 662 758 bf 37 33 698 758 bf 36 33 735 758 bf 36 33 771 758 bf 36 33 880 758 bf 36 33 989 758 bf 37 33 1061 758 bf 37 33 1206 758 bf 36 33 1243 758 bf 37 33 1460 758 bf 36 33 1533 758 bf 37 33 1569 758 bf 36 33 1642 758 bf 36 33 1787 758 bf 36 33
 1860 758 bf 36 33 481 791 bf 36 33 517 791 bf 37 33 553 791 bf 36 33 590 791 bf 36 33 626 791 bf 36 33 662 791 bf 36 33 735 791 bf 37 33 807 791 bf 36 33 844 791 bf 36 33 1025 791 bf 37 33 1061 791 bf 37 33 1206 791 bf 36 33 1352 791 bf 37 33 1714
 791 bf 36 33 1896 791 bf 36 33 517 824 bf 37 33 553 824 bf 36 33 590 824 bf 36 33 626 824 bf 36 33 662 824 bf 37 33 698 824 bf 36 33 771 824 bf 36 33 916 824 bf 36 33 1606 824 bf 36 33 1932 824 bf 37 33 1968 824 bf 36 33 2005 824 bf 36 32 227 857 bf
 36 32 481 857 bf 36 32 517 857 bf 37 32 553 857 bf 36 32 590 857 bf 36 32 626 857 bf 36 32 662 857 bf 37 32 698 857 bf 36 32 735 857 bf 37 32 807 857 bf 36 32 844 857 bf 36 32 916 857 bf 36 32 1134 857 bf 36 32 1279 857 bf 37 32 1714 857 bf 36 32
 1896 857 bf 36 33 481 889 bf 36 33 517 889 bf 37 33 553 889 bf 36 33 590 889 bf 36 33 626 889 bf 36 33 662 889 bf 37 33 1061 889 bf 36 33 1279 889 bf 37 33 1714 889 bf 36 33 1932 889 bf 37 33 1968 889 bf 36 33 481 922 bf 36 33 517 922 bf 37 33 553
 922 bf 36 33 590 922 bf 36 33 626 922 bf 36 33 662 922 bf 37 33 698 922 bf 36 33 735 922 bf 36 33 844 922 bf 36 33 880 922 bf 37 33 1315 922 bf 36 33 1352 922 bf 36 33 1606 922 bf 36 33 1751 922 bf 36 33 517 955 bf 37 33 553 955 bf 36 33 590 955 bf
 36 33 626 955 bf 37 33 698 955 bf 36 33 735 955 bf 37 33 1569 955 bf 36 33 1606 955 bf 36 33 517 988 bf 37 33 553 988 bf 36 33 590 988 bf 36 33 626 988 bf 36 33 662 988 bf 37 33 698 988 bf 36 33 735 988 bf 36 33 1388 988 bf 36 33 1497 988 bf 36 33
 1642 988 bf 36 33 1678 988 bf 37 33 1714 988 bf 37 33 1823 988 bf 36 33 1932 988 bf 37 33 1968 988 bf 37 32 553 1021 bf 36 32 590 1021 bf 36 32 662 1021 bf 37 32 698 1021 bf 36 32 735 1021 bf 37 32 952 1021 bf 37 32 1061 1021 bf 36 32 1134 1021 bf
 36 32 1352 1021 bf 36 32 1497 1021 bf 36 32 1533 1021 bf 36 33 517 1053 bf 37 33 553 1053 bf 36 33 590 1053 bf 36 33 626 1053 bf 36 33 662 1053 bf 37 33 698 1053 bf 36 33 771 1053 bf 37 33 807 1053 bf 36 33 1098 1053 bf 36 33 1533 1053 bf 36 33 1642
 1053 bf 36 33 1751 1053 bf 36 33 1932 1053 bf 36 33 481 1086 bf 36 33 517 1086 bf 37 33 553 1086 bf 36 33 590 1086 bf 36 33 626 1086 bf 36 33 662 1086 bf 37 33 1569 1086 bf 36 33 1860 1086 bf 36 33 481 1119 bf 36 33 517 1119 bf 37 33 553 1119 bf 36
 33 590 1119 bf 36 33 626 1119 bf 36 33 662 1119 bf 36 33 735 1119 bf 37 33 1061 1119 bf 36 33 1352 1119 bf 36 33 1497 1119 bf 37 33 1714 1119 bf 36 33 481 1152 bf 36 33 626 1152 bf 37 33 698 1152 bf 36 33 844 1152 bf 37 33 952 1152 bf 37 33 1714
 1152 bf 37 32 553 1185 bf 36 32 590 1185 bf 36 32 626 1185 bf 36 32 662 1185 bf 36 32 989 1185 bf 37 32 1714 1185 bf 37 33 553 1217 bf 36 33 590 1217 bf 36 33 662 1217 bf 36 33 771 1217 bf 36 33 517 1250 bf 37 33 553 1250 bf 36 33 590 1250 bf 36 33
 735 1250 bf 36 33 481 1283 bf 36 33 517 1283 bf 36 33 590 1283 bf 37 33 698 1283 bf 36 33 1170 1283 bf 37 33 1460 1283 bf 37 33 553 1316 bf 36 33 626 1316 bf 36 33 662 1316 bf 36 33 735 1316 bf 36 33 989 1316 bf 36 33 1134 1316 bf 37 33 1968 1316 bf
 36 33 2005 1316 bf 37 32 553 1349 bf 37 32 698 1349 bf 36 32 771 1349 bf 36 32 1352 1349 bf 36 32 1787 1349 bf 36 32 1932 1349 bf 37 33 553 1381 bf 36 33 590 1381 bf 36 33 626 1381 bf 36 33 662 1381 bf 37 33 807 1381 bf 36 33 880 1381 bf 37 33 444
 1414 bf 36 33 481 1414 bf 36 33 1098 1414 bf 36 33 1279 1414 bf 36 33 1896 1414 bf 36 33 481 1447 bf 37 33 553 1447 bf 36 33 1134 1447 bf 37 33 1569 1447 bf 37 33 1968 1447 bf 36 33 517 1480 bf 36 33 590 1480 bf 36 33 771 1480 bf 36 33 1098 1480 bf
 36 33 2005 1480 bf 1 1 1 c black 227 168 m 1814 X s
 gsave  2268 1681 0 0 C 1868.85 53.7798 t 0 r /Helvetica findfont 53.7798 sf 0 0 m (HCAL0) show NC gr  227 208 m -40 Y s 263 188 m -20 Y s 299 188 m -20 Y s 336 188 m -20 Y s 372 188 m -20 Y s 408 208 m -40 Y s 444 188 m -20 Y s 481 188 m -20 Y s 517
 188 m -20 Y s 553 188 m -20 Y s 590 208 m -40 Y s 626 188 m -20 Y s 662 188 m -20 Y s 698 188 m -20 Y s 735 188 m -20 Y s 771 208 m -40 Y s 807 188 m -20 Y s 844 188 m -20 Y s 880 188 m -20 Y s 916 188 m -20 Y s 952 208 m -40 Y s 989 188 m -20 Y s
 1025 188 m -20 Y s 1061 188 m -20 Y s 1098 188 m -20 Y s 1134 208 m -40 Y s 1170 188 m -20 Y s 1206 188 m -20 Y s 1243 188 m -20 Y s 1279 188 m -20 Y s 1315 208 m -40 Y s 1352 188 m -20 Y s 1388 188 m -20 Y s 1424 188 m -20 Y s 1460 188 m -20 Y s
 1497 208 m -40 Y s 1533 188 m -20 Y s 1569 188 m -20 Y s 1606 188 m -20 Y s 1642 188 m -20 Y s 1678 208 m -40 Y s 1714 188 m -20 Y s 1751 188 m -20 Y s 1787 188 m -20 Y s 1823 188 m -20 Y s 1860 208 m -40 Y s 1896 188 m -20 Y s 1932 188 m -20 Y s
 1968 188 m -20 Y s 2005 188 m -20 Y s 2041 208 m -40 Y s
 gsave  2268 1681 0 0 C 206.156 116.523 t 0 r /Helvetica findfont 53.7798 sf 0 0 m (0) show NC gr 
 gsave  2268 1681 0 0 C 394.385 116.523 t 0 r /Helvetica findfont 53.7798 sf 0 0 m (1) show NC gr 
 gsave  2268 1681 0 0 C 569.17 116.523 t 0 r /Helvetica findfont 53.7798 sf 0 0 m (2) show NC gr 
 gsave  2268 1681 0 0 C 752.918 116.523 t 0 r /Helvetica findfont 53.7798 sf 0 0 m (3) show NC gr 
 gsave  2268 1681 0 0 C 932.184 116.523 t 0 r /Helvetica findfont 53.7798 sf 0 0 m (4) show NC gr 
 gsave  2268 1681 0 0 C 1115.93 116.523 t 0 r /Helvetica findfont 53.7798 sf 0 0 m (5) show NC gr 
 gsave  2268 1681 0 0 C 1295.2 116.523 t 0 r /Helvetica findfont 53.7798 sf 0 0 m (6) show NC gr 
 gsave  2268 1681 0 0 C 1474.46 116.523 t 0 r /Helvetica findfont 53.7798 sf 0 0 m (7) show NC gr 
 gsave  2268 1681 0 0 C 1658.21 116.523 t 0 r /Helvetica findfont 53.7798 sf 0 0 m (8) show NC gr 
 gsave  2268 1681 0 0 C 1837.48 116.523 t 0 r /Helvetica findfont 53.7798 sf 0 0 m (9) show NC gr 
 gsave  2268 1681 0 0 C 2007.78 116.523 t 0 r /Helvetica findfont 53.7798 sf 0 0 m (10) show NC gr  227 168 m 1345 Y s
 gsave  2268 1681 0 0 C 116.523 1348.98 t 90 r /Helvetica findfont 53.7798 sf 0 0 m (HCAL1) show NC gr  281 266 m -54 X s 254 299 m -27 X s 254 332 m -27 X s 254 365 m -27 X s 254 398 m -27 X s 281 430 m -54 X s 254 463 m -27 X s 254 496 m -27 X s
 254 529 m -27 X s 254 562 m -27 X s 281 594 m -54 X s 254 627 m -27 X s 254 660 m -27 X s 254 693 m -27 X s 254 726 m -27 X s 281 758 m -54 X s 254 791 m -27 X s 254 824 m -27 X s 254 857 m -27 X s 254 889 m -27 X s 281 922 m -54 X s 254 955 m -27 X
 s 254 988 m -27 X s 254 1021 m -27 X s 254 1053 m -27 X s 281 1086 m -54 X s 254 1119 m -27 X s 254 1152 m -27 X s 254 1185 m -27 X s 254 1217 m -27 X s 281 1250 m -54 X s 254 1283 m -27 X s 254 1316 m -27 X s 254 1349 m -27 X s 254 1381 m -27 X s
 281 1414 m -54 X s 281 266 m -54 X s 254 234 m -27 X s 254 201 m -27 X s 281 1414 m -54 X s 254 1447 m -27 X s 254 1480 m -27 X s
 gsave  2268 1681 0 0 C 192.711 246.491 t 0 r /Helvetica findfont 53.7798 sf 0 0 m (1) show NC gr 
 gsave  2268 1681 0 0 C 183.748 412.312 t 0 r /Helvetica findfont 53.7798 sf 0 0 m (2) show NC gr 
 gsave  2268 1681 0 0 C 183.748 573.652 t 0 r /Helvetica findfont 53.7798 sf 0 0 m (3) show NC gr 
 gsave  2268 1681 0 0 C 183.748 739.473 t 0 r /Helvetica findfont 53.7798 sf 0 0 m (4) show NC gr 
 gsave  2268 1681 0 0 C 183.748 900.812 t 0 r /Helvetica findfont 53.7798 sf 0 0 m (5) show NC gr 
 gsave  2268 1681 0 0 C 183.748 1066.63 t 0 r /Helvetica findfont 53.7798 sf 0 0 m (6) show NC gr 
 gsave  2268 1681 0 0 C 183.748 1227.97 t 0 r /Helvetica findfont 53.7798 sf 0 0 m (7) show NC gr 
 gsave  2268 1681 0 0 C 183.748 1393.79 t 0 r /Helvetica findfont 53.7798 sf 0 0 m (8) show NC gr  1 1 1 c 453 605 1769 966 bf black 1769 966 m 453 X s 2222 966 m 605 Y s 2222 1571 m -453 X s 1769 1571 m -605 Y s 1 1 1 c black
 gsave  2268 1681 0 0 C 1931.59 1519.28 t 0 r /Helvetica findfont 58.2615 sf 0 0 m (h01e) show NC gr  1769 1504 m 453 X s
 gsave  2268 1681 0 0 C 1788.18 1452.06 t 0 r /Helvetica findfont 53.7798 sf 0 0 m (Entries ) show NC gr 
 gsave  2268 1681 0 0 C 2003.3 1452.06 t 0 r /Helvetica findfont 53.7798 sf 0 0 m ( 536319) show NC gr 
 gsave  2268 1681 0 0 C 1788.18 1384.83 t 0 r /Helvetica findfont 53.7798 sf 0 0 m (Mean x ) show NC gr 
 gsave  2268 1681 0 0 C 2034.67 1384.83 t 0 r /Helvetica findfont 53.7798 sf 0 0 m (  5.074) show NC gr 
 gsave  2268 1681 0 0 C 1788.18 1322.09 t 0 r /Helvetica findfont 53.7798 sf 0 0 m (Mean y ) show NC gr 
 gsave  2268 1681 0 0 C 2034.67 1317.61 t 0 r /Helvetica findfont 53.7798 sf 0 0 m (  1.315) show NC gr 
 gsave  2268 1681 0 0 C 1788.18 1250.38 t 0 r /Helvetica findfont 53.7798 sf 0 0 m (RMS x ) show NC gr 
 gsave  2268 1681 0 0 C 2034.67 1250.38 t 0 r /Helvetica findfont 53.7798 sf 0 0 m (  2.946) show NC gr 
 gsave  2268 1681 0 0 C 1788.18 1187.64 t 0 r /Helvetica findfont 53.7798 sf 0 0 m (RMS y ) show NC gr 
 gsave  2268 1681 0 0 C 2021.23 1183.16 t 0 r /Helvetica findfont 53.7798 sf 0 0 m ( 0.9542) show NC gr  1769 1168 m 453 X s 1920 1168 m -67 Y s 2071 1168 m -67 Y s
 gsave  2268 1681 0 0 C 1779.22 1115.93 t 0 r /Helvetica findfont 53.7798 sf 0 0 m (       0) show NC gr 
 gsave  2268 1681 0 0 C 1922.63 1115.93 t 0 r /Helvetica findfont 53.7798 sf 0 0 m (    625) show NC gr 
 gsave  2268 1681 0 0 C 2066.04 1115.93 t 0 r /Helvetica findfont 53.7798 sf 0 0 m (   8793) show NC gr  1769 1101 m 453 X s 1920 1101 m -67 Y s 2071 1101 m -67 Y s
 gsave  2268 1681 0 0 C 1779.22 1048.71 t 0 r /Helvetica findfont 53.7798 sf 0 0 m (       0) show NC gr 
 gsave  2268 1681 0 0 C 1904.7 1048.71 t 0 r /Helvetica findfont 53.7798 sf 0 0 m (  22316) show NC gr 
 gsave  2268 1681 0 0 C 2048.12 1048.71 t 0 r /Helvetica findfont 53.7798 sf 0 0 m ( 283596) show NC gr  1769 1034 m 453 X s 1920 1034 m -68 Y s 2071 1034 m -68 Y s
 gsave  2268 1681 0 0 C 1779.22 981.482 t 0 r /Helvetica findfont 53.7798 sf 0 0 m (       0) show NC gr 
 gsave  2268 1681 0 0 C 1904.7 981.482 t 0 r /Helvetica findfont 53.7798 sf 0 0 m (  32277) show NC gr 
 gsave  2268 1681 0 0 C 2048.12 981.482 t 0 r /Helvetica findfont 53.7798 sf 0 0 m ( 188712) show NC gr  0.386667 0 1 c 102 67 2052 168 bf 0.2 0 1 c 102 68 2052 235 bf 0 0.0800001 1 c 102 67 2052 303 bf 0 0.266667 1 c 102 67 2052 370 bf 0 0.546666 1
 c 102 67 2052 437 bf 0 0.733333 1 c 102 67 2052 504 bf 0 1 0.986667 c 102 68 2052 571 bf 0 1 0.8 c 102 67 2052 639 bf 0 1 0.52 c 102 67 2052 706 bf 0 1 0.333333 c 102 67 2052 773 bf 0 1 0.0533333 c 102 68 2052 840 bf 0.133333 1 0 c 102 67 2052 908
 bf 0.413333 1 0 c 102 67 2052 975 bf 0.6 1 0 c 102 67 2052 1042 bf 0.88 1 0 c 102 67 2052 1109 bf 1 0.933333 0 c 102 68 2052 1176 bf 1 0.653333 0 c 102 67 2052 1244 bf 1 0.466667 0 c 102 67 2052 1311 bf 1 0.186667 0 c 102 67 2052 1378 bf 1 0 0 c 102
 68 2052 1445 bf black 2154 168 m 1345 Y s 2100 168 m 54 X s 2100 390 m 54 X s 2100 612 m 54 X s 2100 834 m 54 X s 2100 1056 m 54 X s 2100 1277 m 54 X s 2100 1499 m 54 X s 2100 1499 m 54 X s
 gsave  2268 1681 0 0 C 2164.64 147.895 t 0 r /Helvetica findfont 53.7798 sf 0 0 m (0) show NC gr 
 gsave  2268 1681 0 0 C 2164.64 371.977 t 0 r /Helvetica findfont 53.7798 sf 0 0 m (50) show NC gr 
 gsave  2268 1681 0 0 C 2164.64 591.578 t 0 r /Helvetica findfont 53.7798 sf 0 0 m (100) show NC gr 
 gsave  2268 1681 0 0 C 2164.64 815.661 t 0 r /Helvetica findfont 53.7798 sf 0 0 m (150) show NC gr 
 gsave  2268 1681 0 0 C 2164.64 1035.26 t 0 r /Helvetica findfont 53.7798 sf 0 0 m (200) show NC gr 
 gsave  2268 1681 0 0 C 2164.64 1259.34 t 0 r /Helvetica findfont 53.7798 sf 0 0 m (250) show NC gr 
 gsave  2268 1681 0 0 C 2164.64 1478.95 t 0 r /Helvetica findfont 53.7798 sf 0 0 m (300) show NC gr  1 1 1 c 453 605 1769 966 bf black 1769 966 m 453 X s 2222 966 m 605 Y s 2222 1571 m -453 X s 1769 1571 m -605 Y s 1 1 1 c black
 gsave  2268 1681 0 0 C 1931.59 1519.28 t 0 r /Helvetica findfont 58.2615 sf 0 0 m (h01e) show NC gr  1769 1504 m 453 X s
 gsave  2268 1681 0 0 C 1788.18 1452.06 t 0 r /Helvetica findfont 53.7798 sf 0 0 m (Entries ) show NC gr 
 gsave  2268 1681 0 0 C 2003.3 1452.06 t 0 r /Helvetica findfont 53.7798 sf 0 0 m ( 536319) show NC gr 
 gsave  2268 1681 0 0 C 1788.18 1384.83 t 0 r /Helvetica findfont 53.7798 sf 0 0 m (Mean x ) show NC gr 
 gsave  2268 1681 0 0 C 2034.67 1384.83 t 0 r /Helvetica findfont 53.7798 sf 0 0 m (  5.074) show NC gr 
 gsave  2268 1681 0 0 C 1788.18 1322.09 t 0 r /Helvetica findfont 53.7798 sf 0 0 m (Mean y ) show NC gr 
 gsave  2268 1681 0 0 C 2034.67 1317.61 t 0 r /Helvetica findfont 53.7798 sf 0 0 m (  1.315) show NC gr 
 gsave  2268 1681 0 0 C 1788.18 1250.38 t 0 r /Helvetica findfont 53.7798 sf 0 0 m (RMS x ) show NC gr 
 gsave  2268 1681 0 0 C 2034.67 1250.38 t 0 r /Helvetica findfont 53.7798 sf 0 0 m (  2.946) show NC gr 
 gsave  2268 1681 0 0 C 1788.18 1187.64 t 0 r /Helvetica findfont 53.7798 sf 0 0 m (RMS y ) show NC gr 
 gsave  2268 1681 0 0 C 2021.23 1183.16 t 0 r /Helvetica findfont 53.7798 sf 0 0 m ( 0.9542) show NC gr  1769 1168 m 453 X s 1920 1168 m -67 Y s 2071 1168 m -67 Y s
 gsave  2268 1681 0 0 C 1779.22 1115.93 t 0 r /Helvetica findfont 53.7798 sf 0 0 m (       0) show NC gr 
 gsave  2268 1681 0 0 C 1922.63 1115.93 t 0 r /Helvetica findfont 53.7798 sf 0 0 m (    625) show NC gr 
 gsave  2268 1681 0 0 C 2066.04 1115.93 t 0 r /Helvetica findfont 53.7798 sf 0 0 m (   8793) show NC gr  1769 1101 m 453 X s 1920 1101 m -67 Y s 2071 1101 m -67 Y s
 gsave  2268 1681 0 0 C 1779.22 1048.71 t 0 r /Helvetica findfont 53.7798 sf 0 0 m (       0) show NC gr 
 gsave  2268 1681 0 0 C 1904.7 1048.71 t 0 r /Helvetica findfont 53.7798 sf 0 0 m (  22316) show NC gr 
 gsave  2268 1681 0 0 C 2048.12 1048.71 t 0 r /Helvetica findfont 53.7798 sf 0 0 m ( 283596) show NC gr  1769 1034 m 453 X s 1920 1034 m -68 Y s 2071 1034 m -68 Y s
 gsave  2268 1681 0 0 C 1779.22 981.482 t 0 r /Helvetica findfont 53.7798 sf 0 0 m (       0) show NC gr 
 gsave  2268 1681 0 0 C 1904.7 981.482 t 0 r /Helvetica findfont 53.7798 sf 0 0 m (  32277) show NC gr 
 gsave  2268 1681 0 0 C 2048.12 981.482 t 0 r /Helvetica findfont 53.7798 sf 0 0 m ( 188712) show NC gr  1 1 1 c black
 gsave  2268 1681 0 0 C 855.996 1599.95 t 0 r /Helvetica findfont 71.7065 sf 0 0 m (HCAL0 vs HCAL1) show NC gr 
 gr  gr showpage
end
%%EOF
