%!PS-Adobe-2.0 EPSF-2.0
%%BoundingBox: 0 0 567 454
%%Title: hcalextra3comp.eps
%%Creator: HIGZ Version 1.29/04
%%CreationDate: 2014/12/17   08.46
%%EndComments
%%BeginProlog
80 dict begin
/s {stroke} def /l {lineto} def /m {moveto} def /t {translate} def
/sw {stringwidth} def /r {rotate} def /rl {roll}  def /R {repeat} def
/d {rlineto} def /rm {rmoveto} def /gr {grestore} def /f {eofill} def
/c {setrgbcolor} def /lw {setlinewidth} def /sd {setdash} def
/cl {closepath} def /sf {scalefont setfont} def /black {0 setgray} def
/box {m dup 0 exch d exch 0 d 0 exch neg d cl} def
/NC{systemdict begin initclip end}def/C{NC box clip newpath}def
/bl {box s} def /bf {box f} def /Y { 0 exch d} def /X { 0 d} def 
/mp {newpath /y exch def /x exch def} def
/side {[w .77 mul w .23 mul] .385 w mul sd w 0 l currentpoint t -144 r} def
/mr {mp x y w2 0 360 arc} def /m24 {mr s} def /m20 {mr f} def
/mb {mp x y w2 add m w2 neg 0 d 0 w neg d w 0 d 0 w d cl} def
/mt {mp x y w2 add m w2 neg w neg d w 0 d cl} def
/m21 {mb f} def /m25 {mb s} def /m22 {mt f} def /m26 {mt s} def
/m23 {mp x y w2 sub m w2 w d w neg 0 d cl f} def
/m27 {mp x y w2 add m w3 neg w2 neg d w3 w2 neg d w3  w2 d cl s} def
/m28 {mp x w2 sub y w2 sub w3 add m w3 0 d 0 w3 neg d w3 0 d 0 w3 d w3 0 d
 0 w3 d w3 neg 0 d 0 w3 d w3 neg 0 d
 0 w3 neg d w3 neg 0 d cl s } def
/m29 {mp gsave x w2 sub y w2 add w3 sub m currentpoint t
 4 {side} repeat cl fill gr} def
/m30 {mp gsave x w2 sub y w2 add w3 sub m currentpoint t
 5 {side} repeat s gr} def
/m31 {mp x y w2 sub m 0 w d x w2 sub y m w 0 d
 x w2 sub y w2 add m w w neg d x w2 sub y w2
 sub m w w d s} def
/m2 {mp x y w2 sub m 0 w d x w2 sub y m w 0 d s} def
/m5 {mp x w2 sub y w2 sub m w w d x w2 sub y w2 add m w w neg d s} def
/reencdict 24 dict def /ReEncode {reencdict begin /nco&na exch def
/nfnam exch def /basefontname exch def /basefontdict basefontname findfont def
/newfont basefontdict maxlength dict def basefontdict {exch dup /FID ne
{dup /Encoding eq {exch dup length array copy newfont 3 1 roll put} {exch
newfont 3 1 roll put} ifelse} {pop pop} ifelse } forall newfont
/FontName nfnam put nco&na aload pop nco&na length 2 idiv {newfont
/Encoding get 3 1 roll put} repeat nfnam newfont definefont pop end } def
/accvec [ 176 /agrave 181 /Agrave 190 /acircumflex 192 /Acircumflex
201 /adieresis 204 /Adieresis 209 /ccedilla 210 /Ccedilla 211 /eacute
212 /Eacute 213 /egrave 214 /Egrave 215 /ecircumflex 216 /Ecircumflex
217 /edieresis 218 /Edieresis 219 /icircumflex 220 /Icircumflex
221 /idieresis 222 /Idieresis 223 /ntilde 224 /Ntilde 226 /ocircumflex
228 /Ocircumflex 229 /odieresis 230 /Odieresis 231 /ucircumflex 236 /Ucircumflex
237 /udieresis 238 /Udieresis 239 /aring 242 /Aring 243 /ydieresis
244 /Ydieresis 246 /aacute 247 /Aacute 252 /ugrave 253 /Ugrave] def
/Times-Roman /Times-Roman accvec ReEncode
/Times-Italic /Times-Italic accvec ReEncode
/Times-Bold /Times-Bold accvec ReEncode
/Times-BoldItalic /Times-BoldItalic accvec ReEncode
/Helvetica /Helvetica accvec ReEncode
/Helvetica-Oblique /Helvetica-Oblique accvec ReEncode
/Helvetica-Bold /Helvetica-Bold accvec ReEncode
/Helvetica-BoldOblique /Helvetica-BoldOblique  accvec ReEncode
/Courier /Courier accvec ReEncode
/Courier-Oblique /Courier-Oblique accvec ReEncode
/Courier-Bold /Courier-Bold accvec ReEncode
/Courier-BoldOblique /Courier-BoldOblique accvec ReEncode
/oshow {gsave [] 0 sd true charpath stroke gr} def
/stwn { /fs exch def /fn exch def /text exch def fn findfont fs sf
 text sw pop xs add /xs exch def} def
/stwb { /fs exch def /fn exch def /nbas exch def /textf exch def
textf length /tlen exch def nbas tlen gt {/nbas tlen def} if
fn findfont fs sf textf dup length nbas sub nbas getinterval sw
pop neg xs add /xs exch def} def
/accspe [ 65 /plusminus 66 /bar 67 /existential 68 /universal
69 /exclam 70 /numbersign 71 /greater 72 /question 73 /integral
74 /colon 75 /semicolon 76 /less 77 /bracketleft 78 /bracketright
79 /greaterequal 80 /braceleft 81 /braceright 82 /radical
83 /spade 84 /heart 85 /diamond 86 /club 87 /lessequal
88 /multiply 89 /percent 90 /infinity 48 /circlemultiply 49 /circleplus
50 /emptyset 51 /lozenge 52 /bullet 53 /arrowright 54 /arrowup
55 /arrowleft 56 /arrowdown 57 /arrowboth 48 /degree 44 /comma 43 /plus
 45 /angle 42 /angleleft 47 /divide 61 /notequal 40 /equivalence 41 /second
 97 /approxequal 98 /congruent 99 /perpendicular 100 /partialdiff 101 /florin
 102 /intersection 103 /union 104 /propersuperset 105 /reflexsuperset
 106 /notsubset 107 /propersubset 108 /reflexsubset 109 /element 110 /notelement
 111 /gradient 112 /logicaland 113 /logicalor 114 /arrowdblboth
 115 /arrowdblleft 116 /arrowdblup 117 /arrowdblright 118 /arrowdbldown
 119 /ampersand 120 /omega1 121 /similar 122 /aleph ] def
/Symbol /Special accspe ReEncode
%%EndProlog
%%BeginSetup
%%EndSetup
newpath  gsave  .25 .25 scale  gsave 0 0 t black [] 0 sd 1 lw 2 lw 1417 1417 397
 227 bl 2268 1814 0 0 C 1417 1417 397 227 C NC 1 lw 397 227 m 1417 Y s 2 lw 431
 227 m -34 X s
 /xs 0 def 
(10)
 /Helvetica-Bold     62 stwn 
 gsave  312 204
 t   0 r  xs neg 0 t 0 0 m
 /Helvetica-Bold findfont   62 sf 0    0 m 
(10)
 show 
 gr 
 /xs 0 def 
(-6)
 /Helvetica-Bold     50 stwn 
 gsave  380 260
 t   0 r  xs neg 0 t 0 0 m
 /Helvetica-Bold findfont   50 sf 0    0 m 
(-6)
 show 
 gr  414 268 m -17 X s 414 291 m -17 X s 414 308 m -17 X s 414 321 m -17 X s 414
 332 m -17 X s 414 341 m -17 X s 414 349 m -17 X s 414 356 m -17 X s 431 362 m
 -34 X s
 /xs 0 def 
(10)
 /Helvetica-Bold     62 stwn 
 gsave  312 339
 t   0 r  xs neg 0 t 0 0 m
 /Helvetica-Bold findfont   62 sf 0    0 m 
(10)
 show 
 gr 
 /xs 0 def 
(-5)
 /Helvetica-Bold     50 stwn 
 gsave  380 395
 t   0 r  xs neg 0 t 0 0 m
 /Helvetica-Bold findfont   50 sf 0    0 m 
(-5)
 show 
 gr  414 403 m -17 X s 414 427 m -17 X s 414 444 m -17 X s 414 457 m -17 X s 414
 467 m -17 X s 414 476 m -17 X s 414 484 m -17 X s 414 491 m -17 X s 431 497 m
 -34 X s
 /xs 0 def 
(10)
 /Helvetica-Bold     62 stwn 
 gsave  312 475
 t   0 r  xs neg 0 t 0 0 m
 /Helvetica-Bold findfont   62 sf 0    0 m 
(10)
 show 
 gr 
 /xs 0 def 
(-4)
 /Helvetica-Bold     50 stwn 
 gsave  380 530
 t   0 r  xs neg 0 t 0 0 m
 /Helvetica-Bold findfont   50 sf 0    0 m 
(-4)
 show 
 gr  414 538 m -17 X s 414 562 m -17 X s 414 579 m -17 X s 414 592 m -17 X s 414
 603 m -17 X s 414 612 m -17 X s 414 620 m -17 X s 414 626 m -17 X s 431 633 m
 -34 X s
 /xs 0 def 
(10)
 /Helvetica-Bold     62 stwn 
 gsave  312 610
 t   0 r  xs neg 0 t 0 0 m
 /Helvetica-Bold findfont   62 sf 0    0 m 
(10)
 show 
 gr 
 /xs 0 def 
(-3)
 /Helvetica-Bold     50 stwn 
 gsave  380 666
 t   0 r  xs neg 0 t 0 0 m
 /Helvetica-Bold findfont   50 sf 0    0 m 
(-3)
 show 
 gr  414 673 m -17 X s 414 697 m -17 X s 414 714 m -17 X s 414 727 m -17 X s 414
 738 m -17 X s 414 747 m -17 X s 414 755 m -17 X s 414 762 m -17 X s 431 768 m
 -34 X s
 /xs 0 def 
(10)
 /Helvetica-Bold     62 stwn 
 gsave  312 745
 t   0 r  xs neg 0 t 0 0 m
 /Helvetica-Bold findfont   62 sf 0    0 m 
(10)
 show 
 gr 
 /xs 0 def 
(-2)
 /Helvetica-Bold     50 stwn 
 gsave  380 801
 t   0 r  xs neg 0 t 0 0 m
 /Helvetica-Bold findfont   50 sf 0    0 m 
(-2)
 show 
 gr  414 809 m -17 X s 414 833 m -17 X s 414 849 m -17 X s 414 863 m -17 X s 414
 873 m -17 X s 414 882 m -17 X s 414 890 m -17 X s 414 897 m -17 X s 431 903 m
 -34 X s
 /xs 0 def 
(10)
 /Helvetica-Bold     62 stwn 
 gsave  312 881
 t   0 r  xs neg 0 t 0 0 m
 /Helvetica-Bold findfont   62 sf 0    0 m 
(10)
 show 
 gr 
 /xs 0 def 
(-1)
 /Helvetica-Bold     50 stwn 
 gsave  380 936
 t   0 r  xs neg 0 t 0 0 m
 /Helvetica-Bold findfont   50 sf 0    0 m 
(-1)
 show 
 gr  414 944 m -17 X s 414 968 m -17 X s 414 985 m -17 X s 414 998 m -17 X s 414
 1009 m -17 X s 414 1018 m -17 X s 414 1025 m -17 X s 414 1032 m -17 X s 431
 1039 m -34 X s
 /xs 0 def 
(1)
 /Helvetica-Bold     62 stwn 
 gsave  335 1016
 t   0 r  xs neg 0 t 0 0 m
 /Helvetica-Bold findfont   62 sf 0    0 m 
(1)
 show 
 gr  414 1079 m -17 X s 414 1103 m -17 X s 414 1120 m -17 X s 414 1133 m -17 X s
 414 1144 m -17 X s 414 1153 m -17 X s 414 1161 m -17 X s 414 1168 m -17 X s 431
 1174 m -34 X s
 /xs 0 def 
(10)
 /Helvetica-Bold     62 stwn 
 gsave  335 1151
 t   0 r  xs neg 0 t 0 0 m
 /Helvetica-Bold findfont   62 sf 0    0 m 
(10)
 show 
 gr  414 1215 m -17 X s 414 1238 m -17 X s 414 1255 m -17 X s 414 1268 m -17 X s
 414 1279 m -17 X s 414 1288 m -17 X s 414 1296 m -17 X s 414 1303 m -17 X s 431
 1309 m -34 X s
 /xs 0 def 
(10)
 /Helvetica-Bold     62 stwn 
 gsave  335 1286
 t   0 r  xs neg 0 t 0 0 m
 /Helvetica-Bold findfont   62 sf 0    0 m 
(10)
 show 
 gr 
 /xs 0 def 
(2)
 /Helvetica-Bold     50 stwn 
 gsave  380 1319
 t   0 r  xs neg 0 t 0 0 m
 /Helvetica-Bold findfont   50 sf 0    0 m 
(2)
 show 
 gr  414 1350 m -17 X s 414 1374 m -17 X s 414 1391 m -17 X s 414 1404 m -17 X s
 414 1414 m -17 X s 414 1423 m -17 X s 414 1431 m -17 X s 414 1438 m -17 X s 431
 1444 m -34 X s
 /xs 0 def 
(10)
 /Helvetica-Bold     62 stwn 
 gsave  335 1422
 t   0 r  xs neg 0 t 0 0 m
 /Helvetica-Bold findfont   62 sf 0    0 m 
(10)
 show 
 gr 
 /xs 0 def 
(3)
 /Helvetica-Bold     50 stwn 
 gsave  380 1455
 t   0 r  xs neg 0 t 0 0 m
 /Helvetica-Bold findfont   50 sf 0    0 m 
(3)
 show 
 gr  414 1485 m -17 X s 414 1509 m -17 X s 414 1526 m -17 X s 414 1539 m -17 X s
 414 1550 m -17 X s 414 1559 m -17 X s 414 1567 m -17 X s 414 1574 m -17 X s 431
 1580 m -34 X s
 /xs 0 def 
(10)
 /Helvetica-Bold     62 stwn 
 gsave  335 1557
 t   0 r  xs neg 0 t 0 0 m
 /Helvetica-Bold findfont   62 sf 0    0 m 
(10)
 show 
 gr 
 /xs 0 def 
(4)
 /Helvetica-Bold     50 stwn 
 gsave  380 1590
 t   0 r  xs neg 0 t 0 0 m
 /Helvetica-Bold findfont   50 sf 0    0 m 
(4)
 show 
 gr  414 1620 m -17 X s 414 1644 m -17 X s 1 lw 397 227 m 1417 X s 2 lw 397 261
 m -34 Y s 444 244 m -17 Y s 491 244 m -17 Y s 539 244 m -17 Y s 586 261 m -34 Y
 s 633 244 m -17 Y s 680 244 m -17 Y s 728 244 m -17 Y s 775 261 m -34 Y s 822
 244 m -17 Y s 869 244 m -17 Y s 917 244 m -17 Y s 964 261 m -34 Y s 1011 244 m
 -17 Y s 1058 244 m -17 Y s 1106 244 m -17 Y s 1153 261 m -34 Y s 1200 244 m -17
 Y s 1247 244 m -17 Y s 1295 244 m -17 Y s 1342 261 m -34 Y s 1389 244 m -17 Y s
 1436 244 m -17 Y s 1484 244 m -17 Y s 1531 261 m -34 Y s 1578 244 m -17 Y s
 1625 244 m -17 Y s 1673 244 m -17 Y s 1720 261 m -34 Y s 1720 261 m -34 Y s
 1767 244 m -17 Y s 1814 244 m -17 Y s
 /xs 0 def 
(0)
 /Helvetica-Bold     62 stwn 
 gsave  397 136
 t   0 r  xs 2 div neg 0 t 0 0 m
 /Helvetica-Bold findfont   62 sf 0    0 m 
(0)
 show 
 gr 
 /xs 0 def 
(20)
 /Helvetica-Bold     62 stwn 
 gsave  586 136
 t   0 r  xs 2 div neg 0 t 0 0 m
 /Helvetica-Bold findfont   62 sf 0    0 m 
(20)
 show 
 gr 
 /xs 0 def 
(40)
 /Helvetica-Bold     62 stwn 
 gsave  775 136
 t   0 r  xs 2 div neg 0 t 0 0 m
 /Helvetica-Bold findfont   62 sf 0    0 m 
(40)
 show 
 gr 
 /xs 0 def 
(60)
 /Helvetica-Bold     62 stwn 
 gsave  964 136
 t   0 r  xs 2 div neg 0 t 0 0 m
 /Helvetica-Bold findfont   62 sf 0    0 m 
(60)
 show 
 gr 
 /xs 0 def 
(80)
 /Helvetica-Bold     62 stwn 
 gsave  1153 136
 t   0 r  xs 2 div neg 0 t 0 0 m
 /Helvetica-Bold findfont   62 sf 0    0 m 
(80)
 show 
 gr 
 /xs 0 def 
(100)
 /Helvetica-Bold     62 stwn 
 gsave  1342 136
 t   0 r  xs 2 div neg 0 t 0 0 m
 /Helvetica-Bold findfont   62 sf 0    0 m 
(100)
 show 
 gr 
 /xs 0 def 
(120)
 /Helvetica-Bold     62 stwn 
 gsave  1531 136
 t   0 r  xs 2 div neg 0 t 0 0 m
 /Helvetica-Bold findfont   62 sf 0    0 m 
(120)
 show 
 gr 
 /xs 0 def 
(140)
 /Helvetica-Bold     62 stwn 
 gsave  1720 136
 t   0 r  xs 2 div neg 0 t 0 0 m
 /Helvetica-Bold findfont   62 sf 0    0 m 
(140)
 show 
 gr  1417 1417 397 227 C 799 1113 m 8 Y s 775 1144 m 1 X s 821 1144 m 1 X s /w
 46 def /w2 {w 2 div} def /w3 {w 3 div} def 799 1144 m20 822 1225 m 1 X s 868
 1225 m 1 X s 846 1225 m20 869 1284 m 1 X s 916 1284 m 1 X s 893 1284 m20 917
 1418 m 1 X s 963 1418 m 1 X s 940 1418 m20 964 1484 m 1 X s 1010 1484 m 1 X s
 988 1484 m20 1011 1483 m 1 X s 1057 1483 m 1 X s 1035 1483 m20 1058 1475 m 1 X
 s 1105 1475 m 1 X s 1082 1475 m20 1106 1470 m 1 X s 1152 1470 m 1 X s 1129 1470
 m20 1153 1465 m 1 X s 1199 1465 m 1 X s 1177 1465 m20 1200 1457 m 1 X s 1246
 1457 m 1 X s 1224 1457 m20 1247 1453 m 1 X s 1294 1453 m 1 X s 1271 1453 m20
 1295 1447 m 1 X s 1341 1447 m 1 X s 1318 1447 m20 1342 1441 m 1 X s 1388 1441 m
 1 X s 1366 1441 m20 1389 1435 m 1 X s 1435 1435 m 1 X s 1413 1435 m20 1436 1433
 m 1 X s 1483 1433 m 1 X s 1460 1433 m20 1484 1423 m 1 X s 1530 1423 m 1 X s
 1507 1423 m20 1531 1421 m 1 X s 1577 1421 m 1 X s 1555 1421 m20 1578 1417 m 1 X
 s 1624 1417 m 1 X s 1602 1417 m20 1625 1413 m 1 X s 1672 1413 m 1 X s 1649 1413
 m20 1673 1379 m 1 X s 1719 1379 m 1 X s 1696 1379 m20 1720 1296 m 1 X s 1766
 1296 m 1 X s 1744 1296 m20 1767 1246 m 1 X s 1813 1246 m 1 X s 1791 1246 m20
 [12 12] 0 sd 0 0 1 c 400 368 m 6 12 d 6 11 d 6 12 d 7 12 d 6 12 d 6 11 d 6 12 d
 6 12 d 6 12 d 6 11 d 7 12 d 6 12 d 6 12 d 6 11 d 6 12 d 6 12 d 6 12 d 7 11 d 6
 12 d 6 12 d 6 12 d 6 12 d 6 11 d 6 12 d 7 12 d 6 12 d 6 11 d 6 12 d 6 12 d 6 12
 d 6 11 d 7 12 d 6 12 d 6 12 d 6 11 d 6 12 d 6 12 d 6 12 d 7 11 d 6 12 d 6 12 d
 6 12 d 6 11 d 6 12 d 6 12 d 7 12 d 6 11 d 6 12 d 6 12 d s 701 944 m 6 12 d 6 11
 d 6 12 d 7 12 d 6 12 d 6 11 d 6 12 d 6 12 d 6 12 d 6 11 d 7 12 d 6 12 d 6 12 d
 6 11 d 6 12 d 6 12 d 6 12 d 7 11 d 6 12 d 6 12 d 6 12 d 6 11 d 6 12 d 6 12 d 7
 12 d 6 11 d 6 12 d 6 12 d 6 12 d 6 11 d 6 12 d 7 12 d 6 12 d 6 11 d 6 12 d 6 12
 d 6 12 d 6 11 d 7 12 d 6 12 d 6 12 d 6 11 d 6 12 d 6 12 d 6 12 d 7 11 d 6 12 d
 6 12 d 6 12 d s 1002 1520 m 6 11 d s 2268 1814 0 0 C 1417 1417 397 227 C 2268
 1814 0 0 C black
 gsave  491 1423
 t   0 r 0 0 m
 /Helvetica-Bold findfont   62 sf 0    0 m 
(E\301)
 show 
 currentpoint pop 0 t 
 /Symbol findfont   43 sf 0  -21 m 
(m)
 show 
 currentpoint pop 0 t 
 /Special findfont   62 sf 0    0 m 
(L)
 show 
 currentpoint pop 0 t 
 /Helvetica-Bold findfont   62 sf 0    0 m 
(100 GeV)
 show 
 gr  1417 1417 397 227 C 2268 1814 0 0 C 1417 1417 397 227 C 2268 1814 0 0 C 1 0
 0 c
 gsave  1058 903
 t   0 r 0 0 m
 /Helvetica-Bold findfont   62 sf 0    0 m 
(---)
 show 
 gr  1417 1417 397 227 C 2268 1814 0 0 C 1417 1417 397 227 C 2268 1814 0 0 C
 black
 gsave  1247 903
 t   0 r 0 0 m
 /Helvetica-Bold findfont   62 sf 0    0 m 
(60x60 cm)
 show 
 currentpoint pop 0 t 
 /Helvetica-Bold findfont   43 sf 0   31 m 
(2)
 show 
 gr  1417 1417 397 227 C 2268 1814 0 0 C 1417 1417 397 227 C 2268 1814 0 0 C 0 0
 1 c
 gsave  1058 809
 t   0 r 0 0 m
 /Helvetica-Bold findfont   62 sf 0    0 m 
(---)
 show 
 gr  1417 1417 397 227 C 2268 1814 0 0 C 1417 1417 397 227 C 2268 1814 0 0 C
 black
 gsave  1247 809
 t   0 r 0 0 m
 /Helvetica-Bold findfont   62 sf 0    0 m 
(120x120 cm)
 show 
 currentpoint pop 0 t 
 /Helvetica-Bold findfont   43 sf 0   31 m 
(2)
 show 
 gr  1417 1417 397 227 C 2268 1814 0 0 C 1417 1417 397 227 C 2268 1814 0 0 C 0 1
 0 c
 gsave  1058 714
 t   0 r 0 0 m
 /Helvetica-Bold findfont   62 sf 0    0 m 
(---)
 show 
 gr  1417 1417 397 227 C 2268 1814 0 0 C 1417 1417 397 227 C 2268 1814 0 0 C
 black
 gsave  1247 714
 t   0 r 0 0 m
 /Helvetica-Bold findfont   62 sf 0    0 m 
(150x150 cm)
 show 
 currentpoint pop 0 t 
 /Helvetica-Bold findfont   43 sf 0   31 m 
(2)
 show 
 gr  1417 1417 397 227 C 2268 1814 0 0 C 1417 1417 397 227 C 2268 1814 0 0 C
 1417 1417 397 227 C 2268 1814 0 0 C [] 0 sd 1 lw 0 0 1 c 510 673 m -446 Y s 538
 272 m -28 -45 d -27 45 d s 1417 1417 397 227 C 2 lw black 610 1053 m 27 Y s 610
 1126 m 4 Y s 586 1103 m 1 X s 632 1103 m 1 X s 610 1103 m23 657 1113 m 8 Y s
 633 1144 m 1 X s 679 1144 m 1 X s 657 1144 m23 680 1215 m 1 X s 727 1215 m 1 X
 s 704 1215 m23 728 1268 m 1 X s 774 1268 m 1 X s 751 1268 m23 775 1302 m 1 X s
 821 1302 m 1 X s 799 1302 m23 822 1350 m 1 X s 868 1350 m 1 X s 846 1350 m23
 869 1395 m 1 X s 916 1395 m 1 X s 893 1395 m23 917 1458 m 1 X s 963 1458 m 1 X
 s 940 1458 m23 964 1506 m 1 X s 1010 1506 m 1 X s 988 1506 m23 1011 1510 m 1 X
 s 1057 1510 m 1 X s 1035 1510 m23 1058 1501 m 1 X s 1105 1501 m 1 X s 1082 1501
 m23 1106 1494 m 1 X s 1152 1494 m 1 X s 1129 1494 m23 1153 1486 m 1 X s 1199
 1486 m 1 X s 1177 1486 m23 1200 1482 m 1 X s 1246 1482 m 1 X s 1224 1482 m23
 1247 1473 m 1 X s 1294 1473 m 1 X s 1271 1473 m23 1295 1469 m 1 X s 1341 1469 m
 1 X s 1318 1469 m23 1342 1464 m 1 X s 1388 1464 m 1 X s 1366 1464 m23 1389 1455
 m 1 X s 1435 1455 m 1 X s 1413 1455 m23 1436 1454 m 1 X s 1483 1454 m 1 X s
 1460 1454 m23 1484 1450 m 1 X s 1530 1450 m 1 X s 1507 1450 m23 1531 1439 m 1 X
 s 1577 1439 m 1 X s 1555 1439 m23 1578 1433 m 1 X s 1624 1433 m 1 X s 1602 1433
 m23 1625 1427 m 1 X s 1672 1427 m 1 X s 1649 1427 m23 1673 1396 m 1 X s 1719
 1396 m 1 X s 1696 1396 m23 1720 1295 m 1 X s 1766 1295 m 1 X s 1744 1295 m23
 1767 1244 m 1 X s 1813 1244 m 1 X s 1791 1244 m23 [12 12] 0 sd 1 0 0 c 400 853
 m 6 7 d 6 7 d 6 7 d 7 7 d 6 7 d 6 7 d 6 7 d 6 6 d 6 7 d 6 7 d 7 7 d 6 7 d 6 7 d
 6 7 d 6 7 d 6 7 d 6 7 d 7 7 d 6 7 d 6 7 d 6 7 d 6 7 d 6 7 d 6 7 d 7 7 d 6 6 d 6
 7 d 6 7 d 6 7 d 6 7 d 6 7 d 7 7 d 6 7 d 6 7 d 6 7 d 6 7 d 6 7 d 6 7 d 7 7 d 6 7
 d 6 7 d 6 7 d 6 7 d 6 6 d 6 7 d 7 7 d 6 7 d 6 7 d 6 7 d s 701 1193 m 6 7 d 6 7
 d 6 7 d 7 7 d 6 7 d 6 7 d 6 7 d 6 7 d 6 7 d 6 7 d 7 7 d 6 6 d 6 7 d 6 7 d 6 7 d
 6 7 d 6 7 d 7 7 d 6 7 d 6 7 d 6 7 d 6 7 d 6 7 d 6 7 d 7 7 d 6 7 d 6 7 d 6 7 d 6
 7 d 6 6 d 6 7 d 7 7 d 6 7 d 6 7 d 6 7 d 6 7 d 6 7 d 6 7 d 7 7 d 6 7 d 6 7 d 6 7
 d 6 7 d 6 7 d 6 7 d 7 7 d 6 7 d 6 6 d 6 7 d s 1002 1533 m 6 7 d s [] 0 sd black
 799 1007 m 50 Y s 799 1102 m 9 Y s 775 1079 m 1 X s 821 1079 m 1 X s 799 1079
 m24 822 1198 m 1 X s 868 1198 m 1 X s 846 1198 m24 869 1266 m 1 X s 916 1266 m
 1 X s 893 1266 m24 917 1415 m 1 X s 963 1415 m 1 X s 940 1415 m24 964 1480 m 1
 X s 1010 1480 m 1 X s 988 1480 m24 1011 1483 m 1 X s 1057 1483 m 1 X s 1035
 1483 m24 1058 1478 m 1 X s 1105 1478 m 1 X s 1082 1478 m24 1106 1473 m 1 X s
 1152 1473 m 1 X s 1129 1473 m24 1153 1466 m 1 X s 1199 1466 m 1 X s 1177 1466
 m24 1200 1458 m 1 X s 1246 1458 m 1 X s 1224 1458 m24 1247 1453 m 1 X s 1294
 1453 m 1 X s 1271 1453 m24 1295 1448 m 1 X s 1341 1448 m 1 X s 1318 1448 m24
 1342 1441 m 1 X s 1388 1441 m 1 X s 1366 1441 m24 1389 1440 m 1 X s 1435 1440 m
 1 X s 1413 1440 m24 1436 1433 m 1 X s 1483 1433 m 1 X s 1460 1433 m24 1484 1430
 m 1 X s 1530 1430 m 1 X s 1507 1430 m24 1531 1425 m 1 X s 1577 1425 m 1 X s
 1555 1425 m24 1578 1420 m 1 X s 1624 1420 m 1 X s 1602 1420 m24 1625 1412 m 1 X
 s 1672 1412 m 1 X s 1649 1412 m24 1673 1388 m 1 X s 1719 1388 m 1 X s 1696 1388
 m24 1720 1287 m 1 X s 1766 1287 m 1 X s 1744 1287 m24 1767 1228 m 1 X s 1813
 1228 m 1 X s 1791 1228 m24 [12 12] 0 sd 0 1 0 c 400 257 m 6 13 d 6 12 d 6 13 d
 7 13 d 6 13 d 6 12 d 6 13 d 6 13 d 6 13 d 6 12 d 7 13 d 6 13 d 6 12 d 6 13 d 6
 13 d 6 13 d 6 12 d 7 13 d 6 13 d 6 13 d 6 12 d 6 13 d 6 13 d 6 13 d 7 12 d 6 13
 d 6 13 d 6 12 d 6 13 d 6 13 d 6 13 d 7 12 d 6 13 d 6 13 d 6 13 d 6 12 d 6 13 d
 6 13 d 7 12 d 6 13 d 6 13 d 6 13 d 6 12 d 6 13 d 6 13 d 7 13 d 6 12 d 6 13 d 6
 13 d s 701 881 m 6 13 d 6 12 d 6 13 d 7 13 d 6 12 d 6 13 d 6 13 d 6 13 d 6 12 d
 6 13 d 7 13 d 6 13 d 6 12 d 6 13 d 6 13 d 6 12 d 6 13 d 7 13 d 6 13 d 6 12 d 6
 13 d 6 13 d 6 13 d 6 12 d 7 13 d 6 13 d 6 13 d 6 12 d 6 13 d 6 13 d 6 12 d 7 13
 d 6 13 d 6 13 d 6 12 d 6 13 d 6 13 d 6 13 d 7 12 d 6 13 d 6 13 d 6 12 d 6 13 d
 6 13 d 6 13 d 7 12 d 6 13 d 6 13 d 6 13 d s 1002 1505 m 6 12 d s 2268 1814 0 0
 C black
 /xs 0 def 
(E)
 /Helvetica-Bold     62 stwn 
(s)
 /Helvetica-Bold     43 stwn 
(, GeV)
 /Helvetica-Bold     62 stwn 
 gsave  1814 34
 t   0 r  xs neg 0 t 0 0 m
 /Helvetica-Bold findfont   62 sf 0    0 m 
(E)
 show 
 currentpoint pop 0 t 
 /Helvetica-Bold findfont   43 sf 0   31 m 
(s)
 show 
 currentpoint pop 0 t 
/Helvetica-Bold findfont   43 sf 
(s)
 dup length 1 sub 1 getinterval 
 stringwidth pop 2 div neg    0 rm 
 /Helvetica-Bold findfont   43 sf 0  -43 rm 
( tot)
 stringwidth pop 2 div neg 0 rm 
( tot)
 show
 /Helvetica-Bold findfont   62 sf 0    0 m 
(, GeV)
 show 
 gsave  gr  gr 
 /xs 0 def 
(Events/5 GeV)
 /Helvetica-Bold     62 stwn 
 gsave  113 1644
 t  90 r  xs neg 0 t 0 0 m
 /Helvetica-Bold findfont   62 sf 0    0 m 
(Events/5 GeV)
 show 
 gr  1417 1417 397 227 C
 gr  gr 
showpage
end
%%EOF
