%!PS-Adobe-2.0 EPSF-2.0
%%BoundingBox: 0 0 567 454
%%Title: hcalextra3l.eps
%%Creator: HIGZ Version 1.29/04
%%CreationDate: 2014/12/17   08.46
%%EndComments
%%BeginProlog
80 dict begin
/s {stroke} def /l {lineto} def /m {moveto} def /t {translate} def
/sw {stringwidth} def /r {rotate} def /rl {roll}  def /R {repeat} def
/d {rlineto} def /rm {rmoveto} def /gr {grestore} def /f {eofill} def
/c {setrgbcolor} def /lw {setlinewidth} def /sd {setdash} def
/cl {closepath} def /sf {scalefont setfont} def /black {0 setgray} def
/box {m dup 0 exch d exch 0 d 0 exch neg d cl} def
/NC{systemdict begin initclip end}def/C{NC box clip newpath}def
/bl {box s} def /bf {box f} def /Y { 0 exch d} def /X { 0 d} def 
/mp {newpath /y exch def /x exch def} def
/side {[w .77 mul w .23 mul] .385 w mul sd w 0 l currentpoint t -144 r} def
/mr {mp x y w2 0 360 arc} def /m24 {mr s} def /m20 {mr f} def
/mb {mp x y w2 add m w2 neg 0 d 0 w neg d w 0 d 0 w d cl} def
/mt {mp x y w2 add m w2 neg w neg d w 0 d cl} def
/m21 {mb f} def /m25 {mb s} def /m22 {mt f} def /m26 {mt s} def
/m23 {mp x y w2 sub m w2 w d w neg 0 d cl f} def
/m27 {mp x y w2 add m w3 neg w2 neg d w3 w2 neg d w3  w2 d cl s} def
/m28 {mp x w2 sub y w2 sub w3 add m w3 0 d 0 w3 neg d w3 0 d 0 w3 d w3 0 d
 0 w3 d w3 neg 0 d 0 w3 d w3 neg 0 d
 0 w3 neg d w3 neg 0 d cl s } def
/m29 {mp gsave x w2 sub y w2 add w3 sub m currentpoint t
 4 {side} repeat cl fill gr} def
/m30 {mp gsave x w2 sub y w2 add w3 sub m currentpoint t
 5 {side} repeat s gr} def
/m31 {mp x y w2 sub m 0 w d x w2 sub y m w 0 d
 x w2 sub y w2 add m w w neg d x w2 sub y w2
 sub m w w d s} def
/m2 {mp x y w2 sub m 0 w d x w2 sub y m w 0 d s} def
/m5 {mp x w2 sub y w2 sub m w w d x w2 sub y w2 add m w w neg d s} def
/reencdict 24 dict def /ReEncode {reencdict begin /nco&na exch def
/nfnam exch def /basefontname exch def /basefontdict basefontname findfont def
/newfont basefontdict maxlength dict def basefontdict {exch dup /FID ne
{dup /Encoding eq {exch dup length array copy newfont 3 1 roll put} {exch
newfont 3 1 roll put} ifelse} {pop pop} ifelse } forall newfont
/FontName nfnam put nco&na aload pop nco&na length 2 idiv {newfont
/Encoding get 3 1 roll put} repeat nfnam newfont definefont pop end } def
/accvec [ 176 /agrave 181 /Agrave 190 /acircumflex 192 /Acircumflex
201 /adieresis 204 /Adieresis 209 /ccedilla 210 /Ccedilla 211 /eacute
212 /Eacute 213 /egrave 214 /Egrave 215 /ecircumflex 216 /Ecircumflex
217 /edieresis 218 /Edieresis 219 /icircumflex 220 /Icircumflex
221 /idieresis 222 /Idieresis 223 /ntilde 224 /Ntilde 226 /ocircumflex
228 /Ocircumflex 229 /odieresis 230 /Odieresis 231 /ucircumflex 236 /Ucircumflex
237 /udieresis 238 /Udieresis 239 /aring 242 /Aring 243 /ydieresis
244 /Ydieresis 246 /aacute 247 /Aacute 252 /ugrave 253 /Ugrave] def
/Times-Roman /Times-Roman accvec ReEncode
/Times-Italic /Times-Italic accvec ReEncode
/Times-Bold /Times-Bold accvec ReEncode
/Times-BoldItalic /Times-BoldItalic accvec ReEncode
/Helvetica /Helvetica accvec ReEncode
/Helvetica-Oblique /Helvetica-Oblique accvec ReEncode
/Helvetica-Bold /Helvetica-Bold accvec ReEncode
/Helvetica-BoldOblique /Helvetica-BoldOblique  accvec ReEncode
/Courier /Courier accvec ReEncode
/Courier-Oblique /Courier-Oblique accvec ReEncode
/Courier-Bold /Courier-Bold accvec ReEncode
/Courier-BoldOblique /Courier-BoldOblique accvec ReEncode
/oshow {gsave [] 0 sd true charpath stroke gr} def
/stwn { /fs exch def /fn exch def /text exch def fn findfont fs sf
 text sw pop xs add /xs exch def} def
/stwb { /fs exch def /fn exch def /nbas exch def /textf exch def
textf length /tlen exch def nbas tlen gt {/nbas tlen def} if
fn findfont fs sf textf dup length nbas sub nbas getinterval sw
pop neg xs add /xs exch def} def
/accspe [ 65 /plusminus 66 /bar 67 /existential 68 /universal
69 /exclam 70 /numbersign 71 /greater 72 /question 73 /integral
74 /colon 75 /semicolon 76 /less 77 /bracketleft 78 /bracketright
79 /greaterequal 80 /braceleft 81 /braceright 82 /radical
83 /spade 84 /heart 85 /diamond 86 /club 87 /lessequal
88 /multiply 89 /percent 90 /infinity 48 /circlemultiply 49 /circleplus
50 /emptyset 51 /lozenge 52 /bullet 53 /arrowright 54 /arrowup
55 /arrowleft 56 /arrowdown 57 /arrowboth 48 /degree 44 /comma 43 /plus
 45 /angle 42 /angleleft 47 /divide 61 /notequal 40 /equivalence 41 /second
 97 /approxequal 98 /congruent 99 /perpendicular 100 /partialdiff 101 /florin
 102 /intersection 103 /union 104 /propersuperset 105 /reflexsuperset
 106 /notsubset 107 /propersubset 108 /reflexsubset 109 /element 110 /notelement
 111 /gradient 112 /logicaland 113 /logicalor 114 /arrowdblboth
 115 /arrowdblleft 116 /arrowdblup 117 /arrowdblright 118 /arrowdbldown
 119 /ampersand 120 /omega1 121 /similar 122 /aleph ] def
/Symbol /Special accspe ReEncode
%%EndProlog
%%BeginSetup
%%EndSetup
newpath  gsave  .25 .25 scale  gsave 0 0 t black [] 0 sd 1 lw 2 lw 1417 1417 397
 227 bl 1417 1417 397 227 C 1 0 0 c 397 227 m 189 X 1 Y 47 X 1 Y 47 X 6 Y 48 X
 13 Y 47 X 16 Y 47 X 47 Y 47 X 95 Y 48 X 349 Y 47 X 672 Y 47 X 76 Y 47 X -185 Y
 48 X -111 Y 47 X -127 Y 47 X -57 Y 47 X -112 Y 48 X -50 Y 47 X -53 Y 47 X -81 Y
 47 X -11 Y 48 X -30 Y 47 X -78 Y 47 X -37 Y 47 X -31 Y 48 X -128 Y 47 X -152 Y
 47 X -19 Y 47 X -14 Y s NC 1 lw black 397 227 m 1417 Y s 2 lw 431 227 m -34 X s
 414 259 m -17 X s 414 291 m -17 X s 414 324 m -17 X s 414 356 m -17 X s 431 388
 m -34 X s 414 420 m -17 X s 414 453 m -17 X s 414 485 m -17 X s 414 517 m -17 X
 s 431 549 m -34 X s 414 582 m -17 X s 414 614 m -17 X s 414 646 m -17 X s 414
 678 m -17 X s 431 711 m -34 X s 414 743 m -17 X s 414 775 m -17 X s 414 807 m
 -17 X s 414 840 m -17 X s 431 872 m -34 X s 414 904 m -17 X s 414 936 m -17 X s
 414 969 m -17 X s 414 1001 m -17 X s 431 1033 m -34 X s 414 1065 m -17 X s 414
 1098 m -17 X s 414 1130 m -17 X s 414 1162 m -17 X s 431 1194 m -34 X s 414
 1227 m -17 X s 414 1259 m -17 X s 414 1291 m -17 X s 414 1323 m -17 X s 431
 1356 m -34 X s 414 1388 m -17 X s 414 1420 m -17 X s 414 1452 m -17 X s 414
 1485 m -17 X s 431 1517 m -34 X s 431 1517 m -34 X s 414 1549 m -17 X s 414
 1581 m -17 X s 414 1614 m -17 X s
 /xs 0 def 
(0)
 /Helvetica-Bold     62 stwn 
 gsave  335 204
 t   0 r  xs neg 0 t 0 0 m
 /Helvetica-Bold findfont   62 sf 0    0 m 
(0)
 show 
 gr 
 /xs 0 def 
(250)
 /Helvetica-Bold     62 stwn 
 gsave  335 365
 t   0 r  xs neg 0 t 0 0 m
 /Helvetica-Bold findfont   62 sf 0    0 m 
(250)
 show 
 gr 
 /xs 0 def 
(500)
 /Helvetica-Bold     62 stwn 
 gsave  335 527
 t   0 r  xs neg 0 t 0 0 m
 /Helvetica-Bold findfont   62 sf 0    0 m 
(500)
 show 
 gr 
 /xs 0 def 
(750)
 /Helvetica-Bold     62 stwn 
 gsave  335 688
 t   0 r  xs neg 0 t 0 0 m
 /Helvetica-Bold findfont   62 sf 0    0 m 
(750)
 show 
 gr 
 /xs 0 def 
(1000)
 /Helvetica-Bold     62 stwn 
 gsave  335 849
 t   0 r  xs neg 0 t 0 0 m
 /Helvetica-Bold findfont   62 sf 0    0 m 
(1000)
 show 
 gr 
 /xs 0 def 
(1250)
 /Helvetica-Bold     62 stwn 
 gsave  335 1010
 t   0 r  xs neg 0 t 0 0 m
 /Helvetica-Bold findfont   62 sf 0    0 m 
(1250)
 show 
 gr 
 /xs 0 def 
(1500)
 /Helvetica-Bold     62 stwn 
 gsave  335 1172
 t   0 r  xs neg 0 t 0 0 m
 /Helvetica-Bold findfont   62 sf 0    0 m 
(1500)
 show 
 gr 
 /xs 0 def 
(1750)
 /Helvetica-Bold     62 stwn 
 gsave  335 1333
 t   0 r  xs neg 0 t 0 0 m
 /Helvetica-Bold findfont   62 sf 0    0 m 
(1750)
 show 
 gr 
 /xs 0 def 
(2000)
 /Helvetica-Bold     62 stwn 
 gsave  335 1494
 t   0 r  xs neg 0 t 0 0 m
 /Helvetica-Bold findfont   62 sf 0    0 m 
(2000)
 show 
 gr  1 lw 397 227 m 1417 X s 2 lw 397 261 m -34 Y s 444 244 m -17 Y s 491 244 m
 -17 Y s 539 244 m -17 Y s 586 261 m -34 Y s 633 244 m -17 Y s 680 244 m -17 Y s
 728 244 m -17 Y s 775 261 m -34 Y s 822 244 m -17 Y s 869 244 m -17 Y s 917 244
 m -17 Y s 964 261 m -34 Y s 1011 244 m -17 Y s 1058 244 m -17 Y s 1106 244 m
 -17 Y s 1153 261 m -34 Y s 1200 244 m -17 Y s 1247 244 m -17 Y s 1295 244 m -17
 Y s 1342 261 m -34 Y s 1389 244 m -17 Y s 1436 244 m -17 Y s 1484 244 m -17 Y s
 1531 261 m -34 Y s 1578 244 m -17 Y s 1625 244 m -17 Y s 1673 244 m -17 Y s
 1720 261 m -34 Y s 1720 261 m -34 Y s 1767 244 m -17 Y s 1814 244 m -17 Y s
 /xs 0 def 
(0)
 /Helvetica-Bold     62 stwn 
 gsave  397 136
 t   0 r  xs 2 div neg 0 t 0 0 m
 /Helvetica-Bold findfont   62 sf 0    0 m 
(0)
 show 
 gr 
 /xs 0 def 
(20)
 /Helvetica-Bold     62 stwn 
 gsave  586 136
 t   0 r  xs 2 div neg 0 t 0 0 m
 /Helvetica-Bold findfont   62 sf 0    0 m 
(20)
 show 
 gr 
 /xs 0 def 
(40)
 /Helvetica-Bold     62 stwn 
 gsave  775 136
 t   0 r  xs 2 div neg 0 t 0 0 m
 /Helvetica-Bold findfont   62 sf 0    0 m 
(40)
 show 
 gr 
 /xs 0 def 
(60)
 /Helvetica-Bold     62 stwn 
 gsave  964 136
 t   0 r  xs 2 div neg 0 t 0 0 m
 /Helvetica-Bold findfont   62 sf 0    0 m 
(60)
 show 
 gr 
 /xs 0 def 
(80)
 /Helvetica-Bold     62 stwn 
 gsave  1153 136
 t   0 r  xs 2 div neg 0 t 0 0 m
 /Helvetica-Bold findfont   62 sf 0    0 m 
(80)
 show 
 gr 
 /xs 0 def 
(100)
 /Helvetica-Bold     62 stwn 
 gsave  1342 136
 t   0 r  xs 2 div neg 0 t 0 0 m
 /Helvetica-Bold findfont   62 sf 0    0 m 
(100)
 show 
 gr 
 /xs 0 def 
(120)
 /Helvetica-Bold     62 stwn 
 gsave  1531 136
 t   0 r  xs 2 div neg 0 t 0 0 m
 /Helvetica-Bold findfont   62 sf 0    0 m 
(120)
 show 
 gr 
 /xs 0 def 
(140)
 /Helvetica-Bold     62 stwn 
 gsave  1720 136
 t   0 r  xs 2 div neg 0 t 0 0 m
 /Helvetica-Bold findfont   62 sf 0    0 m 
(140)
 show 
 gr  1417 1417 397 227 C 0 0 1 c 397 227 m 378 X 4 Y 47 X 11 Y 47 X 27 Y 48 X
 369 Y 47 X 849 Y 47 X -23 Y 47 X -148 Y 48 X -97 Y 47 X -80 Y 47 X -114 Y 47 X
 -58 Y 48 X -62 Y 47 X -75 Y 47 X -53 Y 47 X -21 Y 48 X -84 Y 47 X -13 Y 47 X
 -25 Y 47 X -32 Y 48 X -165 Y 47 X -159 Y 47 X -29 Y 47 X -22 Y s 0 1 0 c 397
 227 m 378 X 1 Y 47 X 8 Y 47 X 22 Y 48 X 356 Y 47 X 797 Y 47 X 58 Y 47 X -103 Y
 48 X -93 Y 47 X -121 Y 47 X -111 Y 47 X -72 Y 48 X -53 Y 47 X -86 Y 47 X -9 Y
 47 X -68 Y 48 X -18 Y 47 X -45 Y 47 X -39 Y 47 X -52 Y 48 X -126 Y 47 X -202 Y
 47 X -28 Y 47 X -16 Y s 2268 1814 0 0 C 1417 1417 397 227 C 2268 1814 0 0 C
 black
 gsave  491 1356
 t   0 r 0 0 m
 /Helvetica-Bold findfont   62 sf 0    0 m 
(E\301)
 show 
 currentpoint pop 0 t 
 /Symbol findfont   43 sf 0  -21 m 
(m)
 show 
 currentpoint pop 0 t 
 /Special findfont   62 sf 0    0 m 
(L)
 show 
 currentpoint pop 0 t 
 /Helvetica-Bold findfont   62 sf 0    0 m 
(100 GeV)
 show 
 gr  1417 1417 397 227 C 2268 1814 0 0 C
 /xs 0 def 
(E)
 /Helvetica-Bold     62 stwn 
(s)
 /Helvetica-Bold     43 stwn 
(, GeV)
 /Helvetica-Bold     62 stwn 
 gsave  1814 34
 t   0 r  xs neg 0 t 0 0 m
 /Helvetica-Bold findfont   62 sf 0    0 m 
(E)
 show 
 currentpoint pop 0 t 
 /Helvetica-Bold findfont   43 sf 0   31 m 
(s)
 show 
 currentpoint pop 0 t 
/Helvetica-Bold findfont   43 sf 
(s)
 dup length 1 sub 1 getinterval 
 stringwidth pop 2 div neg    0 rm 
 /Helvetica-Bold findfont   43 sf 0  -43 rm 
( tot)
 stringwidth pop 2 div neg 0 rm 
( tot)
 show
 /Helvetica-Bold findfont   62 sf 0    0 m 
(, GeV)
 show 
 gsave  gr  gr 
 /xs 0 def 
(Events/5 GeV)
 /Helvetica-Bold     62 stwn 
 gsave  113 1644
 t  90 r  xs neg 0 t 0 0 m
 /Helvetica-Bold findfont   62 sf 0    0 m 
(Events/5 GeV)
 show 
 gr  1417 1417 397 227 C 2268 1814 0 0 C 1417 1417 397 227 C 2268 1814 0 0 C 1 0
 0 c
 gsave  1247 1356
 t   0 r 0 0 m
 /Helvetica-Bold findfont   62 sf 0    0 m 
(__)
 show 
 gr  1417 1417 397 227 C 2268 1814 0 0 C 1417 1417 397 227 C 2268 1814 0 0 C
 black
 gsave  1342 1323
 t   0 r 0 0 m
 /Helvetica-Bold findfont   62 sf 0    0 m 
(60x60 cm)
 show 
 currentpoint pop 0 t 
 /Helvetica-Bold findfont   43 sf 0   31 m 
(2)
 show 
 gr  1417 1417 397 227 C 2268 1814 0 0 C 1417 1417 397 227 C 2268 1814 0 0 C 0 0
 1 c
 gsave  1247 1259
 t   0 r 0 0 m
 /Helvetica-Bold findfont   62 sf 0    0 m 
(__)
 show 
 gr  1417 1417 397 227 C 2268 1814 0 0 C 1417 1417 397 227 C 2268 1814 0 0 C
 black
 gsave  1342 1227
 t   0 r 0 0 m
 /Helvetica-Bold findfont   62 sf 0    0 m 
(120x120 cm)
 show 
 currentpoint pop 0 t 
 /Helvetica-Bold findfont   43 sf 0   31 m 
(2)
 show 
 gr  1417 1417 397 227 C 2268 1814 0 0 C 1417 1417 397 227 C 2268 1814 0 0 C 0 1
 0 c
 gsave  1247 1162
 t   0 r 0 0 m
 /Helvetica-Bold findfont   62 sf 0    0 m 
(__)
 show 
 gr  1417 1417 397 227 C 2268 1814 0 0 C 1417 1417 397 227 C 2268 1814 0 0 C
 black
 gsave  1342 1130
 t   0 r 0 0 m
 /Helvetica-Bold findfont   62 sf 0    0 m 
(150x150 cm)
 show 
 currentpoint pop 0 t 
 /Helvetica-Bold findfont   43 sf 0   31 m 
(2)
 show 
 gr  1417 1417 397 227 C
 gr  gr 
showpage
end
%%EOF
