%!PS-Adobe-2.0 EPSF-2.0
%%BoundingBox: 0 0 567 454
%%Title: k0-punch-2.eps
%%Creator: HIGZ Version 1.29/04
%%CreationDate: 2014/09/06   10.36
%%EndComments
%%BeginProlog
80 dict begin
/s {stroke} def /l {lineto} def /m {moveto} def /t {translate} def
/sw {stringwidth} def /r {rotate} def /rl {roll}  def /R {repeat} def
/d {rlineto} def /rm {rmoveto} def /gr {grestore} def /f {eofill} def
/c {setrgbcolor} def /lw {setlinewidth} def /sd {setdash} def
/cl {closepath} def /sf {scalefont setfont} def /black {0 setgray} def
/box {m dup 0 exch d exch 0 d 0 exch neg d cl} def
/NC{systemdict begin initclip end}def/C{NC box clip newpath}def
/bl {box s} def /bf {box f} def /Y { 0 exch d} def /X { 0 d} def 
/mp {newpath /y exch def /x exch def} def
/side {[w .77 mul w .23 mul] .385 w mul sd w 0 l currentpoint t -144 r} def
/mr {mp x y w2 0 360 arc} def /m24 {mr s} def /m20 {mr f} def
/mb {mp x y w2 add m w2 neg 0 d 0 w neg d w 0 d 0 w d cl} def
/mt {mp x y w2 add m w2 neg w neg d w 0 d cl} def
/m21 {mb f} def /m25 {mb s} def /m22 {mt f} def /m26 {mt s} def
/m23 {mp x y w2 sub m w2 w d w neg 0 d cl f} def
/m27 {mp x y w2 add m w3 neg w2 neg d w3 w2 neg d w3  w2 d cl s} def
/m28 {mp x w2 sub y w2 sub w3 add m w3 0 d 0 w3 neg d w3 0 d 0 w3 d w3 0 d
 0 w3 d w3 neg 0 d 0 w3 d w3 neg 0 d
 0 w3 neg d w3 neg 0 d cl s } def
/m29 {mp gsave x w2 sub y w2 add w3 sub m currentpoint t
 4 {side} repeat cl fill gr} def
/m30 {mp gsave x w2 sub y w2 add w3 sub m currentpoint t
 5 {side} repeat s gr} def
/m31 {mp x y w2 sub m 0 w d x w2 sub y m w 0 d
 x w2 sub y w2 add m w w neg d x w2 sub y w2
 sub m w w d s} def
/m2 {mp x y w2 sub m 0 w d x w2 sub y m w 0 d s} def
/m5 {mp x w2 sub y w2 sub m w w d x w2 sub y w2 add m w w neg d s} def
/reencdict 24 dict def /ReEncode {reencdict begin /nco&na exch def
/nfnam exch def /basefontname exch def /basefontdict basefontname findfont def
/newfont basefontdict maxlength dict def basefontdict {exch dup /FID ne
{dup /Encoding eq {exch dup length array copy newfont 3 1 roll put} {exch
newfont 3 1 roll put} ifelse} {pop pop} ifelse } forall newfont
/FontName nfnam put nco&na aload pop nco&na length 2 idiv {newfont
/Encoding get 3 1 roll put} repeat nfnam newfont definefont pop end } def
/accvec [ 176 /agrave 181 /Agrave 190 /acircumflex 192 /Acircumflex
201 /adieresis 204 /Adieresis 209 /ccedilla 210 /Ccedilla 211 /eacute
212 /Eacute 213 /egrave 214 /Egrave 215 /ecircumflex 216 /Ecircumflex
217 /edieresis 218 /Edieresis 219 /icircumflex 220 /Icircumflex
221 /idieresis 222 /Idieresis 223 /ntilde 224 /Ntilde 226 /ocircumflex
228 /Ocircumflex 229 /odieresis 230 /Odieresis 231 /ucircumflex 236 /Ucircumflex
237 /udieresis 238 /Udieresis 239 /aring 242 /Aring 243 /ydieresis
244 /Ydieresis 246 /aacute 247 /Aacute 252 /ugrave 253 /Ugrave] def
/Times-Roman /Times-Roman accvec ReEncode
/Times-Italic /Times-Italic accvec ReEncode
/Times-Bold /Times-Bold accvec ReEncode
/Times-BoldItalic /Times-BoldItalic accvec ReEncode
/Helvetica /Helvetica accvec ReEncode
/Helvetica-Oblique /Helvetica-Oblique accvec ReEncode
/Helvetica-Bold /Helvetica-Bold accvec ReEncode
/Helvetica-BoldOblique /Helvetica-BoldOblique  accvec ReEncode
/Courier /Courier accvec ReEncode
/Courier-Oblique /Courier-Oblique accvec ReEncode
/Courier-Bold /Courier-Bold accvec ReEncode
/Courier-BoldOblique /Courier-BoldOblique accvec ReEncode
/oshow {gsave [] 0 sd true charpath stroke gr} def
/stwn { /fs exch def /fn exch def /text exch def fn findfont fs sf
 text sw pop xs add /xs exch def} def
/stwb { /fs exch def /fn exch def /nbas exch def /textf exch def
textf length /tlen exch def nbas tlen gt {/nbas tlen def} if
fn findfont fs sf textf dup length nbas sub nbas getinterval sw
pop neg xs add /xs exch def} def
/accspe [ 65 /plusminus 66 /bar 67 /existential 68 /universal
69 /exclam 70 /numbersign 71 /greater 72 /question 73 /integral
74 /colon 75 /semicolon 76 /less 77 /bracketleft 78 /bracketright
79 /greaterequal 80 /braceleft 81 /braceright 82 /radical
83 /spade 84 /heart 85 /diamond 86 /club 87 /lessequal
88 /multiply 89 /percent 90 /infinity 48 /circlemultiply 49 /circleplus
50 /emptyset 51 /lozenge 52 /bullet 53 /arrowright 54 /arrowup
55 /arrowleft 56 /arrowdown 57 /arrowboth 48 /degree 44 /comma 43 /plus
 45 /angle 42 /angleleft 47 /divide 61 /notequal 40 /equivalence 41 /second
 97 /approxequal 98 /congruent 99 /perpendicular 100 /partialdiff 101 /florin
 102 /intersection 103 /union 104 /propersuperset 105 /reflexsuperset
 106 /notsubset 107 /propersubset 108 /reflexsubset 109 /element 110 /notelement
 111 /gradient 112 /logicaland 113 /logicalor 114 /arrowdblboth
 115 /arrowdblleft 116 /arrowdblup 117 /arrowdblright 118 /arrowdbldown
 119 /ampersand 120 /omega1 121 /similar 122 /aleph ] def
/Symbol /Special accspe ReEncode
%%EndProlog
%%BeginSetup
%%EndSetup
newpath  gsave  .25 .25 scale  gsave 0 0 t black [] 0 sd 1 lw 2 lw 1417 1417 397
 227 bl 2268 1814 0 0 C 1417 1417 397 227 C 1 0 0 c 397 331 m 164 Y 4 X -61 Y 4
 X -103 Y 8 X 164 Y 4 X -268 Y 12 X 104 Y 4 X -104 Y 4 X 104 Y 4 X -104 Y 25 X
 104 Y 4 X -104 Y 12 X 104 Y 4 X -104 Y 16 X 104 Y 4 X -104 Y 12 X 104 Y 4 X
 -104 Y 13 X 104 Y 4 X -104 Y 16 X 104 Y 4 X -104 Y 20 X 104 Y 8 X -104 Y 8 X
 104 Y 4 X -104 Y 9 X 104 Y 8 X -104 Y 4 X 207 Y 4 X -207 Y 8 X 104 Y 8 X -104 Y
 4 X 104 Y 8 X -104 Y 4 X 104 Y 4 X -104 Y 8 X 104 Y 4 X -104 Y 17 X 104 Y 4 X
 -104 Y 4 X 207 Y 4 X -103 Y 4 X -104 Y 12 X 104 Y 4 X -104 Y 4 X 207 Y 4 X -207
 Y 4 X 104 Y 4 X -104 Y 8 X 104 Y 4 X -104 Y 4 X 104 Y 4 X -104 Y 8 X 104 Y 9 X
 -104 Y 8 X 207 Y 4 X -103 Y 8 X -104 Y 4 X 207 Y 4 X -103 Y 4 X s 806 331 m 207
 Y 4 X -311 Y 4 X 104 Y 12 X -104 Y 20 X 268 Y 5 X -61 Y 4 X -103 Y 4 X 164 Y 4
 X 43 Y 4 X -207 Y 4 X 164 Y 4 X -268 Y 16 X 268 Y 4 X -268 Y 4 X 104 Y 4 X 268
 Y 4 X -104 Y 4 X -61 Y 4 X -207 Y 12 X 207 Y 4 X -103 Y 5 X -104 Y 4 X 268 Y 4
 X -164 Y 4 X -104 Y 4 X 104 Y 4 X 164 Y 8 X 43 Y 4 X -311 Y 4 X 207 Y 8 X -207
 Y 12 X 104 Y 8 X 207 Y 4 X -43 Y 4 X 77 Y 5 X -138 Y 8 X 104 Y 4 X -311 Y 4 X
 311 Y 4 X -43 Y 4 X 43 Y 4 X -207 Y 4 X 164 Y 4 X 77 Y 4 X -77 Y 4 X 104 Y 4 X
 -104 Y 8 X 77 Y 4 X 27 Y 4 X -268 Y 4 X 241 Y 4 X -138 Y 4 X 165 Y 5 X -61 Y 4
 X 84 Y 4 X 38 Y 4 X -38 Y 4 X -50 Y 4 X 50 Y 4 X 68 Y 4 X -91 Y 4 X 43 Y 4 X
 -20 Y 4 X 104 Y 4 X 10 Y 4 X -164 Y 4 X 154 Y 4 X 20 Y 4 X -31 Y 4 X -55 Y 4 X
 66 Y 8 X -23 Y 5 X -13 Y 4 X 89 Y 4 X -53 Y 4 X 53 Y 8 X 39 Y 4 X 82 Y 4 X -21
 Y 4 X 74 Y 4 X -15 Y 4 X s 1215 938 m 35 Y 4 X 26 Y 4 X 76 Y 4 X 39 Y 4 X 8 Y 4
 X 35 Y 4 X 33 Y 4 X 29 Y 4 X 51 Y 4 X 16 Y 5 X 32 Y 4 X 23 Y 4 X 30 Y 4 X 24 Y
 4 X 19 Y 4 X 13 Y 4 X 22 Y 4 X 14 Y 4 X 9 Y 4 X 15 Y 4 X 11 Y 4 X 6 Y 4 X 15 Y
 4 X 8 Y 8 X 6 Y 4 X 4 Y 4 X -3 Y 4 X 6 Y 4 X -3 Y 5 X 3 Y 4 X -3 Y 4 X 4 Y 4 X
 -12 Y 4 X -1 Y 4 X -9 Y 4 X -3 Y 4 X -5 Y 4 X -12 Y 4 X -10 Y 4 X -6 Y 4 X -17
 Y 4 X -5 Y 4 X -5 Y 4 X -13 Y 4 X -13 Y 4 X -20 Y 4 X -8 Y 4 X -14 Y 4 X -27 Y
 5 X -9 Y 4 X -8 Y 4 X -22 Y 4 X -16 Y 4 X -24 Y 4 X -11 Y 4 X -25 Y 4 X -4 Y 4
 X -18 Y 4 X -43 Y 4 X -11 Y 4 X -33 Y 4 X -16 Y 4 X -22 Y 4 X -2 Y 4 X 2 Y 4 X
 -49 Y 4 X -42 Y 4 X -25 Y 4 X 18 Y 5 X -24 Y 4 X -52 Y 4 X -31 Y 4 X 6 Y 4 X
 -51 Y 4 X -25 Y 4 X 47 Y 4 X -12 Y 4 X -59 Y 4 X -74 Y 4 X -11 Y 4 X -93 Y 4 X
 68 Y 4 X -48 Y 4 X -70 Y 4 X 88 Y 4 X -329 Y 4 X 241 Y 4 X -138 Y 4 X 165 Y 5 X
 -61 Y 4 X -207 Y 4 X -104 Y 4 X 104 Y 8 X 103 Y 4 X 61 Y 4 X -268 Y 16 X s 1624
 227 m 4 X 104 Y 12 X -104 Y 41 X 104 Y 4 X -104 Y 129 X 104 Y s NC 1 lw black
 397 227 m 1417 Y s 2 lw 414 227 m -17 X s 414 254 m -17 X s 414 277 m -17 X s
 414 297 m -17 X s 414 315 m -17 X s 431 331 m -34 X s
 /xs 0 def 
(1)
 /Helvetica-Bold     62 stwn 
 gsave  335 308
 t   0 r  xs neg 0 t 0 0 m
 /Helvetica-Bold findfont   62 sf 0    0 m 
(1)
 show 
 gr  414 434 m -17 X s 414 495 m -17 X s 414 538 m -17 X s 414 572 m -17 X s 414
 599 m -17 X s 414 622 m -17 X s 414 642 m -17 X s 414 660 m -17 X s 431 675 m
 -34 X s
 /xs 0 def 
(10)
 /Helvetica-Bold     62 stwn 
 gsave  335 653
 t   0 r  xs neg 0 t 0 0 m
 /Helvetica-Bold findfont   62 sf 0    0 m 
(10)
 show 
 gr  414 779 m -17 X s 414 840 m -17 X s 414 883 m -17 X s 414 916 m -17 X s 414
 944 m -17 X s 414 967 m -17 X s 414 987 m -17 X s 414 1004 m -17 X s 431 1020 m
 -34 X s
 /xs 0 def 
(10)
 /Helvetica-Bold     62 stwn 
 gsave  335 997
 t   0 r  xs neg 0 t 0 0 m
 /Helvetica-Bold findfont   62 sf 0    0 m 
(10)
 show 
 gr 
 /xs 0 def 
(2)
 /Helvetica-Bold     50 stwn 
 gsave  380 1030
 t   0 r  xs neg 0 t 0 0 m
 /Helvetica-Bold findfont   50 sf 0    0 m 
(2)
 show 
 gr  414 1124 m -17 X s 414 1185 m -17 X s 414 1228 m -17 X s 414 1261 m -17 X s
 414 1288 m -17 X s 414 1311 m -17 X s 414 1331 m -17 X s 414 1349 m -17 X s 431
 1365 m -34 X s
 /xs 0 def 
(10)
 /Helvetica-Bold     62 stwn 
 gsave  335 1342
 t   0 r  xs neg 0 t 0 0 m
 /Helvetica-Bold findfont   62 sf 0    0 m 
(10)
 show 
 gr 
 /xs 0 def 
(3)
 /Helvetica-Bold     50 stwn 
 gsave  380 1375
 t   0 r  xs neg 0 t 0 0 m
 /Helvetica-Bold findfont   50 sf 0    0 m 
(3)
 show 
 gr  414 1469 m -17 X s 414 1529 m -17 X s 414 1572 m -17 X s 414 1606 m -17 X s
 414 1633 m -17 X s 1 lw 397 227 m 1417 X s 2 lw 397 261 m -34 Y s 448 244 m -17
 Y s 498 244 m -17 Y s 549 244 m -17 Y s 599 261 m -34 Y s 650 244 m -17 Y s 701
 244 m -17 Y s 751 244 m -17 Y s 802 261 m -34 Y s 853 244 m -17 Y s 903 244 m
 -17 Y s 954 244 m -17 Y s 1004 261 m -34 Y s 1055 244 m -17 Y s 1106 244 m -17
 Y s 1156 244 m -17 Y s 1207 261 m -34 Y s 1258 244 m -17 Y s 1308 244 m -17 Y s
 1359 244 m -17 Y s 1409 261 m -34 Y s 1460 244 m -17 Y s 1511 244 m -17 Y s
 1561 244 m -17 Y s 1612 261 m -34 Y s 1663 244 m -17 Y s 1713 244 m -17 Y s
 1764 244 m -17 Y s 1814 261 m -34 Y s
 /xs 0 def 
(0)
 /Helvetica-Bold     62 stwn 
 gsave  397 136
 t   0 r  xs 2 div neg 0 t 0 0 m
 /Helvetica-Bold findfont   62 sf 0    0 m 
(0)
 show 
 gr 
 /xs 0 def 
(20)
 /Helvetica-Bold     62 stwn 
 gsave  599 136
 t   0 r  xs 2 div neg 0 t 0 0 m
 /Helvetica-Bold findfont   62 sf 0    0 m 
(20)
 show 
 gr 
 /xs 0 def 
(40)
 /Helvetica-Bold     62 stwn 
 gsave  802 136
 t   0 r  xs 2 div neg 0 t 0 0 m
 /Helvetica-Bold findfont   62 sf 0    0 m 
(40)
 show 
 gr 
 /xs 0 def 
(60)
 /Helvetica-Bold     62 stwn 
 gsave  1004 136
 t   0 r  xs 2 div neg 0 t 0 0 m
 /Helvetica-Bold findfont   62 sf 0    0 m 
(60)
 show 
 gr 
 /xs 0 def 
(80)
 /Helvetica-Bold     62 stwn 
 gsave  1207 136
 t   0 r  xs 2 div neg 0 t 0 0 m
 /Helvetica-Bold findfont   62 sf 0    0 m 
(80)
 show 
 gr 
 /xs 0 def 
(100)
 /Helvetica-Bold     62 stwn 
 gsave  1409 136
 t   0 r  xs 2 div neg 0 t 0 0 m
 /Helvetica-Bold findfont   62 sf 0    0 m 
(100)
 show 
 gr 
 /xs 0 def 
(120)
 /Helvetica-Bold     62 stwn 
 gsave  1612 136
 t   0 r  xs 2 div neg 0 t 0 0 m
 /Helvetica-Bold findfont   62 sf 0    0 m 
(120)
 show 
 gr 
 /xs 0 def 
(140)
 /Helvetica-Bold     62 stwn 
 gsave  1814 136
 t   0 r  xs 2 div neg 0 t 0 0 m
 /Helvetica-Bold findfont   62 sf 0    0 m 
(140)
 show 
 gr  1417 1417 397 227 C 2268 1814 0 0 C 1417 1417 397 227 C 2268 1814 0 0 C
 gsave  498 1365
 t   0 r 0 0 m
 /Helvetica-Bold findfont   47 sf 0    0 m 
(a\))
 show 
 gr  1417 1417 397 227 C 2268 1814 0 0 C 1417 1417 397 227 C 2268 1814 0 0 C
 gsave  599 1365
 t   0 r 0 0 m
 /Helvetica-Bold findfont   47 sf 0    0 m 
(95 GeV)
 show 
 gr  1417 1417 397 227 C 2268 1814 0 0 C 1417 1417 397 227 C 2268 1814 0 0 C
 gsave  599 1261
 t   0 r 0 0 m
 /Helvetica-Bold findfont   47 sf 0    0 m 
(K)
 show 
 currentpoint pop 0 t 
 /Helvetica-Bold findfont   33 sf 0   24 m 
(-)
 show 
 currentpoint pop 0 t 
 /Helvetica-Bold findfont   47 sf 0    0 m 
(+p\040)
 show 
 currentpoint pop 0 t 
 /Special findfont   47 sf 0    0 m 
(5)
 show 
 currentpoint pop 0 t 
 /Helvetica-Bold findfont   47 sf 0    0 m 
( K)
 show 
 currentpoint pop 0 t 
 /Helvetica-Bold findfont   33 sf 0   24 m 
(0)
 show 
 currentpoint pop 0 t 
 /Helvetica-Bold findfont   47 sf 0    0 m 
(+n)
 show 
 gr  1417 1417 397 227 C 2268 1814 0 0 C 1417 1417 397 227 C 2268 1814 0 0 C
 gsave  599 1124
 t   0 r 0 0 m
 /Helvetica-Bold findfont   47 sf 0    0 m 
(60x60 cm)
 show 
 currentpoint pop 0 t 
 /Helvetica-Bold findfont   33 sf 0   24 m 
(2)
 show 
 currentpoint pop 0 t 
 /Helvetica-Bold findfont   47 sf 0    0 m 
(x2 modules)
 show 
 gr  1417 1417 397 227 C 2268 1814 0 0 C
 /xs 0 def 
(HCAL energy, GeV)
 /Helvetica-Bold     62 stwn 
 gsave  1814 34
 t   0 r  xs neg 0 t 0 0 m
 /Helvetica-Bold findfont   62 sf 0    0 m 
(HCAL energy, GeV)
 show 
 gr 
 /xs 0 def 
(Events/0.4 GeV)
 /Helvetica-Bold     62 stwn 
 gsave  170 1644
 t  90 r  xs neg 0 t 0 0 m
 /Helvetica-Bold findfont   62 sf 0    0 m 
(Events/0.4 GeV)
 show 
 gr  1417 1417 397 227 C
 gr  gr 
showpage
end
%%EOF
